obj1ID,obj1Name,obj2,obj2Label
http://www.wikidata.org/entity/Q254,Wolfgang Amadeus Mozart,http://www.wikidata.org/entity/Q1444,organ
http://www.wikidata.org/entity/Q240222,Missy Higgins,http://www.wikidata.org/entity/Q5994,piano
http://www.wikidata.org/entity/Q4093816,Aleksey Borisov,http://www.wikidata.org/entity/Q68,computer
http://www.wikidata.org/entity/Q17385985,Tom Goss,http://www.wikidata.org/entity/Q250,computer keyboard
http://www.wikidata.org/entity/Q210172,Kevin Jonas,http://www.wikidata.org/entity/Q6607,guitar
http://www.wikidata.org/entity/Q16183093,Shin Jimin,http://www.wikidata.org/entity/Q6010,rapping
http://www.wikidata.org/entity/Q1779,Louis Armstrong,http://www.wikidata.org/entity/Q8338,trumpet
http://www.wikidata.org/entity/Q935861,Jan van Beekum,http://www.wikidata.org/entity/Q8343,clarinet
http://www.wikidata.org/entity/Q536322,George Duke,http://www.wikidata.org/entity/Q7390,human voice
http://www.wikidata.org/entity/Q124772,Pietro Locatelli,http://www.wikidata.org/entity/Q8355,violin
http://www.wikidata.org/entity/Q489239,Grachan Moncur III,http://www.wikidata.org/entity/Q8350,trombone
http://www.wikidata.org/entity/Q368030,Makanda Ken McIntyre,http://www.wikidata.org/entity/Q8345,bass clarinet
http://www.wikidata.org/entity/Q457735,Cristina Pato,http://www.wikidata.org/entity/Q8347,bagpipes
http://www.wikidata.org/entity/Q60317,Lynn Harrell,http://www.wikidata.org/entity/Q8371,cello
http://www.wikidata.org/entity/Q526660,Andy McGhee,http://www.wikidata.org/entity/Q9798,saxophone
http://www.wikidata.org/entity/Q322172,Charles Mackerras,http://www.wikidata.org/entity/Q8377,oboe
http://www.wikidata.org/entity/Q654459,Géza Allaga,http://www.wikidata.org/entity/Q8374,cimbalom
http://www.wikidata.org/entity/Q2632,Ringo Starr,http://www.wikidata.org/entity/Q11404,drum
http://www.wikidata.org/entity/Q26099,Chris Wood,http://www.wikidata.org/entity/Q11405,flute
http://www.wikidata.org/entity/Q19848,Lady Gaga,http://www.wikidata.org/entity/Q31561,acoustic guitar
http://www.wikidata.org/entity/Q11975,Britney Spears,http://www.wikidata.org/entity/Q27939,singing
http://www.wikidata.org/entity/Q81403,Pablo Espinosa,http://www.wikidata.org/entity/Q11461,sound
http://www.wikidata.org/entity/Q1763871,Lennart Ginman,http://www.wikidata.org/entity/Q46185,bass guitar
http://www.wikidata.org/entity/Q107814,Friederike Heumann,http://www.wikidata.org/entity/Q40125,viol
http://www.wikidata.org/entity/Q3287610,Marc-André Fillion,http://www.wikidata.org/entity/Q14919,air guitar
http://www.wikidata.org/entity/Q5307152,Drew Correa,http://www.wikidata.org/entity/Q52954,keyboard instrument
http://www.wikidata.org/entity/Q10681,Alan Stivell,http://www.wikidata.org/entity/Q47369,harp
http://www.wikidata.org/entity/Q44301,Jim Morrison,http://www.wikidata.org/entity/Q39777,maraca
http://www.wikidata.org/entity/Q19848,Lady Gaga,http://www.wikidata.org/entity/Q78987,electric guitar
http://www.wikidata.org/entity/Q26053,Carlos PenaVega,http://www.wikidata.org/entity/Q61285,ukulele
http://www.wikidata.org/entity/Q85197,Rainer Zepperitz,http://www.wikidata.org/entity/Q80019,double bass
http://www.wikidata.org/entity/Q45909,John Cale,http://www.wikidata.org/entity/Q64038,baritone guitar
http://www.wikidata.org/entity/Q117761,Peter Christopherson,http://www.wikidata.org/entity/Q75687,Apple Macintosh
http://www.wikidata.org/entity/Q349104,Adam Darr,http://www.wikidata.org/entity/Q76239,zither
http://www.wikidata.org/entity/Q21931877,Andy Rinehart,http://www.wikidata.org/entity/Q79838,accordion
http://www.wikidata.org/entity/Q11707243,Caine,http://www.wikidata.org/entity/Q74207,Mandola
http://www.wikidata.org/entity/Q1203,John Lennon,http://www.wikidata.org/entity/Q51290,harmonica
http://www.wikidata.org/entity/Q5041551,Carlo Martelli,http://www.wikidata.org/entity/Q80284,viola
http://www.wikidata.org/entity/Q254,Wolfgang Amadeus Mozart,http://www.wikidata.org/entity/Q81982,harpsichord
http://www.wikidata.org/entity/Q1058390,Tony Currenti,http://www.wikidata.org/entity/Q128309,drum kit
http://www.wikidata.org/entity/Q62660,Klaus Thunemann,http://www.wikidata.org/entity/Q159998,bassoon
http://www.wikidata.org/entity/Q76735,Karl Richter,http://www.wikidata.org/entity/Q158852,conductor
http://www.wikidata.org/entity/Q124269,Werner Becker,http://www.wikidata.org/entity/Q105891,Hammond organ
http://www.wikidata.org/entity/Q493861,Andrea Falconieri,http://www.wikidata.org/entity/Q180733,lute
http://www.wikidata.org/entity/Q3470928,Samppa Uimonen,http://www.wikidata.org/entity/Q145840,kantele
http://www.wikidata.org/entity/Q5066241,Chad Franscoviak,http://www.wikidata.org/entity/Q128124,audio engineer
http://www.wikidata.org/entity/Q131939,James Chambers,http://www.wikidata.org/entity/Q163759,horn
http://www.wikidata.org/entity/Q312883,Boy George,http://www.wikidata.org/entity/Q116434,phonograph
http://www.wikidata.org/entity/Q701975,Emme Wong,http://www.wikidata.org/entity/Q120585,tsuzumi
http://www.wikidata.org/entity/Q1009499,Bunk Gardner,http://www.wikidata.org/entity/Q83509,piccolo
http://www.wikidata.org/entity/Q44089,Matthias Maute,http://www.wikidata.org/entity/Q187851,recorder
http://www.wikidata.org/entity/Q305063,Sheikh Imam,http://www.wikidata.org/entity/Q191000,oud
http://www.wikidata.org/entity/Q8298,David Guetta,http://www.wikidata.org/entity/Q163829,synthesizer
http://www.wikidata.org/entity/Q724773,Reg Presley,http://www.wikidata.org/entity/Q187780,ocarina
http://www.wikidata.org/entity/Q1975172,Rolf Harris,http://www.wikidata.org/entity/Q189388,didgeridoo
http://www.wikidata.org/entity/Q9312040,Roland Johansson,http://www.wikidata.org/entity/Q189737,timpani
http://www.wikidata.org/entity/Q11728530,Joszko Broda,http://www.wikidata.org/entity/Q185003,Jew's harp
http://www.wikidata.org/entity/Q9201280,Daniel Bergstrand,http://www.wikidata.org/entity/Q182718,Nyckelharpa
http://www.wikidata.org/entity/Q138558,Marcus Rojas,http://www.wikidata.org/entity/Q131168,tuba
http://www.wikidata.org/entity/Q31164,Ellie Goulding,http://www.wikidata.org/entity/Q193666,tambourine
http://www.wikidata.org/entity/Q45909,John Cale,http://www.wikidata.org/entity/Q201735,triangle
http://www.wikidata.org/entity/Q104326,Jean-Michel Jarre,http://www.wikidata.org/entity/Q202094,Laser harp
http://www.wikidata.org/entity/Q238215,Natalie Merchant,http://www.wikidata.org/entity/Q206987,vibraphone
http://www.wikidata.org/entity/Q283652,Youmi Kimura,http://www.wikidata.org/entity/Q201129,lyre
http://www.wikidata.org/entity/Q313368,King Oliver,http://www.wikidata.org/entity/Q202027,cornet
http://www.wikidata.org/entity/Q254,Wolfgang Amadeus Mozart,http://www.wikidata.org/entity/Q191823,clavichord
http://www.wikidata.org/entity/Q363371,Yegor Letov,http://www.wikidata.org/entity/Q193663,magnetic tape
http://www.wikidata.org/entity/Q7929748,Viktor Luferov,http://www.wikidata.org/entity/Q130912,scythe
http://www.wikidata.org/entity/Q7542,Prince,http://www.wikidata.org/entity/Q133163,percussion instrument
http://www.wikidata.org/entity/Q3143485,Hussein Aït Jimhi,http://www.wikidata.org/entity/Q203861,tar
http://www.wikidata.org/entity/Q182792,Frank Wess,http://www.wikidata.org/entity/Q209554,western concert flute
http://www.wikidata.org/entity/Q271187,Clara Rockmore,http://www.wikidata.org/entity/Q207691,theremin
http://www.wikidata.org/entity/Q530251,Estampie,http://www.wikidata.org/entity/Q207821,hurdy gurdy
http://www.wikidata.org/entity/Q17302100,Josep Clariana i Alguer,http://www.wikidata.org/entity/Q200823,ophicleide
http://www.wikidata.org/entity/Q5921,Chuck Berry,http://www.wikidata.org/entity/Q208173,Fender Stratocaster
http://www.wikidata.org/entity/Q4042,CeeLo Green,http://www.wikidata.org/entity/Q177220,singer
http://www.wikidata.org/entity/Q76490,Helge Schneider,http://www.wikidata.org/entity/Q220971,marimba
http://www.wikidata.org/entity/Q144719,Zakir Hussain,http://www.wikidata.org/entity/Q213100,Tabla
http://www.wikidata.org/entity/Q172505,Astor Piazzolla,http://www.wikidata.org/entity/Q215032,bandoneon
http://www.wikidata.org/entity/Q45909,John Cale,http://www.wikidata.org/entity/Q212483,Mellotron
http://www.wikidata.org/entity/Q45909,John Cale,http://www.wikidata.org/entity/Q213461,harmonium
http://www.wikidata.org/entity/Q70417,Jakob Adlung,http://www.wikidata.org/entity/Q281460,pipe organ
http://www.wikidata.org/entity/Q19665522,Steven McWhirter,http://www.wikidata.org/entity/Q208421,snare drum
http://www.wikidata.org/entity/Q45909,John Cale,http://www.wikidata.org/entity/Q165666,xylophone
http://www.wikidata.org/entity/Q676255,Manolo el del bombo,http://www.wikidata.org/entity/Q211028,bass drum
http://www.wikidata.org/entity/Q919462,Son of Dave,http://www.wikidata.org/entity/Q213608,Beatboxing
http://www.wikidata.org/entity/Q704705,Arsenio Rodríguez,http://www.wikidata.org/entity/Q139727,tres
http://www.wikidata.org/entity/Q633,Neil Young,http://www.wikidata.org/entity/Q258896,banjo
http://www.wikidata.org/entity/Q5924089,Hryhory Nazarenko,http://www.wikidata.org/entity/Q262414,bandura
http://www.wikidata.org/entity/Q7426828,Saturnin Pandi,http://www.wikidata.org/entity/Q270200,conga
http://www.wikidata.org/entity/Q18541066,Vasile Iovu,http://www.wikidata.org/entity/Q218802,pan flute
http://www.wikidata.org/entity/Q103774,Ravi Shankar,http://www.wikidata.org/entity/Q229205,sitar
http://www.wikidata.org/entity/Q39246,Richard Feynman,http://www.wikidata.org/entity/Q243998,bongo drum
http://www.wikidata.org/entity/Q1755433,Kočani Orkestar,http://www.wikidata.org/entity/Q173453,wind instrument
http://www.wikidata.org/entity/Q234591,Ringo Sheena,http://www.wikidata.org/entity/Q241337,shamisen
http://www.wikidata.org/entity/Q260354,Imelda May,http://www.wikidata.org/entity/Q244976,bodhrán
http://www.wikidata.org/entity/Q6078708,Isaku Kageyama,http://www.wikidata.org/entity/Q221769,taiko
http://www.wikidata.org/entity/Q7155256,Paulo Miklos,http://www.wikidata.org/entity/Q302497,mandolin
http://www.wikidata.org/entity/Q6078,Dr. Dre,http://www.wikidata.org/entity/Q320002,sampler
http://www.wikidata.org/entity/Q1884496,Mahmut Tuncer,http://www.wikidata.org/entity/Q230471,Zurna
http://www.wikidata.org/entity/Q4274443,Sergey Mazayev,http://www.wikidata.org/entity/Q234455,Pipe
http://www.wikidata.org/entity/Q180453,Dolly Parton,http://www.wikidata.org/entity/Q370915,autoharp
http://www.wikidata.org/entity/Q45909,John Cale,http://www.wikidata.org/entity/Q320341,celesta
http://www.wikidata.org/entity/Q45909,John Cale,http://www.wikidata.org/entity/Q348878,Sarinda
http://www.wikidata.org/entity/Q317122,Tito Puente,http://www.wikidata.org/entity/Q379248,Timbales
http://www.wikidata.org/entity/Q331263,Yiorgos Batis,http://www.wikidata.org/entity/Q322675,Bouzouki
http://www.wikidata.org/entity/Q346801,Peter Buck,http://www.wikidata.org/entity/Q322625,Gibson Les Paul
http://www.wikidata.org/entity/Q80643,Jon Kennedy,http://www.wikidata.org/entity/Q810447,bass
http://www.wikidata.org/entity/Q87139,Alice Harnoncourt,http://www.wikidata.org/entity/Q742180,viola d'amore
http://www.wikidata.org/entity/Q97453,Thomas Zöller,http://www.wikidata.org/entity/Q776563,Scottish smallpipes
http://www.wikidata.org/entity/Q156535,Gerry Mulligan,http://www.wikidata.org/entity/Q808218,baritone saxophone
http://www.wikidata.org/entity/Q17412738,Güngör Hoşses,http://www.wikidata.org/entity/Q319154,darbuka
http://www.wikidata.org/entity/Q7542,Prince,http://www.wikidata.org/entity/Q424017,acoustic bass guitar
http://www.wikidata.org/entity/Q591924,Anton Mervar,http://www.wikidata.org/entity/Q379269,diatonic button accordion
http://www.wikidata.org/entity/Q43137,Sofia Rotaru,http://www.wikidata.org/entity/Q804099,bayan
http://www.wikidata.org/entity/Q2274,Chet Baker,http://www.wikidata.org/entity/Q382616,flugelhorn
http://www.wikidata.org/entity/Q7346,John Coltrane,http://www.wikidata.org/entity/Q445275,alto saxophone
http://www.wikidata.org/entity/Q4714738,Alekos Karavitis,http://www.wikidata.org/entity/Q369556,Cretan lyra
http://www.wikidata.org/entity/Q312053,Rick Wakeman,http://www.wikidata.org/entity/Q734687,Minimoog
http://www.wikidata.org/entity/Q353822,Maynard Ferguson,http://www.wikidata.org/entity/Q790468,Baritone horn
http://www.wikidata.org/entity/Q204943,Brian Jones,http://www.wikidata.org/entity/Q428152,slide
http://www.wikidata.org/entity/Q5984358,Ibon Koteron,http://www.wikidata.org/entity/Q313053,alboka
http://www.wikidata.org/entity/Q378905,Michael Wollny,http://www.wikidata.org/entity/Q743659,Rhodes piano
http://www.wikidata.org/entity/Q471537,Djivan Gasparyan,http://www.wikidata.org/entity/Q737917,duduk
http://www.wikidata.org/entity/Q774617,Edoardo Bennato,http://www.wikidata.org/entity/Q483994,Kazoo
http://www.wikidata.org/entity/Q3318804,Mohamed Saâda,http://www.wikidata.org/entity/Q743836,ney
http://www.wikidata.org/entity/Q4075321,Boris Bazurov,http://www.wikidata.org/entity/Q754518,Chapman Stick
http://www.wikidata.org/entity/Q5171205,Cornelio Reyna,http://www.wikidata.org/entity/Q804161,bajo sexto
http://www.wikidata.org/entity/Q600102,Miguel de Fuenllana,http://www.wikidata.org/entity/Q751884,Vihuela
http://www.wikidata.org/entity/Q3741826,Il Guardiano del Faro,http://www.wikidata.org/entity/Q426035,Moog synthesizer
http://www.wikidata.org/entity/Q8050502,Yaya Diallo,http://www.wikidata.org/entity/Q789141,balafon
http://www.wikidata.org/entity/Q1068887,Inti-Illimani,http://www.wikidata.org/entity/Q748455,cajón
http://www.wikidata.org/entity/Q1094522,Vince White,http://www.wikidata.org/entity/Q386854,drummer
http://www.wikidata.org/entity/Q1512076,Patric Catani,http://www.wikidata.org/entity/Q384656,Amiga 500
http://www.wikidata.org/entity/Q363371,Yegor Letov,http://www.wikidata.org/entity/Q179448,noise
http://www.wikidata.org/entity/Q953895,Richard Palmer-James,http://www.wikidata.org/entity/Q178389,balalaika
http://www.wikidata.org/entity/Q983270,Theodosii Spassov,http://www.wikidata.org/entity/Q178374,Kaval
http://www.wikidata.org/entity/Q6112934,Jack Hardy,http://www.wikidata.org/entity/Q399597,free reed aerophone
http://www.wikidata.org/entity/Q11103061,Hideki Tōgi,http://www.wikidata.org/entity/Q425748,hichiriki
http://www.wikidata.org/entity/Q3108773,Umayalpuram K. Sivaraman,http://www.wikidata.org/entity/Q744831,Mridangam
http://www.wikidata.org/entity/Q512,Vladimir Vysotsky,http://www.wikidata.org/entity/Q2096201,seven-string guitar
http://www.wikidata.org/entity/Q3057259,Ernesto Cavour,http://www.wikidata.org/entity/Q468776,charango
http://www.wikidata.org/entity/Q323132,Martin Fay,http://www.wikidata.org/entity/Q510487,fiddle
http://www.wikidata.org/entity/Q6107,Tupac Shakur,http://www.wikidata.org/entity/Q2643890,vocalist
http://www.wikidata.org/entity/Q6977987,Sigrid Moldestad,http://www.wikidata.org/entity/Q178933,Hardanger fiddle
http://www.wikidata.org/entity/Q6078,Dr. Dre,http://www.wikidata.org/entity/Q831698,drum machine
http://www.wikidata.org/entity/Q205721,Joni Mitchell,http://www.wikidata.org/entity/Q2145031,Appalachian dulcimer
http://www.wikidata.org/entity/Q206112,Willie Nelson,http://www.wikidata.org/entity/Q2563510,steel-string acoustic guitar
http://www.wikidata.org/entity/Q365567,Toots Thielemans,http://www.wikidata.org/entity/Q2082851,chromatic harmonica
http://www.wikidata.org/entity/Q1099149,Jack Churchill,http://www.wikidata.org/entity/Q2164192,Great Highland Bagpipe
http://www.wikidata.org/entity/Q292373,Barbara Mandrell,http://www.wikidata.org/entity/Q2617520,steel guitar
http://www.wikidata.org/entity/Q1684930,Jean-Jacques Perrey,http://www.wikidata.org/entity/Q490054,Ondioline
http://www.wikidata.org/entity/Q1522516,Gianmaria Testa,http://www.wikidata.org/entity/Q840920,theorbo
http://www.wikidata.org/entity/Q2279286,Dan Deacon,http://www.wikidata.org/entity/Q862880,Effects unit
http://www.wikidata.org/entity/Q452186,Cheikha Rimitti,http://www.wikidata.org/entity/Q816793,Bendir
http://www.wikidata.org/entity/Q483379,Gwen Stefani,http://www.wikidata.org/entity/Q901207,musical keyboard
http://www.wikidata.org/entity/Q1391960,Shivkumar Sharma,http://www.wikidata.org/entity/Q504847,Santur
http://www.wikidata.org/entity/Q723974,Edmundo Ros,http://www.wikidata.org/entity/Q495529,euphonium
http://www.wikidata.org/entity/Q2965965,Christine Ott,http://www.wikidata.org/entity/Q862501,ondes Martenot
http://www.wikidata.org/entity/Q3572805,Youenn Chap,http://www.wikidata.org/entity/Q863876,biniou
http://www.wikidata.org/entity/Q6438092,Kristin Andreassen,http://www.wikidata.org/entity/Q890073,body percussion
http://www.wikidata.org/entity/Q8060749,Yukio Tanaka,http://www.wikidata.org/entity/Q829729,biwa
http://www.wikidata.org/entity/Q1935960,Steve Turre,http://www.wikidata.org/entity/Q2606377,conch
http://www.wikidata.org/entity/Q3870110,Nando Citarella,http://www.wikidata.org/entity/Q2297117,Chitarra battente
http://www.wikidata.org/entity/Q3168171,Jean-Michel Veillon,http://www.wikidata.org/entity/Q2661289,Irish flute
http://www.wikidata.org/entity/Q16264405,Wu Rujun,http://www.wikidata.org/entity/Q873588,jinghu
http://www.wikidata.org/entity/Q16944929,Jiří Kratochvíl,http://www.wikidata.org/entity/Q810515,basset horn
http://www.wikidata.org/entity/Q173144,Agnetha Fältskog,http://www.wikidata.org/entity/Q3382191,upright piano
http://www.wikidata.org/entity/Q11379705,Shun'ichi Irei,http://www.wikidata.org/entity/Q2709639,sanshin
http://www.wikidata.org/entity/Q27791850,Alexander Airan,http://www.wikidata.org/entity/Q2249095,CDJ
http://www.wikidata.org/entity/Q28208099,Yzalú,http://www.wikidata.org/entity/Q2529757,vocal
http://www.wikidata.org/entity/Q5489261,Frank Rogers,http://www.wikidata.org/entity/Q2289786,programming
http://www.wikidata.org/entity/Q5626478,Gökhan Birben,http://www.wikidata.org/entity/Q2305258,Tulum
http://www.wikidata.org/entity/Q369806,Yasunori Mitsuda,http://www.wikidata.org/entity/Q2660670,Irish bouzouki
http://www.wikidata.org/entity/Q83717,Kayhan Kalhor,http://www.wikidata.org/entity/Q290951,Kamancheh
http://www.wikidata.org/entity/Q504515,Valeriy Syutkin,http://www.wikidata.org/entity/Q901192,lead guitar
http://www.wikidata.org/entity/Q1140278,Quilapayún,http://www.wikidata.org/entity/Q841005,quena
http://www.wikidata.org/entity/Q234591,Ringo Sheena,http://www.wikidata.org/entity/Q289037,koto
http://www.wikidata.org/entity/Q44634,Nico,http://www.wikidata.org/entity/Q4450903,Q4450903
http://www.wikidata.org/entity/Q709665,Giovanni Hidalgo,http://www.wikidata.org/entity/Q4863624,barril de bomba
http://www.wikidata.org/entity/Q893280,Bora Dugić,http://www.wikidata.org/entity/Q3716790,Frula
http://www.wikidata.org/entity/Q43137,Sofia Rotaru,http://www.wikidata.org/entity/Q941492,Domra
http://www.wikidata.org/entity/Q45909,John Cale,http://www.wikidata.org/entity/Q956406,jingle bell
http://www.wikidata.org/entity/Q45909,John Cale,http://www.wikidata.org/entity/Q1024685,cabasa
http://www.wikidata.org/entity/Q45909,John Cale,http://www.wikidata.org/entity/Q1099153,clavinet
http://www.wikidata.org/entity/Q45909,John Cale,http://www.wikidata.org/entity/Q1136507,electric piano
http://www.wikidata.org/entity/Q533284,Gustavo Cerati,http://www.wikidata.org/entity/Q3623156,Armonico
http://www.wikidata.org/entity/Q19848,Lady Gaga,http://www.wikidata.org/entity/Q1112687,keytar
http://www.wikidata.org/entity/Q18214477,Yan Cozian,http://www.wikidata.org/entity/Q890731,Boha
http://www.wikidata.org/entity/Q346801,Peter Buck,http://www.wikidata.org/entity/Q3935028,Rickenbacker 360
http://www.wikidata.org/entity/Q212512,Hariprasad Chaurasia,http://www.wikidata.org/entity/Q960389,bansuri
http://www.wikidata.org/entity/Q346801,Peter Buck,http://www.wikidata.org/entity/Q912249,Fender Jag-Stang
http://www.wikidata.org/entity/Q3015811,Danyèl Waro,http://www.wikidata.org/entity/Q497224,Kayamb
http://www.wikidata.org/entity/Q19691944,Branko Ivanković,http://www.wikidata.org/entity/Q508805,Tambura
http://www.wikidata.org/entity/Q21174334,Andreas Tschopp,http://www.wikidata.org/entity/Q499387,Sousaphone
http://www.wikidata.org/entity/Q4777381,Ants Taul,http://www.wikidata.org/entity/Q3331831,torupill
http://www.wikidata.org/entity/Q5880238,Madjid Khaladj,http://www.wikidata.org/entity/Q3574843,tonbak
http://www.wikidata.org/entity/Q370726,Derek Trucks,http://www.wikidata.org/entity/Q1056351,Dobro
http://www.wikidata.org/entity/Q383784,Warren Ellis,http://www.wikidata.org/entity/Q963150,tenor guitar
http://www.wikidata.org/entity/Q467094,Oumou Sangaré,http://www.wikidata.org/entity/Q1043002,shekere
http://www.wikidata.org/entity/Q483907,Jack Black,http://www.wikidata.org/entity/Q940380,Gibson SG
http://www.wikidata.org/entity/Q1441280,Phil Lanzon,http://www.wikidata.org/entity/Q2978691,Manual
http://www.wikidata.org/entity/Q11669796,Hiroshi Takasaki,http://www.wikidata.org/entity/Q3541635,Tsugaru-jamisen
http://www.wikidata.org/entity/Q16266562,Prach Choun,http://www.wikidata.org/entity/Q2957508,Chapey
http://www.wikidata.org/entity/Q16770075,Yasukazu Kanō,http://www.wikidata.org/entity/Q3100072,shinobue
http://www.wikidata.org/entity/Q17110486,Geir Sundstøl,http://www.wikidata.org/entity/Q3296114,Marxophone
http://www.wikidata.org/entity/Q19691944,Branko Ivanković,http://www.wikidata.org/entity/Q3964959,Sopila
http://www.wikidata.org/entity/Q3483080,Sid Ali Lekkam,http://www.wikidata.org/entity/Q3285530,Mandole
http://www.wikidata.org/entity/Q4568516,Keith Fullerton Whitman,http://www.wikidata.org/entity/Q3268757,analog synthesizer
http://www.wikidata.org/entity/Q524608,Jeroen Paul Thesseling,http://www.wikidata.org/entity/Q932855,Fretless bass
http://www.wikidata.org/entity/Q2857857,Anyango,http://www.wikidata.org/entity/Q3346604,nyatiti
http://www.wikidata.org/entity/Q2939581,Carmen Alice Acosta Franco,http://www.wikidata.org/entity/Q3623688,Paraguayan harp
http://www.wikidata.org/entity/Q3156205,Ivan Vilela,http://www.wikidata.org/entity/Q3560503,Viola de cocho
http://www.wikidata.org/entity/Q7940223,Volkan Gucer,http://www.wikidata.org/entity/Q4812665,Dilli kaval
http://www.wikidata.org/entity/Q2343970,Albert Kuvezin,http://www.wikidata.org/entity/Q1067089,Tuvan throat singing
http://www.wikidata.org/entity/Q2526438,Vincenc Mašek,http://www.wikidata.org/entity/Q917571,Glass harmonica
http://www.wikidata.org/entity/Q107008,Count Basie,http://www.wikidata.org/entity/Q13403364,Jazz piano
http://www.wikidata.org/entity/Q942232,Jaromír Nohavica,http://www.wikidata.org/entity/Q925985,Heligonka
http://www.wikidata.org/entity/Q1676220,Anthony Holborne,http://www.wikidata.org/entity/Q1093290,cittern
http://www.wikidata.org/entity/Q2007693,Kathryn Tickell,http://www.wikidata.org/entity/Q1046018,Northumbrian smallpipes
http://www.wikidata.org/entity/Q24943760,Pablo Nahual,http://www.wikidata.org/entity/Q905244,siku
http://www.wikidata.org/entity/Q27595478,Tita Parra,http://www.wikidata.org/entity/Q1063547,voice type
http://www.wikidata.org/entity/Q28222206,Linus Roth,http://www.wikidata.org/entity/Q1068162,Stradivarius
http://www.wikidata.org/entity/Q4612,Marlene Dietrich,http://www.wikidata.org/entity/Q1144761,musical saw
http://www.wikidata.org/entity/Q3835621,Livio Guardi,http://www.wikidata.org/entity/Q1051772,chordophone
http://www.wikidata.org/entity/Q4055731,Khachatur Avetisyan,http://www.wikidata.org/entity/Q904646,qanun
http://www.wikidata.org/entity/Q4073542,Mukhtar Ashrafi,http://www.wikidata.org/entity/Q1143814,Dutar
http://www.wikidata.org/entity/Q4084941,Viktor Berkovsky,http://www.wikidata.org/entity/Q948603,Russian guitar
http://www.wikidata.org/entity/Q5293796,Dona Ivone Lara,http://www.wikidata.org/entity/Q1051805,Cavaquinho
http://www.wikidata.org/entity/Q87996,Peter Rauhofer,http://www.wikidata.org/entity/Q1046801,turntablism
http://www.wikidata.org/entity/Q23906252,Caf' Francisco,http://www.wikidata.org/entity/Q2908211,Bobre
http://www.wikidata.org/entity/Q24185010,Germano Benencase,http://www.wikidata.org/entity/Q2882376,Bandolim
http://www.wikidata.org/entity/Q41780,Karl Seglem,http://www.wikidata.org/entity/Q4986985,bukkehorn
http://www.wikidata.org/entity/Q16873109,Mr. Charles,http://www.wikidata.org/entity/Q1060334,chalumeau
http://www.wikidata.org/entity/Q23894987,Anda Union,http://www.wikidata.org/entity/Q1129422,morin khuur
http://www.wikidata.org/entity/Q311875,Pete Doherty,http://www.wikidata.org/entity/Q512191,melodica
http://www.wikidata.org/entity/Q470426,Fred Morrison,http://www.wikidata.org/entity/Q543833,uilleann pipes
http://www.wikidata.org/entity/Q5921,Chuck Berry,http://www.wikidata.org/entity/Q1143818,Gibson ES-335
http://www.wikidata.org/entity/Q153597,Lee Taemin,http://www.wikidata.org/entity/Q11239560,Piano
http://www.wikidata.org/entity/Q344368,İzel Çeliköz,http://www.wikidata.org/entity/Q10969818,kemenche
http://www.wikidata.org/entity/Q366671,Jan Hammer,http://www.wikidata.org/entity/Q26490797,keyboard
http://www.wikidata.org/entity/Q3572805,Youenn Chap,http://www.wikidata.org/entity/Q540887,bombard
http://www.wikidata.org/entity/Q6378235,Katsuya Yokoyama,http://www.wikidata.org/entity/Q524526,shakuhachi
http://www.wikidata.org/entity/Q8349,"""Weird Al"" Yankovic",http://www.wikidata.org/entity/Q1343007,electronic keyboard
http://www.wikidata.org/entity/Q45909,John Cale,http://www.wikidata.org/entity/Q626035,glockenspiel
http://www.wikidata.org/entity/Q6061724,Derya Türkan,http://www.wikidata.org/entity/Q10259047,Classical kemençe
http://www.wikidata.org/entity/Q6167606,Jayanthi Kumaresh,http://www.wikidata.org/entity/Q16155191,Saraswati veena
http://www.wikidata.org/entity/Q6950558,Münir Nurettin Selçuk,http://www.wikidata.org/entity/Q4989127,tambur
http://www.wikidata.org/entity/Q12403471,Ahuva Ozeri,http://www.wikidata.org/entity/Q15307471,Bulbul tarang
http://www.wikidata.org/entity/Q19691944,Branko Ivanković,http://www.wikidata.org/entity/Q7409426,samica
http://www.wikidata.org/entity/Q58168,Nolwenn Leroy,http://www.wikidata.org/entity/Q1288250,celtic harp
http://www.wikidata.org/entity/Q7908689,Vaibhav Saxena,http://www.wikidata.org/entity/Q1129025,Continuum
http://www.wikidata.org/entity/Q9146676,Aleksandra Siemieniuk,http://www.wikidata.org/entity/Q1051615,resonator guitar
http://www.wikidata.org/entity/Q11736319,Karol Strzemieczny,http://www.wikidata.org/entity/Q988736,Acoustic-electric guitar.
http://www.wikidata.org/entity/Q11778682,Michał Czachowski,http://www.wikidata.org/entity/Q930531,flamenco guitar
http://www.wikidata.org/entity/Q19594856,András Sipos,http://www.wikidata.org/entity/Q537750,djembe
http://www.wikidata.org/entity/Q106662,John Lydon,http://www.wikidata.org/entity/Q615941,Stroh violin
http://www.wikidata.org/entity/Q660599,Arif Sağ,http://www.wikidata.org/entity/Q528239,Baglamas
http://www.wikidata.org/entity/Q328790,Ed Helms,http://www.wikidata.org/entity/Q593995,player piano
http://www.wikidata.org/entity/Q348907,Hossein Alizadeh,http://www.wikidata.org/entity/Q546936,tar
http://www.wikidata.org/entity/Q380711,Toumani Diabaté,http://www.wikidata.org/entity/Q585969,kora
http://www.wikidata.org/entity/Q935369,Daniel Lanois,http://www.wikidata.org/entity/Q587027,pedal steel guitar
http://www.wikidata.org/entity/Q981797,Sultan Khan,http://www.wikidata.org/entity/Q608650,sarangi
http://www.wikidata.org/entity/Q1039759,Magnet,http://www.wikidata.org/entity/Q644440,Lap steel guitar
http://www.wikidata.org/entity/Q1055873,Liam Clancy,http://www.wikidata.org/entity/Q593050,concertina
http://www.wikidata.org/entity/Q436236,Wu Man,http://www.wikidata.org/entity/Q6685124,pipa
http://www.wikidata.org/entity/Q726500,Jacques-Martin Hotteterre,http://www.wikidata.org/entity/Q16875637,transverse flute
http://www.wikidata.org/entity/Q936538,Alim Qasimov,http://www.wikidata.org/entity/Q11084057,Daf
http://www.wikidata.org/entity/Q107067,Jagjit Singh,http://www.wikidata.org/entity/Q1164636,tambura
http://www.wikidata.org/entity/Q75495,Hans Reichel,http://www.wikidata.org/entity/Q1179017,Daxophone
http://www.wikidata.org/entity/Q2157968,Robert Landfermann,http://www.wikidata.org/entity/Q667047,violone
http://www.wikidata.org/entity/Q343394,İbrahim Tatlıses,http://www.wikidata.org/entity/Q1178361,davul
http://www.wikidata.org/entity/Q368393,Eberhard Weber,http://www.wikidata.org/entity/Q1273167,electric upright bass
http://www.wikidata.org/entity/Q368695,Dmitry Pokrass,http://www.wikidata.org/entity/Q1148709,grand piano
http://www.wikidata.org/entity/Q45909,John Cale,http://www.wikidata.org/entity/Q15336282,electric viola
http://www.wikidata.org/entity/Q45909,John Cale,http://www.wikidata.org/entity/Q15976349,church organ
http://www.wikidata.org/entity/Q253161,Henning Schmitz,http://www.wikidata.org/entity/Q1327480,electronic drum
http://www.wikidata.org/entity/Q263194,Joan Armatrading,http://www.wikidata.org/entity/Q1273117,EBow
http://www.wikidata.org/entity/Q26744822,KJIVA,http://www.wikidata.org/entity/Q4876918,Beat Box
http://www.wikidata.org/entity/Q27791850,Alexander Airan,http://www.wikidata.org/entity/Q5205227,DJM
http://www.wikidata.org/entity/Q27791850,Alexander Airan,http://www.wikidata.org/entity/Q17053233,Pioneer DJ
http://www.wikidata.org/entity/Q5921,Chuck Berry,http://www.wikidata.org/entity/Q623103,Fender Telecaster
http://www.wikidata.org/entity/Q2642254,Régine Chassagne,http://www.wikidata.org/entity/Q5309281,Drums
http://www.wikidata.org/entity/Q5791246,Cristian Aldana,http://www.wikidata.org/entity/Q21574187,voice
http://www.wikidata.org/entity/Q7804419,Tim Van Eyken,http://www.wikidata.org/entity/Q615403,tin whistle
http://www.wikidata.org/entity/Q3318943,Mohammad Rahim Khushnawaz,http://www.wikidata.org/entity/Q623509,Rebab
http://www.wikidata.org/entity/Q5448529,Filip Višnjić,http://www.wikidata.org/entity/Q669370,gusle
http://www.wikidata.org/entity/Q5568993,Glenn Mercer,http://www.wikidata.org/entity/Q604538,temple block
http://www.wikidata.org/entity/Q11450216,Masanori Yasui,http://www.wikidata.org/entity/Q1327327,electronic organ
http://www.wikidata.org/entity/Q17488015,Acho Namgyal,http://www.wikidata.org/entity/Q1255766,dramyin
http://www.wikidata.org/entity/Q17580047,Amélie Daniel,http://www.wikidata.org/entity/Q1300012,toy piano
http://www.wikidata.org/entity/Q738139,Nils Petter Molvær,http://www.wikidata.org/entity/Q1327500,electronic musical instrument
http://www.wikidata.org/entity/Q1046502,Kurmangazy Sagyrbayuly,http://www.wikidata.org/entity/Q1236973,dombra
http://www.wikidata.org/entity/Q1978206,Nesimi Çimen,http://www.wikidata.org/entity/Q1144423,Cura
http://www.wikidata.org/entity/Q622199,Orhan Ölmez,http://www.wikidata.org/entity/Q717773,Bağlama
http://www.wikidata.org/entity/Q654872,Ewelina Lisowska,http://www.wikidata.org/entity/Q719120,classical guitar
http://www.wikidata.org/entity/Q672039,Arkady Shilkloper,http://www.wikidata.org/entity/Q685206,Alphorn
http://www.wikidata.org/entity/Q774617,Edoardo Bennato,http://www.wikidata.org/entity/Q678090,twelve-string guitar
http://www.wikidata.org/entity/Q831387,Abing,http://www.wikidata.org/entity/Q726306,erhu
http://www.wikidata.org/entity/Q916949,Brij Narayan,http://www.wikidata.org/entity/Q687406,Sarod
http://www.wikidata.org/entity/Q1032457,Simon House,http://www.wikidata.org/entity/Q685663,electric violin
http://www.wikidata.org/entity/Q445405,Darius Rucker,http://www.wikidata.org/entity/Q670969,rhythm guitar
http://www.wikidata.org/entity/Q6075874,Arslanbek Sultanbekov,http://www.wikidata.org/entity/Q645977,komuz
http://www.wikidata.org/entity/Q3339892,Nicola Moneta,http://www.wikidata.org/entity/Q692640,Octobass
http://www.wikidata.org/entity/Q6408893,Kim Jin-hi,http://www.wikidata.org/entity/Q713298,geomungo
http://www.wikidata.org/entity/Q13365774,Han Terra,http://www.wikidata.org/entity/Q717407,gayageum
http://www.wikidata.org/entity/Q286346,Oneohtrix Point Never,http://www.wikidata.org/entity/Q669610,MIDI controller
http://www.wikidata.org/entity/Q347023,Michael Brecker,http://www.wikidata.org/entity/Q680486,EWI
http://www.wikidata.org/entity/Q7346,John Coltrane,http://www.wikidata.org/entity/Q1414932,tenor saxophone
http://www.wikidata.org/entity/Q254,Wolfgang Amadeus Mozart,http://www.wikidata.org/entity/Q1521313,fortepiano
http://www.wikidata.org/entity/Q23215,Adele,http://www.wikidata.org/entity/Q1798603,string instrument
http://www.wikidata.org/entity/Q7542,Prince,http://www.wikidata.org/entity/Q1574458,Linn LM-1
http://www.wikidata.org/entity/Q28550,Tineke Postma,http://www.wikidata.org/entity/Q1463985,soprano saxophone
http://www.wikidata.org/entity/Q49352,Gena the Crocodile,http://www.wikidata.org/entity/Q1494360,garmon
http://www.wikidata.org/entity/Q56649,Louis François Dauprat,http://www.wikidata.org/entity/Q1757829,natural horn
http://www.wikidata.org/entity/Q90653,Magdalena Thora,http://www.wikidata.org/entity/Q1703491,ngoni
http://www.wikidata.org/entity/Q162842,Anders Norudde,http://www.wikidata.org/entity/Q1858128,Swedish bagpipes
http://www.wikidata.org/entity/Q289754,Abdelkader Chaou,http://www.wikidata.org/entity/Q1889081,Mandora
http://www.wikidata.org/entity/Q394610,Alihan Samedov,http://www.wikidata.org/entity/Q2035157,Balaban
http://www.wikidata.org/entity/Q457735,Cristina Pato,http://www.wikidata.org/entity/Q1820831,Galician gaita
http://www.wikidata.org/entity/Q531185,Morgan Nicholls,http://www.wikidata.org/entity/Q1501797,percussion
http://www.wikidata.org/entity/Q621855,Abolhasan Saba,http://www.wikidata.org/entity/Q1544746,Setar
http://www.wikidata.org/entity/Q966088,Kepa Junkera,http://www.wikidata.org/entity/Q1999898,Trikiti
http://www.wikidata.org/entity/Q971927,James McMurtry,http://www.wikidata.org/entity/Q1508837,Digital piano
http://www.wikidata.org/entity/Q1011620,Kaigal-ool Khovalyg,http://www.wikidata.org/entity/Q1572629,Igil
http://www.wikidata.org/entity/Q1295870,Maurice White,http://www.wikidata.org/entity/Q1467960,mbira
http://www.wikidata.org/entity/Q1396681,Farid Zoland,http://www.wikidata.org/entity/Q1640934,rabab
http://www.wikidata.org/entity/Q1701894,John Tams,http://www.wikidata.org/entity/Q1474853,Mellophone
http://www.wikidata.org/entity/Q2210490,Michael McGoldrick,http://www.wikidata.org/entity/Q1672931,Irish flute
http://www.wikidata.org/entity/Q3128102,Hasna El Bacharia,http://www.wikidata.org/entity/Q1431454,sintir
http://www.wikidata.org/entity/Q3371931,Paul O'Dette,http://www.wikidata.org/entity/Q1633881,archlute
http://www.wikidata.org/entity/Q3783782,Hiromori Hayashi,http://www.wikidata.org/entity/Q1975355,shō
http://www.wikidata.org/entity/Q4515701,Sergey Chigrakov,http://www.wikidata.org/entity/Q1763001,Percussion
http://www.wikidata.org/entity/Q11923067,Frederic Sirés i Puig,http://www.wikidata.org/entity/Q1901997,Flabiol
http://www.wikidata.org/entity/Q19691944,Branko Ivanković,http://www.wikidata.org/entity/Q1420096,Lijerica
http://www.wikidata.org/entity/Q19691944,Branko Ivanković,http://www.wikidata.org/entity/Q1422412,Gaida
http://www.wikidata.org/entity/Q27237733,Chyna Parks,http://www.wikidata.org/entity/Q1879664,spoon
http://www.wikidata.org/entity/Q27955493,Wolfgang Schalk,http://www.wikidata.org/entity/Q1684532,Jazz guitar
http://www.wikidata.org/entity/Q20809068,La Poupée du Loup,http://www.wikidata.org/entity/Q1889070,mandocello
http://www.wikidata.org/entity/Q25189971,Selina Martin,http://www.wikidata.org/entity/Q1531435,wine glass
