obj1Id,obj1Name,obj2,obj2Label
http://www.wikidata.org/entity/Q18628,Roadrunner Records,http://www.wikidata.org/entity/Q1384,New York
http://www.wikidata.org/entity/Q481800,Amway,http://www.wikidata.org/entity/Q1166,Michigan
http://www.wikidata.org/entity/Q161562,California Institute of Technology,http://www.wikidata.org/entity/Q99,California
http://www.wikidata.org/entity/Q319515,Converse,http://www.wikidata.org/entity/Q771,Massachusetts
http://www.wikidata.org/entity/Q696334,"Toys ""R"" Us",http://www.wikidata.org/entity/Q1408,New Jersey
http://www.wikidata.org/entity/Q941340,Muse Software,http://www.wikidata.org/entity/Q1391,Maryland
http://www.wikidata.org/entity/Q2410294,Clearing Corporation,http://www.wikidata.org/entity/Q1393,Delaware
http://www.wikidata.org/entity/Q3336939,National Software Testing Laboratories,http://www.wikidata.org/entity/Q1400,Pennsylvania
http://www.wikidata.org/entity/Q192334,University of North Carolina at Chapel Hill,http://www.wikidata.org/entity/Q1454,North Carolina
http://www.wikidata.org/entity/Q373225,Virgin Galactic,http://www.wikidata.org/entity/Q1522,New Mexico
http://www.wikidata.org/entity/Q1141049,United States Mint,http://www.wikidata.org/entity/Q1223,Washington
http://www.wikidata.org/entity/Q1365227,Iron Crown Enterprises,http://www.wikidata.org/entity/Q1370,Virginia
http://www.wikidata.org/entity/Q963973,Frank Pepe Pizzeria Napoletana,http://www.wikidata.org/entity/Q779,Connecticut
http://www.wikidata.org/entity/Q1799878,Ladd & Co.,http://www.wikidata.org/entity/Q782,Hawaii
http://www.wikidata.org/entity/Q2418461,Oceanic Preservation Society,http://www.wikidata.org/entity/Q1261,Colorado
http://www.wikidata.org/entity/Q1411580,Fieldbus Foundation,http://www.wikidata.org/entity/Q1439,Texas
http://www.wikidata.org/entity/Q2598438,Xonox,http://www.wikidata.org/entity/Q1527,Minnesota
http://www.wikidata.org/entity/Q4748882,Amtelco,http://www.wikidata.org/entity/Q1537,Wisconsin
http://www.wikidata.org/entity/Q4801323,Artists for Charity,http://www.wikidata.org/entity/Q1428,Georgia
http://www.wikidata.org/entity/Q4877457,Beaufort-Jasper Water and Sewer Authority,http://www.wikidata.org/entity/Q1456,South Carolina
http://www.wikidata.org/entity/Q5063099,CenturyTel of Central Indiana,http://www.wikidata.org/entity/Q1415,Indiana
http://www.wikidata.org/entity/Q5227501,Dataware Games,http://www.wikidata.org/entity/Q1494,Mississippi
http://www.wikidata.org/entity/Q5374686,Emprise Bank,http://www.wikidata.org/entity/Q1558,Kansas
http://www.wikidata.org/entity/Q5450093,Fine Paints of Europe,http://www.wikidata.org/entity/Q16551,Vermont
http://www.wikidata.org/entity/Q5499196,Fredericksburg Farmers Cooperative,http://www.wikidata.org/entity/Q1546,Iowa
http://www.wikidata.org/entity/Q5058070,Celina Tent Inc.,http://www.wikidata.org/entity/Q1397,Ohio
http://www.wikidata.org/entity/Q5500667,Freedom Yachts,http://www.wikidata.org/entity/Q1387,Rhode Island
http://www.wikidata.org/entity/Q4050383,Sunbelt Software,http://www.wikidata.org/entity/Q812,Florida
http://www.wikidata.org/entity/Q4834666,BASIS Schools,http://www.wikidata.org/entity/Q816,Arizona
http://www.wikidata.org/entity/Q5095607,"Chicago Franchise Systems, Inc.",http://www.wikidata.org/entity/Q1204,Illinois
http://www.wikidata.org/entity/Q5578880,Gold Strike Hotel and Gambling Hall,http://www.wikidata.org/entity/Q1227,Nevada
http://www.wikidata.org/entity/Q5690301,Healing Through Creativity,http://www.wikidata.org/entity/Q1371,West Virginia
http://www.wikidata.org/entity/Q6904248,Montana Elevator Co.,http://www.wikidata.org/entity/Q1212,Montana
http://www.wikidata.org/entity/Q28941983,Amangiri,http://www.wikidata.org/entity/Q829,Utah
http://www.wikidata.org/entity/Q6107827,JBovier Stringed Instruments,http://www.wikidata.org/entity/Q1603,Kentucky
http://www.wikidata.org/entity/Q6394305,Kerr-McGee,http://www.wikidata.org/entity/Q1649,Oklahoma
http://www.wikidata.org/entity/Q7101148,Oregon Community Credit Union,http://www.wikidata.org/entity/Q824,Oregon
http://www.wikidata.org/entity/Q16966598,Payless Cashways,http://www.wikidata.org/entity/Q1581,Missouri
http://www.wikidata.org/entity/Q19362220,Cabins USA,http://www.wikidata.org/entity/Q1509,Tennessee
http://www.wikidata.org/entity/Q17091532,New Hampshire Wildlife Federation,http://www.wikidata.org/entity/Q759,New Hampshire
http://www.wikidata.org/entity/Q161562,California Institute of Technology,http://www.wikidata.org/entity/Q99,California
http://www.wikidata.org/entity/Q281239,GameSpy,http://www.wikidata.org/entity/Q99,California
http://www.wikidata.org/entity/Q313173,Toon Disney,http://www.wikidata.org/entity/Q99,California
http://www.wikidata.org/entity/Q319515,Converse,http://www.wikidata.org/entity/Q771,Massachusetts
http://www.wikidata.org/entity/Q580866,THQ,http://www.wikidata.org/entity/Q99,California
http://www.wikidata.org/entity/Q18628,Roadrunner Records,http://www.wikidata.org/entity/Q1384,New York
http://www.wikidata.org/entity/Q156376,Vimeo,http://www.wikidata.org/entity/Q1384,New York
http://www.wikidata.org/entity/Q481800,Amway,http://www.wikidata.org/entity/Q1166,Michigan
http://www.wikidata.org/entity/Q633758,Ultimate Pro Wrestling,http://www.wikidata.org/entity/Q99,California
http://www.wikidata.org/entity/Q828436,PortalPlayer,http://www.wikidata.org/entity/Q99,California
http://www.wikidata.org/entity/Q963973,Frank Pepe Pizzeria Napoletana,http://www.wikidata.org/entity/Q779,Connecticut
http://www.wikidata.org/entity/Q1136242,TDK Mediactive,http://www.wikidata.org/entity/Q99,California
http://www.wikidata.org/entity/Q1136254,BlueSky Software,http://www.wikidata.org/entity/Q99,California
http://www.wikidata.org/entity/Q1142767,Hercules,http://www.wikidata.org/entity/Q99,California
http://www.wikidata.org/entity/Q1199011,Doggystyle Records,http://www.wikidata.org/entity/Q99,California
http://www.wikidata.org/entity/Q1281891,Evil Angel,http://www.wikidata.org/entity/Q99,California
http://www.wikidata.org/entity/Q1292114,Kensington Computer Products Group,http://www.wikidata.org/entity/Q99,California
http://www.wikidata.org/entity/Q1535748,Liberty Films,http://www.wikidata.org/entity/Q99,California
http://www.wikidata.org/entity/Q1799878,Ladd & Co.,http://www.wikidata.org/entity/Q782,Hawaii
http://www.wikidata.org/entity/Q192334,University of North Carolina at Chapel Hill,http://www.wikidata.org/entity/Q1454,North Carolina
http://www.wikidata.org/entity/Q260586,Ludwig-Musser,http://www.wikidata.org/entity/Q1454,North Carolina
http://www.wikidata.org/entity/Q373225,Virgin Galactic,http://www.wikidata.org/entity/Q1522,New Mexico
http://www.wikidata.org/entity/Q1145741,Black Mesa Research Facility,http://www.wikidata.org/entity/Q1522,New Mexico
http://www.wikidata.org/entity/Q696334,"Toys ""R"" Us",http://www.wikidata.org/entity/Q1408,New Jersey
http://www.wikidata.org/entity/Q941340,Muse Software,http://www.wikidata.org/entity/Q1391,Maryland
http://www.wikidata.org/entity/Q1146832,Eyeball Records,http://www.wikidata.org/entity/Q1408,New Jersey
http://www.wikidata.org/entity/Q1426375,WizKids,http://www.wikidata.org/entity/Q1408,New Jersey
http://www.wikidata.org/entity/Q1629990,CoverGirl,http://www.wikidata.org/entity/Q1391,Maryland
http://www.wikidata.org/entity/Q1865059,LiteSpeed Technologies Inc.,http://www.wikidata.org/entity/Q1408,New Jersey
http://www.wikidata.org/entity/Q1971987,Wright Aeronautical,http://www.wikidata.org/entity/Q1408,New Jersey
http://www.wikidata.org/entity/Q2075386,Jersey All Pro Wrestling,http://www.wikidata.org/entity/Q1408,New Jersey
http://www.wikidata.org/entity/Q2410294,Clearing Corporation,http://www.wikidata.org/entity/Q1393,Delaware
http://www.wikidata.org/entity/Q3277465,Sirius XM Radio,http://www.wikidata.org/entity/Q1393,Delaware
http://www.wikidata.org/entity/Q3336939,National Software Testing Laboratories,http://www.wikidata.org/entity/Q1400,Pennsylvania
http://www.wikidata.org/entity/Q609766,3G Capital,http://www.wikidata.org/entity/Q1384,New York
http://www.wikidata.org/entity/Q882056,Leo Baeck Institute,http://www.wikidata.org/entity/Q1384,New York
http://www.wikidata.org/entity/Q975546,Rocket Racing League,http://www.wikidata.org/entity/Q1384,New York
http://www.wikidata.org/entity/Q1109806,Collins Line,http://www.wikidata.org/entity/Q1384,New York
http://www.wikidata.org/entity/Q1128918,CLS Group,http://www.wikidata.org/entity/Q1384,New York
http://www.wikidata.org/entity/Q1141049,United States Mint,http://www.wikidata.org/entity/Q1223,Washington
http://www.wikidata.org/entity/Q1365227,Iron Crown Enterprises,http://www.wikidata.org/entity/Q1370,Virginia
http://www.wikidata.org/entity/Q1420671,"Fisher-Price, Inc.",http://www.wikidata.org/entity/Q1384,New York
http://www.wikidata.org/entity/Q4064247,American Vacuum Society,http://www.wikidata.org/entity/Q1384,New York
http://www.wikidata.org/entity/Q4537781,New York Public Interest Research Group,http://www.wikidata.org/entity/Q1384,New York
http://www.wikidata.org/entity/Q4638923,4Kids Productions,http://www.wikidata.org/entity/Q1384,New York
http://www.wikidata.org/entity/Q4663181,Abacus Federal Savings Bank,http://www.wikidata.org/entity/Q1384,New York
http://www.wikidata.org/entity/Q4672637,Accion USA,http://www.wikidata.org/entity/Q1384,New York
http://www.wikidata.org/entity/Q4676831,Actimize,http://www.wikidata.org/entity/Q1384,New York
http://www.wikidata.org/entity/Q4678216,AdaCore,http://www.wikidata.org/entity/Q1384,New York
http://www.wikidata.org/entity/Q4705456,Alacra,http://www.wikidata.org/entity/Q1384,New York
http://www.wikidata.org/entity/Q4736232,Altegrity Risk International,http://www.wikidata.org/entity/Q1384,New York
http://www.wikidata.org/entity/Q4774501,"AntiGravity, Inc",http://www.wikidata.org/entity/Q1384,New York
http://www.wikidata.org/entity/Q4800489,Arthur Treacher's,http://www.wikidata.org/entity/Q1384,New York
http://www.wikidata.org/entity/Q4809568,Association for the Study of Nationalities,http://www.wikidata.org/entity/Q1384,New York
http://www.wikidata.org/entity/Q4812684,Atala T,http://www.wikidata.org/entity/Q1384,New York
http://www.wikidata.org/entity/Q4816825,Atlas Media Corp.,http://www.wikidata.org/entity/Q1384,New York
http://www.wikidata.org/entity/Q4828829,Avignone Chemists,http://www.wikidata.org/entity/Q1384,New York
http://www.wikidata.org/entity/Q4891646,Berghahn Books,http://www.wikidata.org/entity/Q1384,New York
http://www.wikidata.org/entity/Q5000043,BurnsGroupNYC,http://www.wikidata.org/entity/Q1384,New York
http://www.wikidata.org/entity/Q5051214,Catalan Communications,http://www.wikidata.org/entity/Q1384,New York
http://www.wikidata.org/entity/Q5058814,Cendant,http://www.wikidata.org/entity/Q1384,New York
http://www.wikidata.org/entity/Q5122433,CitiFX Pro,http://www.wikidata.org/entity/Q1384,New York
http://www.wikidata.org/entity/Q5122437,Citi Private Bank,http://www.wikidata.org/entity/Q1384,New York
http://www.wikidata.org/entity/Q5122503,Citigold,http://www.wikidata.org/entity/Q1384,New York
http://www.wikidata.org/entity/Q5187513,Crohn's & Colitis Foundation of America,http://www.wikidata.org/entity/Q1384,New York
http://www.wikidata.org/entity/Q5264419,Designer Bride,http://www.wikidata.org/entity/Q1384,New York
http://www.wikidata.org/entity/Q5266265,Deutsch Group,http://www.wikidata.org/entity/Q1384,New York
http://www.wikidata.org/entity/Q5275785,Digital Assembly,http://www.wikidata.org/entity/Q1384,New York
http://www.wikidata.org/entity/Q5276993,Dilmaghani,http://www.wikidata.org/entity/Q1384,New York
http://www.wikidata.org/entity/Q5280253,Direct Agents,http://www.wikidata.org/entity/Q1384,New York
http://www.wikidata.org/entity/Q5289274,Dollie & Me,http://www.wikidata.org/entity/Q1384,New York
http://www.wikidata.org/entity/Q5295919,Donghia,http://www.wikidata.org/entity/Q1384,New York
http://www.wikidata.org/entity/Q5323670,EMeta,http://www.wikidata.org/entity/Q1384,New York
http://www.wikidata.org/entity/Q5323811,Entertainment One Films,http://www.wikidata.org/entity/Q1384,New York
http://www.wikidata.org/entity/Q5361915,Elite Gudz,http://www.wikidata.org/entity/Q1384,New York
http://www.wikidata.org/entity/Q5384535,Equinox Fitness,http://www.wikidata.org/entity/Q1384,New York
http://www.wikidata.org/entity/Q1823349,Maisto,http://www.wikidata.org/entity/Q99,California
http://www.wikidata.org/entity/Q2040291,Applied Biosystems,http://www.wikidata.org/entity/Q99,California
http://www.wikidata.org/entity/Q2223659,L.A.M.B.,http://www.wikidata.org/entity/Q99,California
http://www.wikidata.org/entity/Q2669403,Icon Productions,http://www.wikidata.org/entity/Q99,California
http://www.wikidata.org/entity/Q3080183,Fox Feature Syndicate,http://www.wikidata.org/entity/Q771,Massachusetts
http://www.wikidata.org/entity/Q3153246,International Cultic Studies Association,http://www.wikidata.org/entity/Q812,Florida
http://www.wikidata.org/entity/Q3575980,Zongo Comics,http://www.wikidata.org/entity/Q99,California
http://www.wikidata.org/entity/Q3656776,Cape Cod Crusaders,http://www.wikidata.org/entity/Q771,Massachusetts
http://www.wikidata.org/entity/Q3666257,Chaotic Wrestling,http://www.wikidata.org/entity/Q771,Massachusetts
http://www.wikidata.org/entity/Q3963037,Smokehouse Pictures,http://www.wikidata.org/entity/Q99,California
http://www.wikidata.org/entity/Q4036247,City Wok,http://www.wikidata.org/entity/Q99,California
http://www.wikidata.org/entity/Q4045982,Orion Telescopes & Binoculars,http://www.wikidata.org/entity/Q99,California
http://www.wikidata.org/entity/Q4652601,AMEN Missionary,http://www.wikidata.org/entity/Q99,California
http://www.wikidata.org/entity/Q4876395,Bear Creek Guitars,http://www.wikidata.org/entity/Q99,California
http://www.wikidata.org/entity/Q4936784,BodyRock Sport,http://www.wikidata.org/entity/Q99,California
http://www.wikidata.org/entity/Q4939101,Bolder Media,http://www.wikidata.org/entity/Q99,California
http://www.wikidata.org/entity/Q5046435,Carrington College,http://www.wikidata.org/entity/Q99,California
http://www.wikidata.org/entity/Q5092296,Cherry Blossoms,http://www.wikidata.org/entity/Q782,Hawaii
http://www.wikidata.org/entity/Q5179769,Cowlip Productions,http://www.wikidata.org/entity/Q99,California
http://www.wikidata.org/entity/Q5204914,DFH Network,http://www.wikidata.org/entity/Q99,California
http://www.wikidata.org/entity/Q5436257,Farrell's Ice Cream Parlour,http://www.wikidata.org/entity/Q99,California
http://www.wikidata.org/entity/Q5444101,Ferfrans,http://www.wikidata.org/entity/Q99,California
http://www.wikidata.org/entity/Q5512936,GBC International Bank,http://www.wikidata.org/entity/Q99,California
http://www.wikidata.org/entity/Q5572068,Gloucester Net and Twine Company,http://www.wikidata.org/entity/Q771,Massachusetts
http://www.wikidata.org/entity/Q5628410,H. M. Van Deusen Whip Company,http://www.wikidata.org/entity/Q771,Massachusetts
http://www.wikidata.org/entity/Q1411580,Fieldbus Foundation,http://www.wikidata.org/entity/Q1439,Texas
http://www.wikidata.org/entity/Q1495819,Gathering of Developers,http://www.wikidata.org/entity/Q1439,Texas
http://www.wikidata.org/entity/Q2598438,Xonox,http://www.wikidata.org/entity/Q1527,Minnesota
http://www.wikidata.org/entity/Q2886727,Basement Comics,http://www.wikidata.org/entity/Q1454,North Carolina
http://www.wikidata.org/entity/Q2927546,Budget Suites of America,http://www.wikidata.org/entity/Q1439,Texas
http://www.wikidata.org/entity/Q3799660,International Male,http://www.wikidata.org/entity/Q1408,New Jersey
http://www.wikidata.org/entity/Q4542328,Khmers Kampuchea-Krom Federation,http://www.wikidata.org/entity/Q1408,New Jersey
http://www.wikidata.org/entity/Q4678107,Ad Astra Rocket Company,http://www.wikidata.org/entity/Q1439,Texas
http://www.wikidata.org/entity/Q4748882,Amtelco,http://www.wikidata.org/entity/Q1537,Wisconsin
http://www.wikidata.org/entity/Q4801323,Artists for Charity,http://www.wikidata.org/entity/Q1428,Georgia
http://www.wikidata.org/entity/Q4849981,Balanced Ecology,http://www.wikidata.org/entity/Q1439,Texas
http://www.wikidata.org/entity/Q4877457,Beaufort-Jasper Water and Sewer Authority,http://www.wikidata.org/entity/Q1456,South Carolina
http://www.wikidata.org/entity/Q5063099,CenturyTel of Central Indiana,http://www.wikidata.org/entity/Q1415,Indiana
http://www.wikidata.org/entity/Q5120851,"Cinematronics, LLC",http://www.wikidata.org/entity/Q1439,Texas
http://www.wikidata.org/entity/Q5163248,Console Classix,http://www.wikidata.org/entity/Q1456,South Carolina
http://www.wikidata.org/entity/Q5176593,Councils on Chiropractic Education International,http://www.wikidata.org/entity/Q1522,New Mexico
http://www.wikidata.org/entity/Q5189949,Cruise Critic,http://www.wikidata.org/entity/Q1408,New Jersey
http://www.wikidata.org/entity/Q5227501,Dataware Games,http://www.wikidata.org/entity/Q1494,Mississippi
http://www.wikidata.org/entity/Q5242015,Davison's,http://www.wikidata.org/entity/Q1428,Georgia
http://www.wikidata.org/entity/Q5306378,Dream House For Medically Fragile Children,http://www.wikidata.org/entity/Q1428,Georgia
http://www.wikidata.org/entity/Q5374686,Emprise Bank,http://www.wikidata.org/entity/Q1558,Kansas
http://www.wikidata.org/entity/Q5433149,Family Health International,http://www.wikidata.org/entity/Q1454,North Carolina
http://www.wikidata.org/entity/Q5446583,Fictionwise,http://www.wikidata.org/entity/Q1408,New Jersey
http://www.wikidata.org/entity/Q5450093,Fine Paints of Europe,http://www.wikidata.org/entity/Q16551,Vermont
http://www.wikidata.org/entity/Q5499196,Fredericksburg Farmers Cooperative,http://www.wikidata.org/entity/Q1546,Iowa
http://www.wikidata.org/entity/Q5511825,G&G Entertainment,http://www.wikidata.org/entity/Q1408,New Jersey
http://www.wikidata.org/entity/Q3495447,Stack Exchange,http://www.wikidata.org/entity/Q1393,Delaware
http://www.wikidata.org/entity/Q4795598,Arotech Corporation,http://www.wikidata.org/entity/Q1393,Delaware
http://www.wikidata.org/entity/Q4831193,Ayers Saint Gross,http://www.wikidata.org/entity/Q1391,Maryland
http://www.wikidata.org/entity/Q4904058,Biddle Motor Car Company,http://www.wikidata.org/entity/Q1400,Pennsylvania
http://www.wikidata.org/entity/Q5005189,Böttcher America,http://www.wikidata.org/entity/Q1391,Maryland
http://www.wikidata.org/entity/Q5031388,CancerVax,http://www.wikidata.org/entity/Q1393,Delaware
http://www.wikidata.org/entity/Q5058070,Celina Tent Inc.,http://www.wikidata.org/entity/Q1397,Ohio
http://www.wikidata.org/entity/Q5099631,China Clean Energy,http://www.wikidata.org/entity/Q1393,Delaware
http://www.wikidata.org/entity/Q5415964,Evans Tuning,http://www.wikidata.org/entity/Q1400,Pennsylvania
http://www.wikidata.org/entity/Q5500667,Freedom Yachts,http://www.wikidata.org/entity/Q1387,Rhode Island
http://www.wikidata.org/entity/Q5533902,GeoEdge,http://www.wikidata.org/entity/Q1387,Rhode Island
http://www.wikidata.org/entity/Q5583454,Goodman Brothers and Hinlein Company,http://www.wikidata.org/entity/Q1400,Pennsylvania
http://www.wikidata.org/entity/Q5676330,Harvard Company-Weber Dental Manufacturing Company,http://www.wikidata.org/entity/Q1397,Ohio
http://www.wikidata.org/entity/Q6398468,Keystone Hook and Ladder Company,http://www.wikidata.org/entity/Q1400,Pennsylvania
http://www.wikidata.org/entity/Q6436595,Kreider Shoe Manufacturing Company,http://www.wikidata.org/entity/Q1400,Pennsylvania
http://www.wikidata.org/entity/Q6540333,LibLime,http://www.wikidata.org/entity/Q1391,Maryland
http://www.wikidata.org/entity/Q6781355,Maryland Jockey Club,http://www.wikidata.org/entity/Q1391,Maryland
http://www.wikidata.org/entity/Q6819531,Merit Underwear Company,http://www.wikidata.org/entity/Q1400,Pennsylvania
http://www.wikidata.org/entity/Q7156364,Pawtuxet Valley Dyeing Company,http://www.wikidata.org/entity/Q1387,Rhode Island
http://www.wikidata.org/entity/Q7199337,Pittsburgh Opera,http://www.wikidata.org/entity/Q1400,Pennsylvania
http://www.wikidata.org/entity/Q7252415,"Providence Dyeing, Bleaching, Calendring Company",http://www.wikidata.org/entity/Q1387,Rhode Island
http://www.wikidata.org/entity/Q7257480,Public Opinion Research,http://www.wikidata.org/entity/Q1391,Maryland
http://www.wikidata.org/entity/Q7320971,Rhode Island Urban Debate League,http://www.wikidata.org/entity/Q1387,Rhode Island
http://www.wikidata.org/entity/Q7631492,Sublime Dreamer,http://www.wikidata.org/entity/Q1393,Delaware
http://www.wikidata.org/entity/Q7884170,Uneek Havana Cigar Company,http://www.wikidata.org/entity/Q1400,Pennsylvania
http://www.wikidata.org/entity/Q7898381,Uplifting Entertainment,http://www.wikidata.org/entity/Q1400,Pennsylvania
http://www.wikidata.org/entity/Q7972764,Wasserstein Perella & Co.,http://www.wikidata.org/entity/Q1384,New York
http://www.wikidata.org/entity/Q7978457,WebMediaBrands,http://www.wikidata.org/entity/Q1384,New York
http://www.wikidata.org/entity/Q7982082,Welspun USA Inc,http://www.wikidata.org/entity/Q1384,New York
http://www.wikidata.org/entity/Q7990151,Wetson's,http://www.wikidata.org/entity/Q1384,New York
http://www.wikidata.org/entity/Q7995046,White Marsh Volunteer Fire Company,http://www.wikidata.org/entity/Q1391,Maryland
http://www.wikidata.org/entity/Q8036694,Worldcom PR Group,http://www.wikidata.org/entity/Q1384,New York
http://www.wikidata.org/entity/Q8036758,Worldview Pictures,http://www.wikidata.org/entity/Q1384,New York
http://www.wikidata.org/entity/Q8045846,YCD Multimedia,http://www.wikidata.org/entity/Q1384,New York
http://www.wikidata.org/entity/Q8073537,Zola Books,http://www.wikidata.org/entity/Q1384,New York
http://www.wikidata.org/entity/Q10374807,Sunbow Entertainment,http://www.wikidata.org/entity/Q1384,New York
http://www.wikidata.org/entity/Q14683492,Niagara Falls High School,http://www.wikidata.org/entity/Q1384,New York
http://www.wikidata.org/entity/Q14791482,Biart,http://www.wikidata.org/entity/Q1393,Delaware
http://www.wikidata.org/entity/Q16823984,50 Eggs Films,http://www.wikidata.org/entity/Q771,Massachusetts
http://www.wikidata.org/entity/Q16944372,"Warren, Brookfield and Spencer Street Railway",http://www.wikidata.org/entity/Q771,Massachusetts
http://www.wikidata.org/entity/Q16986391,CATY,http://www.wikidata.org/entity/Q99,California
http://www.wikidata.org/entity/Q16989144,Data Age,http://www.wikidata.org/entity/Q99,California
http://www.wikidata.org/entity/Q17012264,New England Institute of Religious Research,http://www.wikidata.org/entity/Q771,Massachusetts
http://www.wikidata.org/entity/Q17031690,Viva Móvil,http://www.wikidata.org/entity/Q99,California
http://www.wikidata.org/entity/Q17036138,Western States Gospel Music Association,http://www.wikidata.org/entity/Q99,California
http://www.wikidata.org/entity/Q17091532,New Hampshire Wildlife Federation,http://www.wikidata.org/entity/Q759,New Hampshire
http://www.wikidata.org/entity/Q18364030,Rumble on the Rock,http://www.wikidata.org/entity/Q782,Hawaii
http://www.wikidata.org/entity/Q19903396,LEIA Inc,http://www.wikidata.org/entity/Q99,California
http://www.wikidata.org/entity/Q20714785,Parkinson's Association,http://www.wikidata.org/entity/Q99,California
http://www.wikidata.org/entity/Q24526064,The Hands for Music Foundation,http://www.wikidata.org/entity/Q779,Connecticut
http://www.wikidata.org/entity/Q27044189,AMY COCHRAN INSTITUTE OF PHYSIO-SYNTHESIS,http://www.wikidata.org/entity/Q99,California
http://www.wikidata.org/entity/Q27150193,HopSkipDrive,http://www.wikidata.org/entity/Q99,California
http://www.wikidata.org/entity/Q5384681,Equity One,http://www.wikidata.org/entity/Q1384,New York
http://www.wikidata.org/entity/Q5398617,Esophageal Cancer Awareness Association,http://www.wikidata.org/entity/Q1384,New York
http://www.wikidata.org/entity/Q5439915,Fedcap Rehabilitation Services,http://www.wikidata.org/entity/Q1384,New York
http://www.wikidata.org/entity/Q5450530,Finlay Enterprises,http://www.wikidata.org/entity/Q1384,New York
http://www.wikidata.org/entity/Q5508869,Fund.com,http://www.wikidata.org/entity/Q1384,New York
http://www.wikidata.org/entity/Q5508870,FundAmerica,http://www.wikidata.org/entity/Q1384,New York
http://www.wikidata.org/entity/Q5511932,G-Unit Clothing Company,http://www.wikidata.org/entity/Q1384,New York
http://www.wikidata.org/entity/Q5608776,Griffin-Bacal Advertising,http://www.wikidata.org/entity/Q1384,New York
http://www.wikidata.org/entity/Q5734924,Herbert Levine,http://www.wikidata.org/entity/Q1384,New York
http://www.wikidata.org/entity/Q5872693,Hitwise,http://www.wikidata.org/entity/Q1384,New York
http://www.wikidata.org/entity/Q5945190,Huntington's Disease Society of America,http://www.wikidata.org/entity/Q1384,New York
http://www.wikidata.org/entity/Q5973741,FXCM,http://www.wikidata.org/entity/Q1384,New York
http://www.wikidata.org/entity/Q5975218,ITerating,http://www.wikidata.org/entity/Q1384,New York
http://www.wikidata.org/entity/Q6030530,"Inform, Inc.",http://www.wikidata.org/entity/Q1384,New York
http://www.wikidata.org/entity/Q6314211,Juno Healthcare Staffing,http://www.wikidata.org/entity/Q1384,New York
http://www.wikidata.org/entity/Q6330925,KIND Snacks,http://www.wikidata.org/entity/Q1384,New York
http://www.wikidata.org/entity/Q6455805,L'Observatoire International,http://www.wikidata.org/entity/Q1384,New York
http://www.wikidata.org/entity/Q6496175,LatinFinance,http://www.wikidata.org/entity/Q1384,New York
http://www.wikidata.org/entity/Q6516770,Left/Right Productions,http://www.wikidata.org/entity/Q1384,New York
http://www.wikidata.org/entity/Q6542432,Libra Group,http://www.wikidata.org/entity/Q1384,New York
http://www.wikidata.org/entity/Q6666247,Loden Dager,http://www.wikidata.org/entity/Q1384,New York
http://www.wikidata.org/entity/Q6774777,Martin's,http://www.wikidata.org/entity/Q1384,New York
http://www.wikidata.org/entity/Q6804644,Mechanism Digital,http://www.wikidata.org/entity/Q1384,New York
http://www.wikidata.org/entity/Q6806148,Mediapolis (company),http://www.wikidata.org/entity/Q1384,New York
http://www.wikidata.org/entity/Q6895847,Moldovan–American Chamber of Commerce,http://www.wikidata.org/entity/Q1384,New York
http://www.wikidata.org/entity/Q6897006,Mom + Pop Music,http://www.wikidata.org/entity/Q1384,New York
http://www.wikidata.org/entity/Q6926815,MoviePass,http://www.wikidata.org/entity/Q1384,New York
http://www.wikidata.org/entity/Q6931694,Muddy Waters Research,http://www.wikidata.org/entity/Q1384,New York
http://www.wikidata.org/entity/Q6983524,Nazmiyal collection,http://www.wikidata.org/entity/Q1384,New York
http://www.wikidata.org/entity/Q7092456,One Art World,http://www.wikidata.org/entity/Q1384,New York
http://www.wikidata.org/entity/Q7095851,OpenPlans,http://www.wikidata.org/entity/Q1384,New York
http://www.wikidata.org/entity/Q7113021,Outsource Partners International,http://www.wikidata.org/entity/Q1384,New York
http://www.wikidata.org/entity/Q7130924,Pangea3,http://www.wikidata.org/entity/Q1384,New York
http://www.wikidata.org/entity/Q7165267,Penton Media,http://www.wikidata.org/entity/Q1384,New York
http://www.wikidata.org/entity/Q7182955,Philatelic Foundation,http://www.wikidata.org/entity/Q1384,New York
http://www.wikidata.org/entity/Q7249072,Project EVIE,http://www.wikidata.org/entity/Q1384,New York
http://www.wikidata.org/entity/Q7254454,Pseudo.com,http://www.wikidata.org/entity/Q1384,New York
http://www.wikidata.org/entity/Q7274343,R/GA,http://www.wikidata.org/entity/Q1384,New York
http://www.wikidata.org/entity/Q3079938,FINCA International,http://www.wikidata.org/entity/Q1223,Washington
http://www.wikidata.org/entity/Q3287236,Maple Pictures,http://www.wikidata.org/entity/Q1384,New York
http://www.wikidata.org/entity/Q3296752,Dualstar,http://www.wikidata.org/entity/Q1384,New York
http://www.wikidata.org/entity/Q3660410,Carnegie Corporation of New York,http://www.wikidata.org/entity/Q1384,New York
http://www.wikidata.org/entity/Q4033562,Aggressive,http://www.wikidata.org/entity/Q1384,New York
http://www.wikidata.org/entity/Q4050383,Sunbelt Software,http://www.wikidata.org/entity/Q812,Florida
http://www.wikidata.org/entity/Q4637521,411 PAIN,http://www.wikidata.org/entity/Q812,Florida
http://www.wikidata.org/entity/Q4834666,BASIS Schools,http://www.wikidata.org/entity/Q816,Arizona
http://www.wikidata.org/entity/Q4957977,Brastilo,http://www.wikidata.org/entity/Q812,Florida
http://www.wikidata.org/entity/Q4958453,Bravo Music,http://www.wikidata.org/entity/Q812,Florida
http://www.wikidata.org/entity/Q5037630,Carahsoft,http://www.wikidata.org/entity/Q1370,Virginia
http://www.wikidata.org/entity/Q5095607,"Chicago Franchise Systems, Inc.",http://www.wikidata.org/entity/Q1204,Illinois
http://www.wikidata.org/entity/Q5122779,Citizenship Counts,http://www.wikidata.org/entity/Q816,Arizona
http://www.wikidata.org/entity/Q5227155,Data Design Interactive,http://www.wikidata.org/entity/Q812,Florida
http://www.wikidata.org/entity/Q5332700,Echo Films,http://www.wikidata.org/entity/Q1223,Washington
http://www.wikidata.org/entity/Q5372503,Eminent Technology,http://www.wikidata.org/entity/Q812,Florida
http://www.wikidata.org/entity/Q5461591,Florida Sheriffs Association,http://www.wikidata.org/entity/Q812,Florida
http://www.wikidata.org/entity/Q5510639,Future Comics,http://www.wikidata.org/entity/Q812,Florida
http://www.wikidata.org/entity/Q5577342,Gogebic Taconite,http://www.wikidata.org/entity/Q812,Florida
http://www.wikidata.org/entity/Q5578880,Gold Strike Hotel and Gambling Hall,http://www.wikidata.org/entity/Q1227,Nevada
http://www.wikidata.org/entity/Q5579800,Golden Spike Company,http://www.wikidata.org/entity/Q1261,Colorado
http://www.wikidata.org/entity/Q5690301,Healing Through Creativity,http://www.wikidata.org/entity/Q1371,West Virginia
http://www.wikidata.org/entity/Q6042347,Insurance Services of America,http://www.wikidata.org/entity/Q816,Arizona
http://www.wikidata.org/entity/Q6322669,K-Dow Petrochemicals,http://www.wikidata.org/entity/Q1166,Michigan
http://www.wikidata.org/entity/Q6393260,Ker's WingHouse,http://www.wikidata.org/entity/Q812,Florida
http://www.wikidata.org/entity/Q6545918,Liggett and Myers Tobacco Company,http://www.wikidata.org/entity/Q1371,West Virginia
http://www.wikidata.org/entity/Q6904248,Montana Elevator Co.,http://www.wikidata.org/entity/Q1212,Montana
http://www.wikidata.org/entity/Q6904280,Montana Legacy Project,http://www.wikidata.org/entity/Q1212,Montana
http://www.wikidata.org/entity/Q7274703,R3,http://www.wikidata.org/entity/Q1384,New York
http://www.wikidata.org/entity/Q7284878,Rainforest Foundation US,http://www.wikidata.org/entity/Q1384,New York
http://www.wikidata.org/entity/Q7287177,Ralph Appelbaum Associates,http://www.wikidata.org/entity/Q1384,New York
http://www.wikidata.org/entity/Q7318297,Reversible destiny,http://www.wikidata.org/entity/Q1384,New York
http://www.wikidata.org/entity/Q7320757,Rhizome,http://www.wikidata.org/entity/Q1384,New York
http://www.wikidata.org/entity/Q7362521,Romanian-American Chamber of Commerce,http://www.wikidata.org/entity/Q1384,New York
http://www.wikidata.org/entity/Q7433601,Science Research Associates,http://www.wikidata.org/entity/Q1384,New York
http://www.wikidata.org/entity/Q7448826,Seltaeb,http://www.wikidata.org/entity/Q1384,New York
http://www.wikidata.org/entity/Q7498013,Shipley & Halmos,http://www.wikidata.org/entity/Q1384,New York
http://www.wikidata.org/entity/Q7521234,Sims Metal Management,http://www.wikidata.org/entity/Q1384,New York
http://www.wikidata.org/entity/Q7559006,Solve Media,http://www.wikidata.org/entity/Q1384,New York
http://www.wikidata.org/entity/Q7561638,Songtrust,http://www.wikidata.org/entity/Q1384,New York
http://www.wikidata.org/entity/Q7597319,Stallion Bus and Transit Corp.,http://www.wikidata.org/entity/Q1384,New York
http://www.wikidata.org/entity/Q7622399,StrawberryFrog,http://www.wikidata.org/entity/Q1384,New York
http://www.wikidata.org/entity/Q7692152,Tech 21,http://www.wikidata.org/entity/Q1384,New York
http://www.wikidata.org/entity/Q7699703,Teneo,http://www.wikidata.org/entity/Q1384,New York
http://www.wikidata.org/entity/Q7715595,The Barbarian Group,http://www.wikidata.org/entity/Q1384,New York
http://www.wikidata.org/entity/Q7716009,The Beanstalk Group,http://www.wikidata.org/entity/Q1384,New York
http://www.wikidata.org/entity/Q7729693,The Demand Institute,http://www.wikidata.org/entity/Q1384,New York
http://www.wikidata.org/entity/Q7753238,The Natori Company,http://www.wikidata.org/entity/Q1384,New York
http://www.wikidata.org/entity/Q7784615,Thinkorswim,http://www.wikidata.org/entity/Q1384,New York
http://www.wikidata.org/entity/Q7839762,Tri-State Transportation Campaign,http://www.wikidata.org/entity/Q1384,New York
http://www.wikidata.org/entity/Q7845511,Tronic Studio,http://www.wikidata.org/entity/Q1384,New York
http://www.wikidata.org/entity/Q7899916,Urban Green Energy,http://www.wikidata.org/entity/Q1384,New York
http://www.wikidata.org/entity/Q7901671,Usablenet,http://www.wikidata.org/entity/Q1384,New York
http://www.wikidata.org/entity/Q7907042,VIP Art Fair,http://www.wikidata.org/entity/Q1384,New York
http://www.wikidata.org/entity/Q7919631,Vendome Group,http://www.wikidata.org/entity/Q1384,New York
http://www.wikidata.org/entity/Q7930923,Villard,http://www.wikidata.org/entity/Q1384,New York
http://www.wikidata.org/entity/Q1663043,Ingersoll Watch Company,http://www.wikidata.org/entity/Q1370,Virginia
http://www.wikidata.org/entity/Q1697466,Viacom International Media Networks,http://www.wikidata.org/entity/Q1384,New York
http://www.wikidata.org/entity/Q2034767,Salomon Brothers,http://www.wikidata.org/entity/Q1384,New York
http://www.wikidata.org/entity/Q2418461,Oceanic Preservation Society,http://www.wikidata.org/entity/Q1261,Colorado
http://www.wikidata.org/entity/Q2573511,Kaltura,http://www.wikidata.org/entity/Q1384,New York
http://www.wikidata.org/entity/Q2576280,Girl Scouts of the USA,http://www.wikidata.org/entity/Q1384,New York
http://www.wikidata.org/entity/Q2655764,"Clinique Laboratories, LLC",http://www.wikidata.org/entity/Q1384,New York
http://www.wikidata.org/entity/Q2748407,Shapeways,http://www.wikidata.org/entity/Q1384,New York
http://www.wikidata.org/entity/Q2812139,Sunlight Productions,http://www.wikidata.org/entity/Q1166,Michigan
http://www.wikidata.org/entity/Q2876634,B. Altman and Company,http://www.wikidata.org/entity/Q1384,New York
http://www.wikidata.org/entity/Q2896872,Software Freedom Conservancy,http://www.wikidata.org/entity/Q1384,New York
http://www.wikidata.org/entity/Q2902358,Big UP Productions,http://www.wikidata.org/entity/Q1384,New York
http://www.wikidata.org/entity/Q3001888,Sony BMG,http://www.wikidata.org/entity/Q1384,New York
http://www.wikidata.org/entity/Q5514050,GOAT Store,http://www.wikidata.org/entity/Q1537,Wisconsin
http://www.wikidata.org/entity/Q5916139,Housing Vermont,http://www.wikidata.org/entity/Q16551,Vermont
http://www.wikidata.org/entity/Q6052623,International Quidditch Association,http://www.wikidata.org/entity/Q16551,Vermont
http://www.wikidata.org/entity/Q6107827,JBovier Stringed Instruments,http://www.wikidata.org/entity/Q1603,Kentucky
http://www.wikidata.org/entity/Q6394305,Kerr-McGee,http://www.wikidata.org/entity/Q1649,Oklahoma
http://www.wikidata.org/entity/Q6542163,Liberty Union Party,http://www.wikidata.org/entity/Q16551,Vermont
http://www.wikidata.org/entity/Q6545950,LightBuckets,http://www.wikidata.org/entity/Q1522,New Mexico
http://www.wikidata.org/entity/Q6608367,Indiana University,http://www.wikidata.org/entity/Q1415,Indiana
http://www.wikidata.org/entity/Q6824418,MetroCorp Bancshares,http://www.wikidata.org/entity/Q1439,Texas
http://www.wikidata.org/entity/Q6863466,Mind Dynamics,http://www.wikidata.org/entity/Q1439,Texas
http://www.wikidata.org/entity/Q6878040,Miss Wisconsin USA,http://www.wikidata.org/entity/Q1537,Wisconsin
http://www.wikidata.org/entity/Q6929917,Mrs. Winner's Chicken & Biscuits,http://www.wikidata.org/entity/Q1527,Minnesota
http://www.wikidata.org/entity/Q6974593,National NuGrape Company,http://www.wikidata.org/entity/Q1428,Georgia
http://www.wikidata.org/entity/Q7142515,"Passaic Machine Works-Watts, Campbell & Company",http://www.wikidata.org/entity/Q1408,New Jersey
http://www.wikidata.org/entity/Q7225189,D.O.O.P.,http://www.wikidata.org/entity/Q1408,New Jersey
http://www.wikidata.org/entity/Q7241654,Pressed Steel Car Company,http://www.wikidata.org/entity/Q1408,New Jersey
http://www.wikidata.org/entity/Q7301464,Rearwin Airplanes Inc.,http://www.wikidata.org/entity/Q1558,Kansas
http://www.wikidata.org/entity/Q7304847,Red River Gorge Climbers' Coalition,http://www.wikidata.org/entity/Q1603,Kentucky
http://www.wikidata.org/entity/Q7431834,Schmitt and Henry Manufacturing Company,http://www.wikidata.org/entity/Q1546,Iowa
http://www.wikidata.org/entity/Q7439820,SeaStreak,http://www.wikidata.org/entity/Q1408,New Jersey
http://www.wikidata.org/entity/Q5628636,H. W. Clark Biscuit Company,http://www.wikidata.org/entity/Q771,Massachusetts
http://www.wikidata.org/entity/Q6268362,Johnson Manufacturing Company,http://www.wikidata.org/entity/Q771,Massachusetts
http://www.wikidata.org/entity/Q6314215,Juno Ju-X,http://www.wikidata.org/entity/Q99,California
http://www.wikidata.org/entity/Q6418754,Amazon Robotics,http://www.wikidata.org/entity/Q771,Massachusetts
http://www.wikidata.org/entity/Q6508655,Leadership Dynamics,http://www.wikidata.org/entity/Q99,California
http://www.wikidata.org/entity/Q6787989,"Matson, Inc.",http://www.wikidata.org/entity/Q782,Hawaii
http://www.wikidata.org/entity/Q6808925,Megatech Software,http://www.wikidata.org/entity/Q99,California
http://www.wikidata.org/entity/Q6985268,NebuAd,http://www.wikidata.org/entity/Q99,California
http://www.wikidata.org/entity/Q7057955,Northeast Organic Farming Association,http://www.wikidata.org/entity/Q779,Connecticut
http://www.wikidata.org/entity/Q7071918,O'Neill Sea Odyssey,http://www.wikidata.org/entity/Q99,California
http://www.wikidata.org/entity/Q7090855,OnForce,http://www.wikidata.org/entity/Q771,Massachusetts
http://www.wikidata.org/entity/Q7112915,Outrigger Hotels & Resorts,http://www.wikidata.org/entity/Q782,Hawaii
http://www.wikidata.org/entity/Q7158172,Pearl Street Films,http://www.wikidata.org/entity/Q99,California
http://www.wikidata.org/entity/Q7247921,Professional Amigos of Comic Art Society,http://www.wikidata.org/entity/Q99,California
http://www.wikidata.org/entity/Q7263341,Tokyo-Hot,http://www.wikidata.org/entity/Q99,California
http://www.wikidata.org/entity/Q7271743,Quicklaunch,http://www.wikidata.org/entity/Q99,California
http://www.wikidata.org/entity/Q7301294,Reallusion,http://www.wikidata.org/entity/Q99,California
http://www.wikidata.org/entity/Q7355462,Rockland Trust Company,http://www.wikidata.org/entity/Q771,Massachusetts
http://www.wikidata.org/entity/Q7360829,Rolfe Photoplays,http://www.wikidata.org/entity/Q99,California
http://www.wikidata.org/entity/Q7392120,SOS Records,http://www.wikidata.org/entity/Q99,California
http://www.wikidata.org/entity/Q7394718,"STEC, Inc.",http://www.wikidata.org/entity/Q99,California
http://www.wikidata.org/entity/Q7414396,San Joaquin Light and Power Corporation,http://www.wikidata.org/entity/Q99,California
http://www.wikidata.org/entity/Q7624177,Strive for College,http://www.wikidata.org/entity/Q99,California
http://www.wikidata.org/entity/Q7687043,Tarzana Treatment Centers,http://www.wikidata.org/entity/Q99,California
http://www.wikidata.org/entity/Q7692650,Technopop,http://www.wikidata.org/entity/Q99,California
http://www.wikidata.org/entity/Q7714549,The Artery Foundation,http://www.wikidata.org/entity/Q99,California
http://www.wikidata.org/entity/Q7723483,The Clothesline Project,http://www.wikidata.org/entity/Q771,Massachusetts
http://www.wikidata.org/entity/Q7809768,Titan Pharmaceuticals,http://www.wikidata.org/entity/Q99,California
http://www.wikidata.org/entity/Q7892296,United States Watch Company,http://www.wikidata.org/entity/Q771,Massachusetts
http://www.wikidata.org/entity/Q7958790,Wachusett Shirt Company,http://www.wikidata.org/entity/Q771,Massachusetts
http://www.wikidata.org/entity/Q7988778,Westfield Whip Manufacturing Company,http://www.wikidata.org/entity/Q771,Massachusetts
http://www.wikidata.org/entity/Q7989585,Westport Bank and Trust Company,http://www.wikidata.org/entity/Q779,Connecticut
http://www.wikidata.org/entity/Q8029990,Wolfe Video,http://www.wikidata.org/entity/Q99,California
http://www.wikidata.org/entity/Q8962119,Fox Television Studios,http://www.wikidata.org/entity/Q99,California
http://www.wikidata.org/entity/Q16246329,ESS Technology,http://www.wikidata.org/entity/Q99,California
http://www.wikidata.org/entity/Q16248321,Aggregate Films,http://www.wikidata.org/entity/Q99,California
http://www.wikidata.org/entity/Q16253608,I-Mockery,http://www.wikidata.org/entity/Q99,California
http://www.wikidata.org/entity/Q6971052,National Board of Chiropractic Examiners,http://www.wikidata.org/entity/Q1261,Colorado
http://www.wikidata.org/entity/Q7028396,Nickelodeon Studios,http://www.wikidata.org/entity/Q812,Florida
http://www.wikidata.org/entity/Q7053707,North America Vishwa Kannada Association,http://www.wikidata.org/entity/Q812,Florida
http://www.wikidata.org/entity/Q7101148,Oregon Community Credit Union,http://www.wikidata.org/entity/Q824,Oregon
http://www.wikidata.org/entity/Q7247734,"Product Architects, Inc.",http://www.wikidata.org/entity/Q1261,Colorado
http://www.wikidata.org/entity/Q7355078,RocketShip Tours,http://www.wikidata.org/entity/Q816,Arizona
http://www.wikidata.org/entity/Q7367451,Rosati's,http://www.wikidata.org/entity/Q1204,Illinois
http://www.wikidata.org/entity/Q7431310,Schiller Piano Company,http://www.wikidata.org/entity/Q1204,Illinois
http://www.wikidata.org/entity/Q7496738,Shiloh Rifle Manufacturing Company,http://www.wikidata.org/entity/Q1212,Montana
http://www.wikidata.org/entity/Q7557869,Solid Rock Foundation,http://www.wikidata.org/entity/Q816,Arizona
http://www.wikidata.org/entity/Q7589329,St. Joseph High School,http://www.wikidata.org/entity/Q1204,Illinois
http://www.wikidata.org/entity/Q7694294,Teen Driver Challenge,http://www.wikidata.org/entity/Q812,Florida
http://www.wikidata.org/entity/Q7797116,Thrall Car Manufacturing Company,http://www.wikidata.org/entity/Q1204,Illinois
http://www.wikidata.org/entity/Q7848371,Truven Health Analytics,http://www.wikidata.org/entity/Q1166,Michigan
http://www.wikidata.org/entity/Q7907635,VT Systems,http://www.wikidata.org/entity/Q1370,Virginia
http://www.wikidata.org/entity/Q7921303,VeriWave,http://www.wikidata.org/entity/Q824,Oregon
http://www.wikidata.org/entity/Q7971319,Wasabi Anime,http://www.wikidata.org/entity/Q812,Florida
http://www.wikidata.org/entity/Q8000664,Wild Horse Adult Resort & Spa,http://www.wikidata.org/entity/Q1227,Nevada
http://www.wikidata.org/entity/Q8022972,Wilson Audio,http://www.wikidata.org/entity/Q829,Utah
http://www.wikidata.org/entity/Q8030660,Woman's Temperance Publishing Association,http://www.wikidata.org/entity/Q1204,Illinois
http://www.wikidata.org/entity/Q8051226,Yeh for Games,http://www.wikidata.org/entity/Q1227,Nevada
http://www.wikidata.org/entity/Q9292762,Mustang Ranch,http://www.wikidata.org/entity/Q1227,Nevada
http://www.wikidata.org/entity/Q12053156,Biocutis,http://www.wikidata.org/entity/Q1227,Nevada
http://www.wikidata.org/entity/Q15051623,Jacksonville Transportation Authority,http://www.wikidata.org/entity/Q812,Florida
http://www.wikidata.org/entity/Q16212010,Truckers Against Trafficking,http://www.wikidata.org/entity/Q1261,Colorado
http://www.wikidata.org/entity/Q16939331,Reasonable Solutions,http://www.wikidata.org/entity/Q824,Oregon
http://www.wikidata.org/entity/Q16960672,Life in Color,http://www.wikidata.org/entity/Q812,Florida
http://www.wikidata.org/entity/Q16988655,Continucare Corporation,http://www.wikidata.org/entity/Q812,Florida
http://www.wikidata.org/entity/Q17007294,Miss Montana USA,http://www.wikidata.org/entity/Q1212,Montana
http://www.wikidata.org/entity/Q17021014,World Orphans,http://www.wikidata.org/entity/Q1261,Colorado
http://www.wikidata.org/entity/Q17082977,Sprout Social,http://www.wikidata.org/entity/Q1204,Illinois
http://www.wikidata.org/entity/Q17092320,Parkinson Association of the Rockies,http://www.wikidata.org/entity/Q1261,Colorado
http://www.wikidata.org/entity/Q18151484,Methode Electronics,http://www.wikidata.org/entity/Q1204,Illinois
http://www.wikidata.org/entity/Q18168341,Rover.com,http://www.wikidata.org/entity/Q1223,Washington
http://www.wikidata.org/entity/Q19596049,BioTork,http://www.wikidata.org/entity/Q812,Florida
http://www.wikidata.org/entity/Q19720710,Florida Center for Investigative Reporting,http://www.wikidata.org/entity/Q812,Florida
http://www.wikidata.org/entity/Q19845227,Go Port Canaveral,http://www.wikidata.org/entity/Q812,Florida
http://www.wikidata.org/entity/Q19879822,Florida Carry,http://www.wikidata.org/entity/Q812,Florida
http://www.wikidata.org/entity/Q15242322,Lulu (app),http://www.wikidata.org/entity/Q1384,New York
http://www.wikidata.org/entity/Q15712011,Zello,http://www.wikidata.org/entity/Q1384,New York
http://www.wikidata.org/entity/Q16165699,Qello,http://www.wikidata.org/entity/Q1384,New York
http://www.wikidata.org/entity/Q16247005,Callision,http://www.wikidata.org/entity/Q1384,New York
http://www.wikidata.org/entity/Q16829170,Decarcerate PA,http://www.wikidata.org/entity/Q1400,Pennsylvania
http://www.wikidata.org/entity/Q16839476,FXDD,http://www.wikidata.org/entity/Q1384,New York
http://www.wikidata.org/entity/Q16927818,The Franklin Report,http://www.wikidata.org/entity/Q1384,New York
http://www.wikidata.org/entity/Q16959003,CommonBond,http://www.wikidata.org/entity/Q1384,New York
http://www.wikidata.org/entity/Q16967144,WeShow,http://www.wikidata.org/entity/Q1384,New York
http://www.wikidata.org/entity/Q16968268,Live Gamer,http://www.wikidata.org/entity/Q1384,New York
http://www.wikidata.org/entity/Q16971291,BillGuard,http://www.wikidata.org/entity/Q1384,New York
http://www.wikidata.org/entity/Q16981486,StockTouch,http://www.wikidata.org/entity/Q1384,New York
http://www.wikidata.org/entity/Q16982236,Morgan Iron Works,http://www.wikidata.org/entity/Q1384,New York
http://www.wikidata.org/entity/Q16982715,New York Skyride,http://www.wikidata.org/entity/Q1384,New York
http://www.wikidata.org/entity/Q16993978,Gatestone Institute,http://www.wikidata.org/entity/Q1384,New York
http://www.wikidata.org/entity/Q16998595,Knoa Software,http://www.wikidata.org/entity/Q1384,New York
http://www.wikidata.org/entity/Q17018683,Random House Studio,http://www.wikidata.org/entity/Q1384,New York
http://www.wikidata.org/entity/Q17070323,MWW,http://www.wikidata.org/entity/Q1384,New York
http://www.wikidata.org/entity/Q17083477,New York Military Affairs Symposium,http://www.wikidata.org/entity/Q1384,New York
http://www.wikidata.org/entity/Q17084628,Taskworld,http://www.wikidata.org/entity/Q1384,New York
http://www.wikidata.org/entity/Q17089145,Sumall,http://www.wikidata.org/entity/Q1384,New York
http://www.wikidata.org/entity/Q17089442,Magnum Foundation,http://www.wikidata.org/entity/Q1384,New York
http://www.wikidata.org/entity/Q17089470,Tapad,http://www.wikidata.org/entity/Q1384,New York
http://www.wikidata.org/entity/Q17090376,World Culture Open,http://www.wikidata.org/entity/Q1384,New York
http://www.wikidata.org/entity/Q17113889,Misterbnb,http://www.wikidata.org/entity/Q1393,Delaware
http://www.wikidata.org/entity/Q17131047,The Frye Company,http://www.wikidata.org/entity/Q1384,New York
http://www.wikidata.org/entity/Q18148493,BLV Group,http://www.wikidata.org/entity/Q1384,New York
http://www.wikidata.org/entity/Q18150157,FXall,http://www.wikidata.org/entity/Q1384,New York
http://www.wikidata.org/entity/Q18150982,IPark,http://www.wikidata.org/entity/Q1384,New York
http://www.wikidata.org/entity/Q18153652,Jacob & Co,http://www.wikidata.org/entity/Q1384,New York
http://www.wikidata.org/entity/Q18155028,New York Cocoa Exchange,http://www.wikidata.org/entity/Q1384,New York
http://www.wikidata.org/entity/Q18157247,TradingScreen,http://www.wikidata.org/entity/Q1384,New York
http://www.wikidata.org/entity/Q18211685,United Breast Cancer Foundation,http://www.wikidata.org/entity/Q1384,New York
http://www.wikidata.org/entity/Q18356597,SeedInvest,http://www.wikidata.org/entity/Q1384,New York
http://www.wikidata.org/entity/Q18358661,MediaBrix,http://www.wikidata.org/entity/Q1384,New York
http://www.wikidata.org/entity/Q18359164,PALPA,http://www.wikidata.org/entity/Q1400,Pennsylvania
http://www.wikidata.org/entity/Q18359291,SkillBridge,http://www.wikidata.org/entity/Q1384,New York
http://www.wikidata.org/entity/Q18639844,Vaad Talmidei Hatmimim Haolami,http://www.wikidata.org/entity/Q1384,New York
http://www.wikidata.org/entity/Q18712538,StartUp Health,http://www.wikidata.org/entity/Q1384,New York
http://www.wikidata.org/entity/Q19572998,Michael Kors,http://www.wikidata.org/entity/Q1384,New York
http://www.wikidata.org/entity/Q19840527,Bindo,http://www.wikidata.org/entity/Q1384,New York
http://www.wikidata.org/entity/Q19845430,School Outfitters,http://www.wikidata.org/entity/Q1397,Ohio
http://www.wikidata.org/entity/Q20980384,Shannon's Soaps,http://www.wikidata.org/entity/Q1397,Ohio
http://www.wikidata.org/entity/Q21022090,Edison Manufacturing Company,http://www.wikidata.org/entity/Q1384,New York
http://www.wikidata.org/entity/Q21077029,"Schuyler, Hartley and Graham",http://www.wikidata.org/entity/Q1384,New York
http://www.wikidata.org/entity/Q23009994,Fairfax (US) Inc.,http://www.wikidata.org/entity/Q1393,Delaware
http://www.wikidata.org/entity/Q23671488,Concord Pet Foods and Supplies,http://www.wikidata.org/entity/Q1391,Maryland
http://www.wikidata.org/entity/Q24110304,Brookfield Property Partners,http://www.wikidata.org/entity/Q1384,New York
http://www.wikidata.org/entity/Q27038994,Organization of Triangles Inc.,http://www.wikidata.org/entity/Q1384,New York
http://www.wikidata.org/entity/Q27150123,Kantar Health,http://www.wikidata.org/entity/Q1384,New York
http://www.wikidata.org/entity/Q19903870,Committee Entertainment,http://www.wikidata.org/entity/Q812,Florida
http://www.wikidata.org/entity/Q20714269,LunarG,http://www.wikidata.org/entity/Q1261,Colorado
http://www.wikidata.org/entity/Q23671497,Pet Pros,http://www.wikidata.org/entity/Q1223,Washington
http://www.wikidata.org/entity/Q25818939,"UTC Climate, Controls & Security",http://www.wikidata.org/entity/Q812,Florida
http://www.wikidata.org/entity/Q27991367,American Society of Neuroradiology,http://www.wikidata.org/entity/Q1204,Illinois
http://www.wikidata.org/entity/Q28230873,AXIOS Media,http://www.wikidata.org/entity/Q1370,Virginia
http://www.wikidata.org/entity/Q28941983,Amangiri,http://www.wikidata.org/entity/Q829,Utah
http://www.wikidata.org/entity/Q7440273,Seacoast Packing Company,http://www.wikidata.org/entity/Q1456,South Carolina
http://www.wikidata.org/entity/Q7491614,Shay's Bones and Biscuits,http://www.wikidata.org/entity/Q1603,Kentucky
http://www.wikidata.org/entity/Q7499895,Shocker Toys,http://www.wikidata.org/entity/Q1408,New Jersey
http://www.wikidata.org/entity/Q7685988,Tarheel Forensic League,http://www.wikidata.org/entity/Q1454,North Carolina
http://www.wikidata.org/entity/Q7707587,Texas Comics,http://www.wikidata.org/entity/Q1439,Texas
http://www.wikidata.org/entity/Q7707697,Texas Forensic Association,http://www.wikidata.org/entity/Q1439,Texas
http://www.wikidata.org/entity/Q7743365,The John Cooper School,http://www.wikidata.org/entity/Q1439,Texas
http://www.wikidata.org/entity/Q7783533,Theta Networks,http://www.wikidata.org/entity/Q1408,New Jersey
http://www.wikidata.org/entity/Q7836020,Traveling Guitar Foundation,http://www.wikidata.org/entity/Q1408,New Jersey
http://www.wikidata.org/entity/Q8031335,Women Superstars Uncensored,http://www.wikidata.org/entity/Q1408,New Jersey
http://www.wikidata.org/entity/Q11756281,Yad Leah,http://www.wikidata.org/entity/Q1408,New Jersey
http://www.wikidata.org/entity/Q14499987,Moral Mondays,http://www.wikidata.org/entity/Q1454,North Carolina
http://www.wikidata.org/entity/Q15070316,Destineer,http://www.wikidata.org/entity/Q1527,Minnesota
http://www.wikidata.org/entity/Q15702754,Telugu Association of North America,http://www.wikidata.org/entity/Q1439,Texas
http://www.wikidata.org/entity/Q15727861,Oklahoma Football Club,http://www.wikidata.org/entity/Q1649,Oklahoma
http://www.wikidata.org/entity/Q16966598,Payless Cashways,http://www.wikidata.org/entity/Q1581,Missouri
http://www.wikidata.org/entity/Q16993872,Fulcrum Worldwide,http://www.wikidata.org/entity/Q1408,New Jersey
http://www.wikidata.org/entity/Q17037414,Vision Research,http://www.wikidata.org/entity/Q1408,New Jersey
http://www.wikidata.org/entity/Q17109762,Motor Ave,http://www.wikidata.org/entity/Q1454,North Carolina
http://www.wikidata.org/entity/Q17141146,MTBC,http://www.wikidata.org/entity/Q1408,New Jersey
http://www.wikidata.org/entity/Q17151862,Zycus,http://www.wikidata.org/entity/Q1408,New Jersey
http://www.wikidata.org/entity/Q18150919,Food Democracy Now!,http://www.wikidata.org/entity/Q1546,Iowa
http://www.wikidata.org/entity/Q18351359,Allen Tate Realtors,http://www.wikidata.org/entity/Q1454,North Carolina
http://www.wikidata.org/entity/Q19060368,American News Company,http://www.wikidata.org/entity/Q1408,New Jersey
http://www.wikidata.org/entity/Q19362220,Cabins USA,http://www.wikidata.org/entity/Q1509,Tennessee
http://www.wikidata.org/entity/Q19720713,Luxor Linens,http://www.wikidata.org/entity/Q1408,New Jersey
http://www.wikidata.org/entity/Q22812779,Cabins USA Gatlinburg,http://www.wikidata.org/entity/Q1509,Tennessee
http://www.wikidata.org/entity/Q25336648,Pacific Packing and Navigation Company,http://www.wikidata.org/entity/Q1408,New Jersey
http://www.wikidata.org/entity/Q28038701,Tedjourney,http://www.wikidata.org/entity/Q1454,North Carolina
http://www.wikidata.org/entity/Q28937639,Barzz.net,http://www.wikidata.org/entity/Q1408,New Jersey
