obj1Id,obj1Name,obj2,obj2Label
http://www.wikidata.org/entity/Q49330,Médecins Sans Frontières,MSF,MSF
http://www.wikidata.org/entity/Q49330,Médecins Sans Frontières,MSF,MSF
http://www.wikidata.org/entity/Q49653,ARD,ARD,ARD
http://www.wikidata.org/entity/Q464096,American Economic Association,AEA,AEA
http://www.wikidata.org/entity/Q3077298,Société Nouvelle des Forges et Chantiers de la Méditerranée,FCM,FCM
http://www.wikidata.org/entity/Q17269143,Center for Jewish–Christian Understanding and Cooperation,CJCUC,CJCUC
http://www.wikidata.org/entity/Q530278,International Earth Rotation and Reference Systems Service,IERS,IERS
http://www.wikidata.org/entity/Q1259003,Messageries Maritimes,MM,MM
http://www.wikidata.org/entity/Q1377633,European Economic Association,EEA,EEA
http://www.wikidata.org/entity/Q266706,Jewish Combat Organization,ŻOB,ŻOB
http://www.wikidata.org/entity/Q2358615,StudierendenGesellschaft Witten/Herdecke,SG,SG
http://www.wikidata.org/entity/Q27488290,Servicio Nacional de Cereales,SNC,SNC
http://www.wikidata.org/entity/Q4242742,Society for the Study of the Amur Region,ОИАК,ОИАК
http://www.wikidata.org/entity/Q5098755,Chilean Safety Association,ACHS,ACHS
http://www.wikidata.org/entity/Q5412565,European Materials Handling Federation,FEM,FEM
http://www.wikidata.org/entity/Q24262892,Servicio Nacional del Trigo,SNT,SNT
http://www.wikidata.org/entity/Q1824774,International League against Racism and Anti-Semitism,LICRA,LICRA
http://www.wikidata.org/entity/Q9264484,Foundation for the Development of the Education System,FRSE,FRSE
http://www.wikidata.org/entity/Q18176928,The Expert Group on Future Skills Needs,GSRST,GSRST
http://www.wikidata.org/entity/Q19760553,Democratic Union of Slovaks and Czechs of Romania,UDSCR,UDSCR
http://www.wikidata.org/entity/Q27488355,Fondo Español de Garantía Agraria,FEGA,FEGA
http://www.wikidata.org/entity/Q1826,Tagbilaran,City of Peace and Friendship,City of Peace and Friendship
http://www.wikidata.org/entity/Q6703,Empoli F.C.,Μπλε,Μπλε
http://www.wikidata.org/entity/Q6767,Associazione Sportiva Livorno Calcio,Βισσινοί,Βισσινοί
http://www.wikidata.org/entity/Q9653,Ipswich Town F.C.,Οι Γαλάζιοι,Οι Γαλάζιοι
http://www.wikidata.org/entity/Q9653,Ipswich Town F.C.,Οι Τρακτεράδες,Οι Τρακτεράδες
http://www.wikidata.org/entity/Q11215,Windows 7,Blackcomb,Blackcomb
http://www.wikidata.org/entity/Q11215,Windows 7,Vienna,Vienna
http://www.wikidata.org/entity/Q11230,Windows Vista,Longhorn,Longhorn
http://www.wikidata.org/entity/Q11248,Windows XP,Whistler,Whistler
http://www.wikidata.org/entity/Q18513,Gateshead F.C.,The Heed,The Heed
http://www.wikidata.org/entity/Q18513,Gateshead F.C.,The Tynesiders,The Tynesiders
http://www.wikidata.org/entity/Q18515,Grimsby Town F.C.,Town,Town
http://www.wikidata.org/entity/Q18515,Grimsby Town F.C.,Mighty Mariners,Mighty Mariners
http://www.wikidata.org/entity/Q18515,Grimsby Town F.C.,The Mariners,The Mariners
http://www.wikidata.org/entity/Q18526,Stockport County F.C.,Κάουντι,Κάουντι
http://www.wikidata.org/entity/Q18526,Stockport County F.C.,Καπελλάδες,Καπελλάδες
http://www.wikidata.org/entity/Q18656,Manchester United F.C.,Οι Κόκκινοι Διάβολοι,Οι Κόκκινοι Διάβολοι
http://www.wikidata.org/entity/Q18656,Manchester United F.C.,Red devils,Red devils
http://www.wikidata.org/entity/Q9616,Chelsea F.C.,Οι Μπλε,Οι Μπλε
http://www.wikidata.org/entity/Q18708,Fulham F.C.,The Cottagers,The Cottagers
http://www.wikidata.org/entity/Q18716,Newcastle United F.C.,Οι Καρακάξες,Οι Καρακάξες
http://www.wikidata.org/entity/Q18491,Sheffield F.C.,Ο Σύλλογος,Ο Σύλλογος
http://www.wikidata.org/entity/Q18509,Cambridge United F.C.,United,United
http://www.wikidata.org/entity/Q19595,Leyton Orient F.C.,Orient,Orient
http://www.wikidata.org/entity/Q18721,Norwich City F.C.,Τα Καναρίνια,Τα Καναρίνια
http://www.wikidata.org/entity/Q33748,Hannover 96,Οι Κόκκινοι,Οι Κόκκινοι
http://www.wikidata.org/entity/Q42537,flag of the United States of America,The Star-Spangled Banner,The Star-Spangled Banner
http://www.wikidata.org/entity/Q18750,Wigan Athletic F.C.,The Latics,The Latics
http://www.wikidata.org/entity/Q48843,Accrington Stanley F.C.,Στάνλεϊ,Στάνλεϊ
http://www.wikidata.org/entity/Q48925,Bristol Rovers F.C.,Οι πειρατές,Οι πειρατές
http://www.wikidata.org/entity/Q19451,Bolton Wanderers F.C.,The Trotters,The Trotters
http://www.wikidata.org/entity/Q19473,Huddersfield Town F.C.,Οι Τεριέ,Οι Τεριέ
http://www.wikidata.org/entity/Q48947,Plymouth Argyle F.C.,Οι Προσκυνητές,Οι Προσκυνητές
http://www.wikidata.org/entity/Q51974,Hamburger SV,Οι Δεινόσαυροι,Οι Δεινόσαυροι
http://www.wikidata.org/entity/Q19481,Leicester City F.C.,Οι Αλεπούδες,Οι Αλεπούδες
http://www.wikidata.org/entity/Q19481,Leicester City F.C.,The Foxes,The Foxes
http://www.wikidata.org/entity/Q19490,Nottingham Forest F.C.,Δάσος,Δάσος
http://www.wikidata.org/entity/Q298351,A.S. Mont-Dore,Μελανέρυθροι,Μελανέρυθροι
http://www.wikidata.org/entity/Q316146,Minglanilla,Sugat Capital of the south,Sugat Capital of the south
http://www.wikidata.org/entity/Q318307,Rosario Central,Η Ακαδημία του Ροσάριο,Η Ακαδημία του Ροσάριο
http://www.wikidata.org/entity/Q318307,Rosario Central,Τα Καθάρματα,Τα Καθάρματα
http://www.wikidata.org/entity/Q19521,A.S. Saint-Étienne,Οι πράσινοι,Οι πράσινοι
http://www.wikidata.org/entity/Q19521,A.S. Saint-Étienne,Σαιντέ,Σαιντέ
http://www.wikidata.org/entity/Q19521,A.S. Saint-Étienne,Στεφανουά,Στεφανουά
http://www.wikidata.org/entity/Q368500,Bath City F.C.,The Romans,The Romans
http://www.wikidata.org/entity/Q392310,L.A.S.K. Linz,Οι Μαύροι-Λευκοί,Οι Μαύροι-Λευκοί
http://www.wikidata.org/entity/Q19523,A.S. Nancy-Lorraine,Τα Γαϊδουράγκαθα,Τα Γαϊδουράγκαθα
http://www.wikidata.org/entity/Q19573,Bury F.C.,The Shakers,The Shakers
http://www.wikidata.org/entity/Q459622,Derry City F.C.,The Candystripes,The Candystripes
http://www.wikidata.org/entity/Q481794,Amway Arena,O-rena,O-rena
http://www.wikidata.org/entity/Q496852,Thirteen,Dreizehn,Dreizehn
http://www.wikidata.org/entity/Q496852,Thirteen,Thirteen,Thirteen
http://www.wikidata.org/entity/Q573988,Leopold Bloom,Mackerel,Mackerel
http://www.wikidata.org/entity/Q573988,Leopold Bloom,Poldy,Poldy
http://www.wikidata.org/entity/Q598969,SNCF BB 16500,Danseuses,Danseuses
http://www.wikidata.org/entity/Q616488,USS Leahy,Sweet 16,Sweet 16
http://www.wikidata.org/entity/Q632805,Racing de Córdoba,Club Atlético Racing,Club Atlético Racing
http://www.wikidata.org/entity/Q643434,PFC Slavia Sofia,Οι Λευκοί,Οι Λευκοί
http://www.wikidata.org/entity/Q155730,1. FC Magdeburg,Der Club,Der Club
http://www.wikidata.org/entity/Q29390,A.C.R. Messina,Κιτρινοκόκκινοι,Κιτρινοκόκκινοι
http://www.wikidata.org/entity/Q81888,A.F.C. Ajax,Εβραίοι,Εβραίοι
http://www.wikidata.org/entity/Q653860,USS Dwight D. Eisenhower,Mighty Ike,Mighty Ike
http://www.wikidata.org/entity/Q658131,Alki Larnaca F.C.,Αθάνατη,Αθάνατη
http://www.wikidata.org/entity/Q665105,University of Delhi,DU,DU
http://www.wikidata.org/entity/Q685446,Vyzas F.C.,Κιτρινόμαυροι,Κιτρινόμαυροι
http://www.wikidata.org/entity/Q136433,PFC CSKA - Sofia,Οι κόκκινοι,Οι κόκκινοι
http://www.wikidata.org/entity/Q136433,PFC CSKA - Sofia,Οι στρατιώτες,Οι στρατιώτες
http://www.wikidata.org/entity/Q723476,FK Qarabağ,Ιππείς,Ιππείς
http://www.wikidata.org/entity/Q748913,USS Harry S. Truman,HST,HST
http://www.wikidata.org/entity/Q748913,USS Harry S. Truman,Lone Warrior,Lone Warrior
http://www.wikidata.org/entity/Q170117,FC Ingolstadt 04,Die Schanzer,Die Schanzer
http://www.wikidata.org/entity/Q170241,Tarzan,Tarzan,Tarzan
http://www.wikidata.org/entity/Q756271,4-4-2,Atlantic,Atlantic
http://www.wikidata.org/entity/Q19595,Leyton Orient F.C.,The O's,The O's
http://www.wikidata.org/entity/Q42537,flag of the United States of America,Old Glory,Old Glory
http://www.wikidata.org/entity/Q863629,Odakyu 50000 series VSE,Vault Super Express,Vault Super Express
http://www.wikidata.org/entity/Q937213,Digenis Akritas Morphou FC,Ο Φονέας των Γιγάντων,Ο Φονέας των Γιγάντων
http://www.wikidata.org/entity/Q948522,VR Class Sr2,Käkikello,Käkikello
http://www.wikidata.org/entity/Q1074233,Sasshō Line,学園都市線,学園都市線
http://www.wikidata.org/entity/Q1094295,Gold Coast Football Club,Suns,Suns
http://www.wikidata.org/entity/Q1128631,Leeds United A.F.C.,Ένωση,Ένωση
http://www.wikidata.org/entity/Q1128631,Leeds United A.F.C.,Τα Παγώνια,Τα Παγώνια
http://www.wikidata.org/entity/Q214978,Club Atlético Independiente,Κόκκινοι Διάβολοι,Κόκκινοι Διάβολοι
http://www.wikidata.org/entity/Q948522,VR Class Sr2,Marsu,Marsu
http://www.wikidata.org/entity/Q3630445,Delhi Technological University,DCE,DCE
http://www.wikidata.org/entity/Q3630445,Delhi Technological University,DELTECH,DELTECH
http://www.wikidata.org/entity/Q18168774,Windows 10,Redstone,Redstone
http://www.wikidata.org/entity/Q222837,AC Arles,ACA,ACA
http://www.wikidata.org/entity/Q222837,AC Arles,Les Lions,Les Lions
http://www.wikidata.org/entity/Q240783,AC Omonia,Οι Πράσινοι,Οι Πράσινοι
http://www.wikidata.org/entity/Q240783,AC Omonia,Ομάδα του Λαού,Ομάδα του Λαού
http://www.wikidata.org/entity/Q240783,AC Omonia,Το Τριφύλλι,Το Τριφύλλι
http://www.wikidata.org/entity/Q217132,USS George H.W. Bush,Avenger,Avenger
http://www.wikidata.org/entity/Q274486,Waseda University,Sōdai,Sōdai
http://www.wikidata.org/entity/Q274486,Waseda University,早大,早大
http://www.wikidata.org/entity/Q276644,Symphony No. 93,De Londres,De Londres
http://www.wikidata.org/entity/Q1201247,HMS Ocean (L12),The Mighty O,The Mighty O
http://www.wikidata.org/entity/Q1281284,SBB-CFF-FFS C 5/6,Elefant,Elefant
http://www.wikidata.org/entity/Q2296791,Molly Bloom,Molly,Molly
http://www.wikidata.org/entity/Q3630445,Delhi Technological University,DTU,DTU
http://www.wikidata.org/entity/Q3946354,Sam Seaborn,Princeton,Princeton
http://www.wikidata.org/entity/Q277011,Symphony No. 96,Miracle,Miracle
http://www.wikidata.org/entity/Q2442950,Max Rockatansky,Max,Max
http://www.wikidata.org/entity/Q2442950,Max Rockatansky,Mad Max,Mad Max
http://www.wikidata.org/entity/Q2521385,Richmond Football Club,Tigers,Tigers
http://www.wikidata.org/entity/Q4633619,2nd Cavalry Division,Buffalo Soldiers,Buffalo Soldiers
http://www.wikidata.org/entity/Q5634430,HMS St Albans,The Saint,The Saint
http://www.wikidata.org/entity/Q5671289,"Regimiento Reforzado n.º 17 ""Los Ángeles""",Los Ángeles,Los Ángeles
http://www.wikidata.org/entity/Q6650521,Baltimore and Ohio C-16 class,Little Joe,Little Joe
http://www.wikidata.org/entity/Q6860161,Milly Bloom,Milly,Milly
http://www.wikidata.org/entity/Q6956258,NZR WJ class,Jumbo,Jumbo
http://www.wikidata.org/entity/Q7077244,Odakyu 30000 series EXE,EXE,EXE
http://www.wikidata.org/entity/Q11251352,Seibu 5000 series,Red Arrow,Red Arrow
http://www.wikidata.org/entity/Q12857855,British Rail Class 206,Tadpole,Tadpole
http://www.wikidata.org/entity/Q15635262,Lars,Lasse,Lasse
http://www.wikidata.org/entity/Q18681044,Sarkkiranta Pesäpallo Stadium,Sininen laguuni,Sininen laguuni
http://www.wikidata.org/entity/Q20743400,"Tommy ""The Machine"" Gunn",The Machine,The Machine
http://www.wikidata.org/entity/Q26254064,Major Bill Cage,Bill,Bill
http://www.wikidata.org/entity/Q28031162,Carmen,Carmencita,Carmencita
http://www.wikidata.org/entity/Q28604153,Joseph Hynes (Ulysses character),Joe,Joe
http://www.wikidata.org/entity/Q28647151,J. J. O’Molloy (Ulysses character),Jack,Jack
http://www.wikidata.org/entity/Q16024628,Nord 2.311 to 2.380,Ravachol,Ravachol
http://www.wikidata.org/entity/Q17622535,Beatrice Prior,Tris,Tris
http://www.wikidata.org/entity/Q18168774,Windows 10,Threshold,Threshold
http://www.wikidata.org/entity/Q2579702,Jadavpur University,JU,JU
http://www.wikidata.org/entity/Q2715593,Josiah Bartlet,Eagle,Eagle
http://www.wikidata.org/entity/Q2742645,West Coast Eagles,Eagles,Eagles
http://www.wikidata.org/entity/Q2876833,SNCF 040.DF.1 later BB 60041,Brigitte,Brigitte
http://www.wikidata.org/entity/Q3061319,Princess Patricia's Canadian Light Infantry,VP,VP
http://www.wikidata.org/entity/Q3569290,Windows 8.1,Blue,Blue
http://www.wikidata.org/entity/Q83278,flag of the United Kingdom,Union Jack,Union Jack
http://www.wikidata.org/entity/Q105254,1. FSV Mainz 05,Die Nullfünfer,Die Nullfünfer
http://www.wikidata.org/entity/Q105254,1. FSV Mainz 05,Karnevalsverein,Karnevalsverein
http://www.wikidata.org/entity/Q130896,Ingjald,the Ill-ready,the Ill-ready
http://www.wikidata.org/entity/Q130896,Ingjald,the Ill-ruler,the Ill-ruler
http://www.wikidata.org/entity/Q130896,Ingjald,il Malconsigliante,il Malconsigliante
http://www.wikidata.org/entity/Q130896,Ingjald,il Malgovernante,il Malgovernante
http://www.wikidata.org/entity/Q130896,Ingjald,Illråde,Illråde
http://www.wikidata.org/entity/Q131378,APOEL F.C.,Θρύλος,Θρύλος
http://www.wikidata.org/entity/Q144190,PFC Levski Sofia,Η μπλε χιονοστιβάδα,Η μπλε χιονοστιβάδα
http://www.wikidata.org/entity/Q144190,PFC Levski Sofia,Η ομάδα του λαού,Η ομάδα του λαού
http://www.wikidata.org/entity/Q144190,PFC Levski Sofia,ΟΙ Μπλε,ΟΙ Μπλε
http://www.wikidata.org/entity/Q131499,S.L. Benfica,Glorioso,Glorioso
http://www.wikidata.org/entity/Q148659,Indiana Jones,Indy,Indy
http://www.wikidata.org/entity/Q170703,Boca Juniors,Γενοβέζοι,Γενοβέζοι
http://www.wikidata.org/entity/Q180305,A.S. Monaco F.C.,Οι κόκκινοι και άσπροι,Οι κόκκινοι και άσπροι
http://www.wikidata.org/entity/Q201197,PSFC Chernomorets Burgas,Οι καρχαρίες,Οι καρχαρίες
http://www.wikidata.org/entity/Q214663,Symphony No. 22,Filòsof,Filòsof
http://www.wikidata.org/entity/Q218074,Neftchi Baku PFC,Εθνικη Ομαδα,Εθνικη Ομαδα
http://www.wikidata.org/entity/Q218074,Neftchi Baku PFC,Ναυαρχίδα,Ναυαρχίδα
http://www.wikidata.org/entity/Q218074,Neftchi Baku PFC,Πετρελαιοεργάτες,Πετρελαιοεργάτες
http://www.wikidata.org/entity/Q221882,Newell's Old Boys,Λεπροί,Λεπροί
http://www.wikidata.org/entity/Q222877,FC Inter Turku,Κυανόμαυροι,Κυανόμαυροι
http://www.wikidata.org/entity/Q248188,Milton Keynes Dons F.C.,The Dons,The Dons
http://www.wikidata.org/entity/Q316056,Liloan,The Light of the North,The Light of the North
http://www.wikidata.org/entity/Q412502,Ajax Cape Town F.C.,Αστικοί Πολεμιστές,Αστικοί Πολεμιστές
http://www.wikidata.org/entity/Q430698,Darkseid,Бог зла,Бог зла
http://www.wikidata.org/entity/Q430698,Darkseid,Босс тёмной стороны,Босс тёмной стороны
http://www.wikidata.org/entity/Q430698,Darkseid,Тёмный лорд,Тёмный лорд
http://www.wikidata.org/entity/Q430698,Darkseid,Ужасный лорд Апоколипса,Ужасный лорд Апоколипса
http://www.wikidata.org/entity/Q460266,Curtiss NC,Nancy boat,Nancy boat
http://www.wikidata.org/entity/Q543671,Stephen Dedalus,Stevie,Stevie
http://www.wikidata.org/entity/Q587557,USS Abraham Lincoln,Abe,Abe
http://www.wikidata.org/entity/Q251090,Essendon Football Club,Bombers,Bombers
http://www.wikidata.org/entity/Q261040,Symphony No. 7,Temps de tempesta,Temps de tempesta
http://www.wikidata.org/entity/Q273781,Édifice Marie-Guyart,Complexe G,Complexe G
http://www.wikidata.org/entity/Q276994,Rifle Brigade (Prince Consort's Own),The Rifles,The Rifles
http://www.wikidata.org/entity/Q280710,HMS Invincible,Vince,Vince
http://www.wikidata.org/entity/Q290917,ADtranz DE-AC33C,Blue Tiger,Blue Tiger
http://www.wikidata.org/entity/Q315923,Compostela,Land of the Free,Land of the Free
http://www.wikidata.org/entity/Q591154,EMD DDA40X,Centennial,Centennial
http://www.wikidata.org/entity/Q597250,PFC Botev Plovdiv,Τα καναρίνια,Τα καναρίνια
http://www.wikidata.org/entity/Q604865,SNCF BB 26000,Sybic,Sybic
http://www.wikidata.org/entity/Q613901,Arthur Dent,Monkey-Man,Monkey-Man
http://www.wikidata.org/entity/Q613901,Arthur Dent,The sandwich-maker,The sandwich-maker
http://www.wikidata.org/entity/Q18511,Ebbsfleet United F.C.,Ο Στόλος,Ο Στόλος
http://www.wikidata.org/entity/Q18511,Ebbsfleet United F.C.,The Fleet,The Fleet
http://www.wikidata.org/entity/Q18661,Middlesbrough F.C.,Ομάδα,Ομάδα
http://www.wikidata.org/entity/Q649421,The White Rovers,The Rovers,The Rovers
http://www.wikidata.org/entity/Q661491,Esméralda,La Esmeralda,La Esmeralda
http://www.wikidata.org/entity/Q714581,Nea Salamis Famagusta FC,Οι Ερυθρόλευκοι,Οι Ερυθρόλευκοι
http://www.wikidata.org/entity/Q714581,Nea Salamis Famagusta FC,The Red-Whites,The Red-Whites
http://www.wikidata.org/entity/Q18732,Southampton F.C.,Οι Άγιοι,Οι Άγιοι
http://www.wikidata.org/entity/Q18736,Stoke City F.C.,The Potters,The Potters
http://www.wikidata.org/entity/Q1299,The Beatles,The Fab Four,The Fab Four
http://www.wikidata.org/entity/Q19353,FC Anzhi Makhachkala,Άγρια μεραρχία,Άγρια μεραρχία
http://www.wikidata.org/entity/Q19442,Barnsley Football Club,The Colliers,The Colliers
http://www.wikidata.org/entity/Q19442,Barnsley Football Club,The Reds,The Reds
http://www.wikidata.org/entity/Q19442,Barnsley Football Club,The Super Reds,The Super Reds
http://www.wikidata.org/entity/Q19442,Barnsley Football Club,The Tykes,The Tykes
http://www.wikidata.org/entity/Q781548,Symphony No. 43,Mercuri,Mercuri
http://www.wikidata.org/entity/Q791128,Aviron Bayonnais FC,Txuri-Urdin,Txuri-Urdin
http://www.wikidata.org/entity/Q808981,Barros Blancos,Capitán Juan Antonio Artigas,Capitán Juan Antonio Artigas
http://www.wikidata.org/entity/Q847672,HMS Ark Royal,The Mighty Ark,The Mighty Ark
http://www.wikidata.org/entity/Q1467,Cebu City,First Capital of the Philippines,First Capital of the Philippines
http://www.wikidata.org/entity/Q1467,Cebu City,Oldest City in the Philippines,Oldest City in the Philippines
http://www.wikidata.org/entity/Q1467,Cebu City,Queen City of the South,Queen City of the South
http://www.wikidata.org/entity/Q1486,Buenos Aires,"""La Ciudad De La Furia""","""La Ciudad De La Furia"""
http://www.wikidata.org/entity/Q19589,Doncaster Rovers,Donny,Donny
http://www.wikidata.org/entity/Q890769,Wembley F.C.,The Lions,The Lions
http://www.wikidata.org/entity/Q908477,Gabala FC,Ραντάρ,Ραντάρ
http://www.wikidata.org/entity/Q913540,VR Class Hr1,Ukko-Pekka,Ukko-Pekka
http://www.wikidata.org/entity/Q944436,USS Constitution,Old Ironsides,Old Ironsides
http://www.wikidata.org/entity/Q958369,Geelong Football Club,Cats,Cats
http://www.wikidata.org/entity/Q1080587,C. J. Cregg,Flamingo,Flamingo
http://www.wikidata.org/entity/Q1576868,Odakyu 3000 series SE,Super Express,Super Express
http://www.wikidata.org/entity/Q1923890,NS Class 200,sik,sik
http://www.wikidata.org/entity/Q2223341,Elizabeth Bennet,Eliza,Eliza
http://www.wikidata.org/entity/Q2223341,Elizabeth Bennet,Lizzy,Lizzy
http://www.wikidata.org/entity/Q1084121,St Kilda Football Club,Saints,Saints
http://www.wikidata.org/entity/Q1155069,IBM PCjr,Peanut,Peanut
http://www.wikidata.org/entity/Q1190608,Newt Scamander,Newt,Newt
http://www.wikidata.org/entity/Q1510813,South Melbourne Football Club,Ελλάς,Ελλάς
http://www.wikidata.org/entity/Q19446,Blackburn Rovers F.C.,Rovers,Rovers
http://www.wikidata.org/entity/Q19446,Blackburn Rovers F.C.,The Blue and Whites,The Blue and Whites
http://www.wikidata.org/entity/Q19446,Blackburn Rovers F.C.,The Riversiders,The Riversiders
http://www.wikidata.org/entity/Q2289535,Rocky Balboa,Rocky,Rocky
http://www.wikidata.org/entity/Q2332510,45th Infantry Division,Thunderbird,Thunderbird
http://www.wikidata.org/entity/Q2272176,Sydney Swans,Swans,Swans
http://www.wikidata.org/entity/Q1543,A.C. Milan,Kατσαβίδια,Kατσαβίδια
http://www.wikidata.org/entity/Q1543,A.C. Milan,Ο Διάβολος,Ο Διάβολος
http://www.wikidata.org/entity/Q1543,A.C. Milan,Στο τραμ,Στο τραμ
http://www.wikidata.org/entity/Q1543,A.C. Milan,Κοκκινόμαυροι,Κοκκινόμαυροι
http://www.wikidata.org/entity/Q2429503,Cork GAA,The Blood and Bandage,The Blood and Bandage
http://www.wikidata.org/entity/Q2429503,Cork GAA,The Leesiders,The Leesiders
http://www.wikidata.org/entity/Q2429503,Cork GAA,The Rebels,The Rebels
http://www.wikidata.org/entity/Q48954,York City F.C.,The Minstermen,The Minstermen
http://www.wikidata.org/entity/Q48929,Burton Albion F.C.,Brewers,Brewers
http://www.wikidata.org/entity/Q37836,Milwaukee,Cream City,Cream City
http://www.wikidata.org/entity/Q18509,Cambridge United F.C.,The U's,The U's
http://www.wikidata.org/entity/Q19628,Olympiacos F.C.,Ερυθρόλευκοι,Ερυθρόλευκοι
http://www.wikidata.org/entity/Q19637,Tranmere Rovers F.C.,Super White Army,Super White Army
http://www.wikidata.org/entity/Q48951,Southend United F.C.,Οι Παράλιοι,Οι Παράλιοι
http://www.wikidata.org/entity/Q48951,Southend United F.C.,Τα Γαριδάδικα,Τα Γαριδάδικα
http://www.wikidata.org/entity/Q131378,APOEL F.C.,Οι Γαλαζοκίτρινοι,Οι Γαλαζοκίτρινοι
http://www.wikidata.org/entity/Q131499,S.L. Benfica,Águias,Águias
http://www.wikidata.org/entity/Q131499,S.L. Benfica,Encarnados,Encarnados
http://www.wikidata.org/entity/Q201584,A.E.K. Athens F.C.,Δικέφαλος,Δικέφαλος
http://www.wikidata.org/entity/Q276994,Rifle Brigade (Prince Consort's Own),The Grasshoppers,The Grasshoppers
http://www.wikidata.org/entity/Q276994,Rifle Brigade (Prince Consort's Own),The Sweeps,The Sweeps
http://www.wikidata.org/entity/Q543671,Stephen Dedalus,Kinch,Kinch
http://www.wikidata.org/entity/Q543671,Stephen Dedalus,Wandering Ængus,Wandering Ængus
http://www.wikidata.org/entity/Q2738554,Port Adelaide Football Club,Magpies,Magpies
http://www.wikidata.org/entity/Q5364719,Tobu 100 series,Spacia,Spacia
http://www.wikidata.org/entity/Q11251352,Seibu 5000 series,レッドアロー,レッドアロー
http://www.wikidata.org/entity/Q17003965,Clair Brothers,Clair Global,Clair Global
http://www.wikidata.org/entity/Q737753,Club Universidad de Chile,Η Κουκουβάγια,Η Κουκουβάγια
http://www.wikidata.org/entity/Q862218,JS Kabylie,Τα λιοντάρια,Τα λιοντάρια
http://www.wikidata.org/entity/Q948522,VR Class Sr2,Alppiruusu,Alppiruusu
http://www.wikidata.org/entity/Q948522,VR Class Sr2,Möhkö,Möhkö
http://www.wikidata.org/entity/Q2579702,Jadavpur University,যদুপুর,যদুপুর
http://www.wikidata.org/entity/Q2922252,Dodo beer,Dodo,Dodo
http://www.wikidata.org/entity/Q2931172,"SNCF 060.GA, later CC 80000",Belphégor,Belphégor
http://www.wikidata.org/entity/Q2988692,Eddie Dean,The Prisoner,The Prisoner
http://www.wikidata.org/entity/Q3062628,Symphony No. 5,Di tre re,Di tre re
http://www.wikidata.org/entity/Q3644407,Botafogo,Botafogo,Botafogo
http://www.wikidata.org/entity/Q3873395,Her Majesty's Naval Service,Senior Service,Senior Service
http://www.wikidata.org/entity/Q4119600,Greater Western Sydney Football Club,Giants,Giants
http://www.wikidata.org/entity/Q4548316,123d Fighter Squadron,Redhawks,Redhawks
http://www.wikidata.org/entity/Q4904095,Bideford A.F.C.,The Robins,The Robins
http://www.wikidata.org/entity/Q4908972,Fredrikinkatu,Freda,Freda
http://www.wikidata.org/entity/Q4942521,Bonnyrigg Rose Athletic F.C.,The Rose,The Rose
http://www.wikidata.org/entity/Q4982905,Buck Mulligan,Buck,Buck
http://www.wikidata.org/entity/Q5088071,Chaudhary Charan Singh Haryana Agricultural University,HAU,HAU
http://www.wikidata.org/entity/Q5088072,Chaudhary Charan Singh University,CCSU,CCSU
http://www.wikidata.org/entity/Q2448527,USS Portland,Sweet Pea,Sweet Pea
http://www.wikidata.org/entity/Q2549837,Warrington Wolves,The Wire,The Wire
http://www.wikidata.org/entity/Q2596468,Northwest Africa 7034,Black Beauty,Black Beauty
http://www.wikidata.org/entity/Q2630009,Captain Ahab,Old Thunder,Old Thunder
http://www.wikidata.org/entity/Q2736412,North Melbourne Football Club,Kangaroos,Kangaroos
http://www.wikidata.org/entity/Q2738554,Port Adelaide Football Club,Power,Power
http://www.wikidata.org/entity/Q2806502,Ouest 3501 to 3530,Boers,Boers
http://www.wikidata.org/entity/Q2807695,PLM 971 to 999,Les Bossues,Les Bossues
http://www.wikidata.org/entity/Q2815063,État 231-011 to 231-060,Dieppoises,Dieppoises
http://www.wikidata.org/entity/Q2815073,Nord 3.801 to 3.865,Bleriot,Bleriot
http://www.wikidata.org/entity/Q2815076,SNCF 232.U.1,La Divine,La Divine
http://www.wikidata.org/entity/Q2890575,Geva Binyamin,Adam,Adam
http://www.wikidata.org/entity/Q5364719,Tobu 100 series,スペーシア,スペーシア
http://www.wikidata.org/entity/Q5513223,GER Class R24,buckjumpers,buckjumpers
http://www.wikidata.org/entity/Q5630222,HM-19,Goldenbears,Goldenbears
http://www.wikidata.org/entity/Q5635893,HSC-3,Merlins,Merlins
http://www.wikidata.org/entity/Q5684660,Specialist Firearms Command,blue berets,blue berets
http://www.wikidata.org/entity/Q5946339,Huracán Corrientes,"El Globito, Malos perdedores.","El Globito, Malos perdedores."
http://www.wikidata.org/entity/Q6091412,Puente de Piedra,Puente de Piedra,Puente de Piedra
http://www.wikidata.org/entity/Q6459158,LMS Stanier Class 5 4-6-0,Black Five,Black Five
http://www.wikidata.org/entity/Q6842398,Midland Railway 115 Class,Spinner,Spinner
http://www.wikidata.org/entity/Q7145996,"Patrick ""Paddy"" Dignam",Paddy,Paddy
http://www.wikidata.org/entity/Q7419496,Santa Fe 5000,Madam Queen,Madam Queen
http://www.wikidata.org/entity/Q7446598,Seibu 30000 series,Smile Train,Smile Train
http://www.wikidata.org/entity/Q7449482,Seminex,Seminex,Seminex
http://www.wikidata.org/entity/Q7571859,Sowdeswari Vidyalaya Coimbatore,ssv,ssv
http://www.wikidata.org/entity/Q7979260,Wee-Bey Brice,Wee-Bey,Wee-Bey
http://www.wikidata.org/entity/Q21980971,American Public University,APU,APU
http://www.wikidata.org/entity/Q21980979,American Military University,AMU,AMU
http://www.wikidata.org/entity/Q22222608,January 2016 United States winter storm,Snowzilla,Snowzilla
http://www.wikidata.org/entity/Q24027972,Skye,Skye,Skye
http://www.wikidata.org/entity/Q26254071,Rita Vrataski,Angel of Verdun,Angel of Verdun
http://www.wikidata.org/entity/Q26254071,Rita Vrataski,Full Metal Bitch,Full Metal Bitch
http://www.wikidata.org/entity/Q26990324,Nikkia Bell,Nikki,Nikki
http://www.wikidata.org/entity/Q27925259,Porpentina Goldstein,Tina,Tina
http://www.wikidata.org/entity/Q28114642,William Carmichael,Bill Carmichael,Bill Carmichael
http://www.wikidata.org/entity/Q28496203,Club Sportif Clodoaldien,La Clodo,La Clodo
http://www.wikidata.org/entity/Q28647928,"Rudolph ""Rudy"" Bloom",Rudy,Rudy
http://www.wikidata.org/entity/Q28719780,Nasty Roche,Nasty,Nasty
http://www.wikidata.org/entity/Q28792159,Heike Schäffer,Muschi,Muschi
http://www.wikidata.org/entity/Q9023467,FCNEA 11 Yatay,Yatay,Yatay
http://www.wikidata.org/entity/Q11900361,Vanhala,Ylen Sankia Priha,Ylen Sankia Priha
http://www.wikidata.org/entity/Q12809147,David Mason,Section,Section
http://www.wikidata.org/entity/Q12872680,A.E. Irakleio F.C,Νερατζούροι,Νερατζούροι
http://www.wikidata.org/entity/Q13232631,Harold Finch,Harry,Harry
http://www.wikidata.org/entity/Q13423016,"1st Battalion, 120th Field Artillery Regiment",Red Fox,Red Fox
http://www.wikidata.org/entity/Q16024630,Nord 2.231 to 2.305,revolver,revolver
http://www.wikidata.org/entity/Q16530683,BB Alsthom,danseuses,danseuses
http://www.wikidata.org/entity/Q16997462,Mayweather vs. Pacquiao,Le combat du siècle,Le combat du siècle
http://www.wikidata.org/entity/Q17003965,Clair Brothers,Clair,Clair
http://www.wikidata.org/entity/Q18416096,El ataque de Uchumayo,La Salaverrina,La Salaverrina
http://www.wikidata.org/entity/Q18552485,"Dominick Carisi, Jr.",Sonny,Sonny
http://www.wikidata.org/entity/Q18679878,Tale Taalasmaa,Tale,Tale
http://www.wikidata.org/entity/Q19816987,Catherine Bennet,Kitty,Kitty
http://www.wikidata.org/entity/Q21480646,Fish Mooney,Fish,Fish
http://www.wikidata.org/entity/Q73996,KF Skënderbeu Korçë,Λύκοι του χιονιού,Λύκοι του χιονιού
http://www.wikidata.org/entity/Q121688,flag of Spain,rojigualda,rojigualda
http://www.wikidata.org/entity/Q128024,Club Bolívar,Η Ακαδημία,Η Ακαδημία
http://www.wikidata.org/entity/Q128429,Vampirella,Vampi,Vampi
http://www.wikidata.org/entity/Q131209,FK Austria Wien,Οι Βιολετί,Οι Βιολετί
http://www.wikidata.org/entity/Q131215,SK Rapid Wien,Οι λευκοπράσινοι,Οι λευκοπράσινοι
http://www.wikidata.org/entity/Q141688,Anorthosis Famagusta FC,Μεγάλη Κυρία,Μεγάλη Κυρία
http://www.wikidata.org/entity/Q141688,Anorthosis Famagusta FC,Οι Κυανόλευκοι,Οι Κυανόλευκοι
http://www.wikidata.org/entity/Q141971,1. FC Union Berlin,Eiserne,Eiserne
http://www.wikidata.org/entity/Q141971,1. FC Union Berlin,The Iron Ones,The Iron Ones
http://www.wikidata.org/entity/Q160236,Metropolitan Museum of Art,the Met,the Met
http://www.wikidata.org/entity/Q164779,Symphony No. 100,Militar,Militar
http://www.wikidata.org/entity/Q182876,A.J. Auxerre,AJA,AJA
http://www.wikidata.org/entity/Q194135,"Miles ""Tails"" Prower",Tails,Tails
http://www.wikidata.org/entity/Q204888,P.A.O.K. Thessaloniki F.C.,Ασπρόμαυροι,Ασπρόμαυροι
http://www.wikidata.org/entity/Q204888,P.A.O.K. Thessaloniki F.C.,Δικέφαλος του Βορρά,Δικέφαλος του Βορρά
http://www.wikidata.org/entity/Q968667,USS Maryland,Fighting Mary,Fighting Mary
http://www.wikidata.org/entity/Q1050858,Hughes OH-6 Cayuse,Loach,Loach
http://www.wikidata.org/entity/Q1124841,PFC Lokomotiv Plovdiv,Τα Στρουμφάκια,Τα Στρουμφάκια
http://www.wikidata.org/entity/Q1129569,USS Cleveland,Charlie Love Five Five,Charlie Love Five Five
http://www.wikidata.org/entity/Q1141754,HMS Illustrious,Lusty,Lusty
http://www.wikidata.org/entity/Q1237181,Civic Arena,The Igloo,The Igloo
http://www.wikidata.org/entity/Q1339086,PFC Ludogorets Razgrad,Οι αετοί,Οι αετοί
http://www.wikidata.org/entity/Q1383582,Kastoria F.C.,Γουναράδες,Γουναράδες
http://www.wikidata.org/entity/Q1386854,FC Andorra,Οι Τρίχρωμοι,Οι Τρίχρωμοι
http://www.wikidata.org/entity/Q207373,Colo-Colo,Οι Δημοφιλείς,Οι Δημοφιλείς
http://www.wikidata.org/entity/Q210170,KF Tirana,Κυανόλευκοι,Κυανόλευκοι
http://www.wikidata.org/entity/Q215163,C.A. Vélez Sarsfield,Το οχυρό,Το οχυρό
http://www.wikidata.org/entity/Q220621,A.A. Argentinos Juniors,Κόκκινοι Κοριοί,Κόκκινοι Κοριοί
http://www.wikidata.org/entity/Q221695,Grêmio Foot-Ball Porto Alegrense,Αθάνατη Τρίχρωμη,Αθάνατη Τρίχρωμη
http://www.wikidata.org/entity/Q221940,K.S.C. Lokeren Oost-Vlaanderen,Οι τρίχρωμοι,Οι τρίχρωμοι
http://www.wikidata.org/entity/Q1418905,Royal Engineers A.F.C.,Σκαπανείς,Σκαπανείς
http://www.wikidata.org/entity/Q1456701,Kuopio Ice Hall,Niiralan monttu,Niiralan monttu
http://www.wikidata.org/entity/Q1566255,New Statesman,The Staggers,The Staggers
http://www.wikidata.org/entity/Q1573672,S.L. Benfica,Águias de Luanda,Águias de Luanda
http://www.wikidata.org/entity/Q1575297,USS Washington (BB-56),Mighty W,Mighty W
http://www.wikidata.org/entity/Q2071241,"February 5–6, 2010 North American blizzard",Snowmageddon,Snowmageddon
http://www.wikidata.org/entity/Q2300305,Aldershot F.C.,The Shots,The Shots
http://www.wikidata.org/entity/Q248182,Zündapp KS 601,Der Grüne Elefant,Der Grüne Elefant
http://www.wikidata.org/entity/Q260830,7th Armoured Division,The Desert Rats,The Desert Rats
http://www.wikidata.org/entity/Q270051,A.C. Ajaccio,Η αρκούδα,Η αρκούδα
http://www.wikidata.org/entity/Q270420,PFC Litex Lovech,Οι Πορτοκαλιοί,Οι Πορτοκαλιοί
http://www.wikidata.org/entity/Q2305526,Western Bulldogs,Bulldogs,Bulldogs
http://www.wikidata.org/entity/Q2340211,Jamia Millia Islamia,جامعہ,جامعہ
http://www.wikidata.org/entity/Q2374967,NS 20,Kameel,Kameel
http://www.wikidata.org/entity/Q2410463,USS Idaho,The Big Spud,The Big Spud
http://www.wikidata.org/entity/Q2426022,Achilles'29,Οι Ασπρόμαυροι,Οι Ασπρόμαυροι
http://www.wikidata.org/entity/Q2569908,Omonia Aradippou,Τα περιστέρια,Τα περιστέρια
http://www.wikidata.org/entity/Q2746795,Guru Gobind Singh Indraprastha University,GGSIPU,GGSIPU
http://www.wikidata.org/entity/Q2807521,Nord 3.101,la Baleine,la Baleine
http://www.wikidata.org/entity/Q2807697,État 140-501 to 600 and 1001 to 1045,les bossues,les bossues
http://www.wikidata.org/entity/Q2814923,PLM C.61 to C.180,Grosses C,Grosses C
http://www.wikidata.org/entity/Q2815042,Nord 3.1201 to 3.1290,Super Pacific,Super Pacific
http://www.wikidata.org/entity/Q9616,Chelsea F.C.,Οι Συνταξιούχοι,Οι Συνταξιούχοι
http://www.wikidata.org/entity/Q291471,AEL Limassol FC,Οι Λέοντες,Οι Λέοντες
http://www.wikidata.org/entity/Q315754,Balamban,Ship building capital of the Philippines,Ship building capital of the Philippines
http://www.wikidata.org/entity/Q286490,Al-Masry Club,Οι πράσινοι αετοί,Οι πράσινοι αετοί
http://www.wikidata.org/entity/Q324589,C.A. Lanús,Οι καστανέρυθροι,Οι καστανέρυθροι
http://www.wikidata.org/entity/Q324589,C.A. Lanús,Garnet Grana,Garnet Grana
http://www.wikidata.org/entity/Q324589,C.A. Lanús,Granate Grana,Granate Grana
http://www.wikidata.org/entity/Q37836,Milwaukee,Brew City,Brew City
http://www.wikidata.org/entity/Q37836,Milwaukee,Mil Town,Mil Town
http://www.wikidata.org/entity/Q2815924,2nd Dragoon Regiment,Condé Dragons,Condé Dragons
http://www.wikidata.org/entity/Q3272950,MD Helicopters MH-6 Little Bird,Killer Egg,Killer Egg
http://www.wikidata.org/entity/Q3307596,British Rail Class 121,Bubble car,Bubble car
http://www.wikidata.org/entity/Q3566057,Kalloni F.C.,Σαρδέλες,Σαρδέλες
http://www.wikidata.org/entity/Q3589862,Scotland national rugby league team,The Bravehearts,The Bravehearts
http://www.wikidata.org/entity/Q3597958,1st King's Dragoon Guards,Bland Dragoons,Bland Dragoons
http://www.wikidata.org/entity/Q3597958,1st King's Dragoon Guards,The Kings Dancing Girls,The Kings Dancing Girls
http://www.wikidata.org/entity/Q3836151,RA class 500,Mucca,Mucca
http://www.wikidata.org/entity/Q4245563,Queensland Lions FC,Τα Λιοντάρια,Τα Λιοντάρια
http://www.wikidata.org/entity/Q4827404,Avadh University,RMLAU,RMLAU
http://www.wikidata.org/entity/Q26037303,BELC,Rue Lhomond,Rue Lhomond
http://www.wikidata.org/entity/Q26972753,Australian national quidditch team,Australian Dropbears,Australian Dropbears
http://www.wikidata.org/entity/Q28018403,SNOtone,SNOtone Records,SNOtone Records
http://www.wikidata.org/entity/Q28495645,Gros-Caillou Sportif,Le Gros Pav',Le Gros Pav'
http://www.wikidata.org/entity/Q327172,C.A. Huracán,Αερόστατα,Αερόστατα
http://www.wikidata.org/entity/Q330517,Flag of California,Bear Flag Revolt,Bear Flag Revolt
http://www.wikidata.org/entity/Q332702,FC Ararat Yerevan,Λευκοί Αετοί,Λευκοί Αετοί
http://www.wikidata.org/entity/Q81888,A.F.C. Ajax,Γιοι των θεών,Γιοι των θεών
http://www.wikidata.org/entity/Q4970674,British Rail 18000,Kerosene Castle,Kerosene Castle
http://www.wikidata.org/entity/Q4970722,British Rail Class 122,Bubble cars,Bubble cars
http://www.wikidata.org/entity/Q4997729,Bunk Moreland,The Bunk,The Bunk
http://www.wikidata.org/entity/Q5513017,GCR Class 11F,Improved Director class,Improved Director class
http://www.wikidata.org/entity/Q5630223,HM-15,Blackhawks,Blackhawks
http://www.wikidata.org/entity/Q6084741,José Fuentes Mares National Prize for Literature,José Fuentes Mares,José Fuentes Mares
http://www.wikidata.org/entity/Q6167945,Jaypee Institute of Information Technology,JIIT,JIIT
http://www.wikidata.org/entity/Q6167953,Jaypee University of Information Technology,JUIT,JUIT
http://www.wikidata.org/entity/Q6207837,Jodhpur National University,JNU,JNU
http://www.wikidata.org/entity/Q7077239,Odakyu 10000 series HiSE,High Super Express,High Super Express
http://www.wikidata.org/entity/Q7077246,Odakyu 3100 series NSE,New Super Express,New Super Express
http://www.wikidata.org/entity/Q7109668,Otto Karhi Park,Letkunpuisto,Letkunpuisto
http://www.wikidata.org/entity/Q7474100,city hall of The Hague,IJspaleis,IJspaleis
http://www.wikidata.org/entity/Q7810555,Tião,killer dolphin,killer dolphin
http://www.wikidata.org/entity/Q7868685,USS Curts (FFG-38),.38 Special,.38 Special
http://www.wikidata.org/entity/Q7894637,University of St Mark & St John,Marjon,Marjon
http://www.wikidata.org/entity/Q10317241,Lennie Briscoe,Lennie Briscoe,Lennie Briscoe
http://www.wikidata.org/entity/Q7446598,Seibu 30000 series,スマイルトレイン,スマイルトレイン
http://www.wikidata.org/entity/Q22222608,January 2016 United States winter storm,霸王寒流,霸王寒流
http://www.wikidata.org/entity/Q22222608,January 2016 United States winter storm,霸王寒潮,霸王寒潮
http://www.wikidata.org/entity/Q428047,Apollon Limassol,Οι Γαλανόλευκοι,Οι Γαλανόλευκοι
http://www.wikidata.org/entity/Q496852,Thirteen,Trinástka,Trinástka
http://www.wikidata.org/entity/Q2340211,Jamia Millia Islamia,Jamia,Jamia
http://www.wikidata.org/entity/Q2715593,Josiah Bartlet,Jed Bartlet,Jed Bartlet
http://www.wikidata.org/entity/Q3061319,Princess Patricia's Canadian Light Infantry,Princess Pat's,Princess Pat's
http://www.wikidata.org/entity/Q3061319,Princess Patricia's Canadian Light Infantry,The Patricias,The Patricias
http://www.wikidata.org/entity/Q3061319,Princess Patricia's Canadian Light Infantry,The Pats,The Pats
http://www.wikidata.org/entity/Q3061319,Princess Patricia's Canadian Light Infantry,The Picklies,The Picklies
http://www.wikidata.org/entity/Q11595658,Akita Prefectural Road Route 2,樹海ライン,樹海ライン
http://www.wikidata.org/entity/Q11628862,Seibu 8500 series,Leo Liner,Leo Liner
http://www.wikidata.org/entity/Q11628862,Seibu 8500 series,レオライナー,レオライナー
http://www.wikidata.org/entity/Q11886086,Oulu YMCA,Ynni,Ynni
http://www.wikidata.org/entity/Q11889110,Puolivälinkangas,Puokkari,Puokkari
http://www.wikidata.org/entity/Q16024267,Nord 4.2016 to 4.2095,Grosse Julie,Grosse Julie
http://www.wikidata.org/entity/Q16739946,"Josephine ""Josie"" Powell Breen",Josie,Josie
http://www.wikidata.org/entity/Q18175578,Belgian State Railways type 23,cuisinières,cuisinières
http://www.wikidata.org/entity/Q18694402,VR Class Vr2,Ankka,Ankka
http://www.wikidata.org/entity/Q19281203,Maconka,A világ közepe,A világ közepe
http://www.wikidata.org/entity/Q19935896,Pilatus PC-9M,Hudournik,Hudournik
http://www.wikidata.org/entity/Q20073969,Regimiento de Caballería Acorazado Montesa N.º 3,Montesa,Montesa
http://www.wikidata.org/entity/Q22680662,Indian Institute of Art and Design,IIAD,IIAD
http://www.wikidata.org/entity/Q22815752,Lawrence Weaver,Larry Weaver,Larry Weaver
http://www.wikidata.org/entity/Q22979334,Afghanistan Technical Vocational Institute,atvi,atvi
http://www.wikidata.org/entity/Q23895040,Jim Rhodes / War Machine,Rhodey,Rhodey
http://www.wikidata.org/entity/Q24062083,Vic Faison,The Fruit Fly Guy,The Fruit Fly Guy
http://www.wikidata.org/entity/Q367788,Aris Limassol F.C.,Ελαφρά Ταξιαρχία,Ελαφρά Ταξιαρχία
http://www.wikidata.org/entity/Q378890,Ermis Aradippou FC,Ο Φτεροπόδαροι,Ο Φτεροπόδαροι
http://www.wikidata.org/entity/Q405197,Loboc,Music Capital of Bohol,Music Capital of Bohol
http://www.wikidata.org/entity/Q455760,Amatitlán,La ciudad del sueño dorado,La ciudad del sueño dorado
http://www.wikidata.org/entity/Q487654,Paris–Nice,La course au soleil,La course au soleil
http://www.wikidata.org/entity/Q511538,Symphony No. 9,La Gran,La Gran
http://www.wikidata.org/entity/Q553732,Airbus UK Broughton F.C.,The Wingmakers,The Wingmakers
http://www.wikidata.org/entity/Q749996,Koskenkorva Viina,Kossu,Kossu
http://www.wikidata.org/entity/Q812260,Bavarian PtL 2/2,Glaskasten,Glaskasten
http://www.wikidata.org/entity/Q845137,Angers SCO,le SCO,le SCO
http://www.wikidata.org/entity/Q845137,Angers SCO,le Sporting,le Sporting
http://www.wikidata.org/entity/Q845137,Angers SCO,les Scoïstes,les Scoïstes
http://www.wikidata.org/entity/Q574903,Lapu-Lapu,Historic Resort City,Historic Resort City
http://www.wikidata.org/entity/Q646842,American Public University System,APUS,APUS
http://www.wikidata.org/entity/Q651383,Symphony No. 8,Inacabada,Inacabada
http://www.wikidata.org/entity/Q693487,Puerto Plata Province,la novia del Atlántico,la novia del Atlántico
http://www.wikidata.org/entity/Q739882,Glock,Drastic Plastic,Drastic Plastic
http://www.wikidata.org/entity/Q847499,1. FC Slovácko,Γενναίοι Σλοβάκοι,Γενναίοι Σλοβάκοι
http://www.wikidata.org/entity/Q853053,Chacarita Juniors,Νεκροθάφτες,Νεκροθάφτες
http://www.wikidata.org/entity/Q853053,Chacarita Juniors,Τρίχρωμοι,Τρίχρωμοι
http://www.wikidata.org/entity/Q913583,Flags of the Confederate States of America,The Stars and Bars,The Stars and Bars
http://www.wikidata.org/entity/Q921585,via Veneto,Via Veneto,Via Veneto
http://www.wikidata.org/entity/Q73,IRC,irkki,irkki
http://www.wikidata.org/entity/Q1563,Havana,Ciutat de les columnes,Ciutat de les columnes
http://www.wikidata.org/entity/Q18232,K.A.A. Gent,Τα Βουβάλια,Τα Βουβάλια
http://www.wikidata.org/entity/Q18478,Leek Town F.C.,Οι μπλε,Οι μπλε
http://www.wikidata.org/entity/Q18520,Luton Town F.C.,The Ηatters,The Ηatters
http://www.wikidata.org/entity/Q18527,Tamworth F.C.,Τα Πρόβατα,Τα Πρόβατα
http://www.wikidata.org/entity/Q18723,Queens Park Rangers F.C.,The Hoops,The Hoops
http://www.wikidata.org/entity/Q18723,Queens Park Rangers F.C.,The Rs,The Rs
http://www.wikidata.org/entity/Q2338,1st Cavalry Division,First Team,First Team
http://www.wikidata.org/entity/Q2714,Watford Football Club,Οι Σφήκες,Οι Σφήκες
http://www.wikidata.org/entity/Q18711,Aston Villa F.C.,Οι Χωριάτες,Οι Χωριάτες
http://www.wikidata.org/entity/Q8687,Athletic Club,Los Leones,Los Leones
http://www.wikidata.org/entity/Q8687,Athletic Club,Rojiblancos,Rojiblancos
http://www.wikidata.org/entity/Q18741,Tottenham Hotspur F.C.,Πετεινοί,Πετεινοί
http://www.wikidata.org/entity/Q18741,Tottenham Hotspur F.C.,Τα Κρίνα,Τα Κρίνα
http://www.wikidata.org/entity/Q5794,Everton F.C.,Τα Ζαχαρωτά,Τα Ζαχαρωτά
http://www.wikidata.org/entity/Q18739,Sunderland A.F.C.,Οι Μαυρόγατες,Οι Μαυρόγατες
http://www.wikidata.org/entity/Q18747,West Ham United F.C.,Τα Σφυριά,Τα Σφυριά
http://www.wikidata.org/entity/Q19449,Blackpool F.C.,The Seasiders,The Seasiders
http://www.wikidata.org/entity/Q19449,Blackpool F.C.,The 'Pool,The 'Pool
http://www.wikidata.org/entity/Q19449,Blackpool F.C.,The Tangerines,The Tangerines
http://www.wikidata.org/entity/Q9408,Barnet Football Club,Οι μέλισσες,Οι μέλισσες
http://www.wikidata.org/entity/Q15799,Club Atlético River Plate,Η Λωρίδα,Η Λωρίδα
http://www.wikidata.org/entity/Q15799,Club Atlético River Plate,Οι Εκατομυριούχοι,Οι Εκατομυριούχοι
http://www.wikidata.org/entity/Q19453,Brighton & Hove Albion F.C.,Οι γλάροι,Οι γλάροι
http://www.wikidata.org/entity/Q81635,KF Teuta Durrës,Παιδιά της θάλασσας,Παιδιά της θάλασσας
http://www.wikidata.org/entity/Q214940,Club Estudiante del grado de urgencia,Οι Ποντικοσφάχτες,Οι Ποντικοσφάχτες
http://www.wikidata.org/entity/Q221602,AIK Fotboll,Τρωκτικά,Τρωκτικά
http://www.wikidata.org/entity/Q235475,Ikurriña,Ikurriña,Ikurriña
http://www.wikidata.org/entity/Q235475,Ikurriña,Ikurrina,Ikurrina
http://www.wikidata.org/entity/Q90,Paris,Ville-Lumière,Ville-Lumière
http://www.wikidata.org/entity/Q19456,Bristol City F.C.,Οι Ρόμπινς,Οι Ρόμπινς
http://www.wikidata.org/entity/Q19458,Burnley F.C.,The Clarets,The Clarets
http://www.wikidata.org/entity/Q261062,Symphony No. 7,El Migdia,El Migdia
http://www.wikidata.org/entity/Q291447,AEK Larnaca F.C.,Οι Κιτρινοπράσινοι,Οι Κιτρινοπράσινοι
http://www.wikidata.org/entity/Q19462,Charlton Athletic F.C.,The Valiants,The Valiants
http://www.wikidata.org/entity/Q19462,Charlton Athletic F.C.,Red Robins,Red Robins
http://www.wikidata.org/entity/Q19462,Charlton Athletic F.C.,The Addicks,The Addicks
http://www.wikidata.org/entity/Q19467,Crystal Palace F.C.,Οι Αετοί,Οι Αετοί
http://www.wikidata.org/entity/Q19470,Derby County F.C.,Τα Κριάρια,Τα Κριάρια
http://www.wikidata.org/entity/Q1059484,ES Sétif,Οι Μαύροι Αετοί,Οι Μαύροι Αετοί
http://www.wikidata.org/entity/Q1103684,Everton de Viña del Mar,Παίκτες ρουλέτας,Παίκτες ρουλέτας
http://www.wikidata.org/entity/Q1140145,Yeading F.C.,The Ding,The Ding
http://www.wikidata.org/entity/Q1191704,French fiscal package of 2007,paquet fiscal,paquet fiscal
http://www.wikidata.org/entity/Q1340951,Royal Regiment of Fusiliers,Lord Wellington's Bodyguards,Lord Wellington's Bodyguards
http://www.wikidata.org/entity/Q1340951,Royal Regiment of Fusiliers,The Old and the Bold,The Old and the Bold
http://www.wikidata.org/entity/Q1340951,Royal Regiment of Fusiliers,The Shiners,The Shiners
http://www.wikidata.org/entity/Q506224,Società Polisportiva Tre Fiori,Φανατικοί,Φανατικοί
http://www.wikidata.org/entity/Q674350,Kőbánya-Kispest,KöKi,KöKi
http://www.wikidata.org/entity/Q733730,Mickey Smith,Mickey-Maus,Mickey-Maus
http://www.wikidata.org/entity/Q775966,Quilmes Atletic Club,Ζυθοποιοί,Ζυθοποιοί
http://www.wikidata.org/entity/Q886048,Blues and Royals,The Tin Bellies,The Tin Bellies
http://www.wikidata.org/entity/Q917189,Host-based intrusion detection system,Host-based intrusion prevention system,Host-based intrusion prevention system
http://www.wikidata.org/entity/Q2739,A.S. Roma,Η Μαγική,Η Μαγική
http://www.wikidata.org/entity/Q2739,A.S. Roma,Οι Κιτρινοκόκκινοι,Οι Κιτρινοκόκκινοι
http://www.wikidata.org/entity/Q2739,A.S. Roma,Οι λύκοι,Οι λύκοι
http://www.wikidata.org/entity/Q300463,A London Symphony,Simfonia de Londres,Simfonia de Londres
http://www.wikidata.org/entity/Q316197,Naga,The Industrial Hub of Southern Cebu,The Industrial Hub of Southern Cebu
http://www.wikidata.org/entity/Q463147,America Football Club,Οι Διάβολοι,Οι Διάβολοι
http://www.wikidata.org/entity/Q487238,Republic of Korea Marine Corps,귀신잡는 해병대,귀신잡는 해병대
http://www.wikidata.org/entity/Q487238,Republic of Korea Marine Corps,무적 해병,무적 해병
http://www.wikidata.org/entity/Q498639,Wenduine,prinses der badsteden,prinses der badsteden
http://www.wikidata.org/entity/Q19498,Sheffield Wednesday F.C.,Οι Κουκουβάγιες,Οι Κουκουβάγιες
http://www.wikidata.org/entity/Q19592,Hartlepool United F.C.,Οι Μαϊμούδες,Οι Μαϊμούδες
http://www.wikidata.org/entity/Q19592,Hartlepool United F.C.,Οι Πισίνες,Οι Πισίνες
http://www.wikidata.org/entity/Q1671976,PocketZip,Clik!,Clik!
http://www.wikidata.org/entity/Q1755789,The New Church,Swedenborgianism,Swedenborgianism
http://www.wikidata.org/entity/Q1777894,Life Guards,Donkey Wallopers,Donkey Wallopers
http://www.wikidata.org/entity/Q1777894,Life Guards,Piccadilly Butchers,Piccadilly Butchers
http://www.wikidata.org/entity/Q1777894,Life Guards,Piccadilly Cowboys,Piccadilly Cowboys
http://www.wikidata.org/entity/Q1777894,Life Guards,Tinned Fruit,Tinned Fruit
http://www.wikidata.org/entity/Q1777894,Life Guards,Tins,Tins
http://www.wikidata.org/entity/Q2013030,Jim Halpert,Big Tuna,Big Tuna
http://www.wikidata.org/entity/Q2124104,C.S. Visé,Οι χήνες,Οι χήνες
http://www.wikidata.org/entity/Q19612,Preston North End F.C.,The Invincibles,The Invincibles
http://www.wikidata.org/entity/Q19612,Preston North End F.C.,The Lilywhites,The Lilywhites
http://www.wikidata.org/entity/Q1469689,USS Tennessee,The Rebel Ship,The Rebel Ship
http://www.wikidata.org/entity/Q1546321,North Stradbroke Island,Straddie,Straddie
http://www.wikidata.org/entity/Q1558665,HMS Cumberland,The Fighting Sausage,The Fighting Sausage
http://www.wikidata.org/entity/Q1669589,classical archaeology,Faltenphilologie,Faltenphilologie
http://www.wikidata.org/entity/Q9617,Arsenal F.C.,Οι Κανονιέρηδες,Οι Κανονιέρηδες
http://www.wikidata.org/entity/Q19615,Scunthorpe United F.C.,The Iron,The Iron
http://www.wikidata.org/entity/Q19651,Yeovil Town F.C.,The Glovers,The Glovers
http://www.wikidata.org/entity/Q1351288,USS Intrepid,Decrepit,Decrepit
http://www.wikidata.org/entity/Q1351288,USS Intrepid,Dry I,Dry I
http://www.wikidata.org/entity/Q1351288,USS Intrepid,Fighting I,Fighting I
http://www.wikidata.org/entity/Q1351288,USS Intrepid,The Fighting I,The Fighting I
http://www.wikidata.org/entity/Q1351288,USS Intrepid,The Tough Old Lady,The Tough Old Lady
http://www.wikidata.org/entity/Q19660,Bucharest,Paris of the Balkans,Paris of the Balkans
http://www.wikidata.org/entity/Q19660,Bucharest,Micul Paris,Micul Paris
http://www.wikidata.org/entity/Q19568,A.F.C. Bournemouth,Τα Κεράσια,Τα Κεράσια
http://www.wikidata.org/entity/Q19578,Colchester United F.C.,Εμείς,Εμείς
http://www.wikidata.org/entity/Q19580,Coventry City F.C.,Οι Γαλάζιοι,Οι Γαλάζιοι
http://www.wikidata.org/entity/Q19598,Notts County F.C.,Οι σφήκες,Οι σφήκες
http://www.wikidata.org/entity/Q19607,Sheffield United F.C.,The Blades,The Blades
http://www.wikidata.org/entity/Q19607,Sheffield United F.C.,Red and White Wizards,Red and White Wizards
http://www.wikidata.org/entity/Q5347597,John Cage,The Biscuit,The Biscuit
http://www.wikidata.org/entity/Q5513016,GCR Class 11E,Director class,Director class
http://www.wikidata.org/entity/Q5513033,GCR Class 9J,Pompoms,Pompoms
http://www.wikidata.org/entity/Q5513293,GE P30CH,Pooch,Pooch
http://www.wikidata.org/entity/Q5629070,HC-4,Black Stallions,Black Stallions
http://www.wikidata.org/entity/Q6175016,Úbeda Club de Fútbol,Ubetenses,Ubetenses
http://www.wikidata.org/entity/Q6254483,John Reese,The Man in the Suit,The Man in the Suit
http://www.wikidata.org/entity/Q6254483,John Reese,El hombre del traje,El hombre del traje
http://www.wikidata.org/entity/Q6254483,John Reese,l'homme au costume,l'homme au costume
http://www.wikidata.org/entity/Q6705970,Lutterworth Town A.F.C.,The Swifts,The Swifts
http://www.wikidata.org/entity/Q6732605,Mah-Jongg,Jongy,Jongy
http://www.wikidata.org/entity/Q7042835,No. 103 Squadron RAF,Swindon's 'own' Squadron,Swindon's 'own' Squadron
http://www.wikidata.org/entity/Q7043444,No. 38 Squadron RAAF,Dingo Airlines,Dingo Airlines
http://www.wikidata.org/entity/Q7077241,Odakyu 20000 series RSE,Resort Super Express,Resort Super Express
http://www.wikidata.org/entity/Q7077251,Odakyu 60000 series MSE,Multi Super Express,Multi Super Express
http://www.wikidata.org/entity/Q7446600,Seibu 10000 series,New Red Arrow,New Red Arrow
http://www.wikidata.org/entity/Q7446600,Seibu 10000 series,Red Arrow Classic,Red Arrow Classic
http://www.wikidata.org/entity/Q7446600,Seibu 10000 series,ニューレッドアロー,ニューレッドアロー
http://www.wikidata.org/entity/Q7446600,Seibu 10000 series,レッドアロークラシック,レッドアロークラシック
http://www.wikidata.org/entity/Q28729549,Dietmar Schäffer,Bär,Bär
http://www.wikidata.org/entity/Q28732932,Bärbel Schmied,Bärbelchen,Bärbelchen
http://www.wikidata.org/entity/Q28807502,Exclusive economic zone of Germany in the North Sea,Entenschnabel,Entenschnabel
http://www.wikidata.org/entity/Q2203656,HMS Formidable,The Ship That Launched Itself,The Ship That Launched Itself
http://www.wikidata.org/entity/Q2325735,5th Canadian (Armoured) Division,The Mighty Maroon Machine,The Mighty Maroon Machine
http://www.wikidata.org/entity/Q2807691,Nord 4.061 to 4.340,les Bœufs,les Bœufs
http://www.wikidata.org/entity/Q2807715,SNCF 141.P,Petites P,Petites P
http://www.wikidata.org/entity/Q2816821,43rd Infantry Division,Winged Victory Division,Winged Victory Division
http://www.wikidata.org/entity/Q3704358,Deborah Fiderer,Debbie Fiderer,Debbie Fiderer
http://www.wikidata.org/entity/Q3782071,HMS Bulwark,The Rusty B,The Rusty B
http://www.wikidata.org/entity/Q4353793,HMS Albion,The Old Grey Ghost of the Borneo Coast,The Old Grey Ghost of the Borneo Coast
http://www.wikidata.org/entity/Q4633561,"2nd Battalion, Parachute Regiment",Immaculate Second,Immaculate Second
http://www.wikidata.org/entity/Q4636678,3rd Battalion 1st Marines,Thundering Third,Thundering Third
http://www.wikidata.org/entity/Q4638264,45th (Nottinghamshire) (Sherwood Foresters) Regiment of Foot,Old Stubborns,Old Stubborns
http://www.wikidata.org/entity/Q4638565,47th Regiment Royal Artillery,The Hampshire & Sussex Gunners,The Hampshire & Sussex Gunners
http://www.wikidata.org/entity/Q4639944,50th Infantry Brigade Combat Team,Jersey Blues,Jersey Blues
http://www.wikidata.org/entity/Q4824459,Australian National Data Service,ANDS,ANDS
http://www.wikidata.org/entity/Q4933846,Bob Russell,Bingo Bob,Bingo Bob
http://www.wikidata.org/entity/Q5313047,Duke of Lancaster's Regiment,Lions of England,Lions of England
http://www.wikidata.org/entity/Q19601,Oldham Athletic A.F.C.,Λάτικς,Λάτικς
http://www.wikidata.org/entity/Q34217,Oxford,The City of Dreaming Spires,The City of Dreaming Spires
http://www.wikidata.org/entity/Q48879,Bradford City A.F.C.,Το μικρό πουλερικό,Το μικρό πουλερικό
http://www.wikidata.org/entity/Q48939,Exeter City F.C.,Οι Ελληνιστές,Οι Ελληνιστές
http://www.wikidata.org/entity/Q48939,Exeter City F.C.,The Grecians,The Grecians
http://www.wikidata.org/entity/Q18516,Hereford United F.C.,Οι Ταύροι,Οι Ταύροι
http://www.wikidata.org/entity/Q19477,Hull City A.F.C.,Οι Τίγρεις,Οι Τίγρεις
http://www.wikidata.org/entity/Q40209,Long Beach,City by the Sea,City by the Sea
http://www.wikidata.org/entity/Q40209,Long Beach,Civitas ad Mare,Civitas ad Mare
http://www.wikidata.org/entity/Q48941,Fleetwood Town F.C.,Οι ψαράδες,Οι ψαράδες
http://www.wikidata.org/entity/Q48945,Northampton Town F.C.,Τσαγκάρηδες,Τσαγκάρηδες
http://www.wikidata.org/entity/Q48946,Oxford United F.C.,Κίτρινοι,Κίτρινοι
http://www.wikidata.org/entity/Q48946,Oxford United F.C.,The Boys from Up the Hill,The Boys from Up the Hill
http://www.wikidata.org/entity/Q48949,Rochdale A.F.C.,The Dale,The Dale
http://www.wikidata.org/entity/Q22866,SV Austria Salzburg,Βιολετί,Βιολετί
http://www.wikidata.org/entity/Q48948,Port Vale F.C.,Γενναίοι,Γενναίοι
http://www.wikidata.org/entity/Q10396482,Ñoño,Ñoño,Ñoño
http://www.wikidata.org/entity/Q11463066,Odakyu 7000 series LSE,Luxury Super Express,Luxury Super Express
http://www.wikidata.org/entity/Q11595708,Akita Prefectural Road Route 56,新国道,新国道
http://www.wikidata.org/entity/Q15712701,Hearts of Iron IV,Project Armstrong,Project Armstrong
http://www.wikidata.org/entity/Q50602,Manchester City F.C.,Η Σίτυ,Η Σίτυ
http://www.wikidata.org/entity/Q50602,Manchester City F.C.,Οι Πολίτες,Οι Πολίτες
http://www.wikidata.org/entity/Q15993709,EFE 126 José Manuel Balmaceda,José Manuel Balmaceda,José Manuel Balmaceda
http://www.wikidata.org/entity/Q18001808,Task Force 75,CTF 75,CTF 75
http://www.wikidata.org/entity/Q18001808,Task Force 75,NEFCPAC,NEFCPAC
http://www.wikidata.org/entity/Q19880920,Menchey Music Service,Menchey Music,Menchey Music
http://www.wikidata.org/entity/Q20870498,GER Class Y65,Crystal Palace tanks,Crystal Palace tanks
http://www.wikidata.org/entity/Q20870498,GER Class Y65,Tomato houses,Tomato houses
http://www.wikidata.org/entity/Q22986077,El Khomri law,loi Travail,loi Travail
http://www.wikidata.org/entity/Q22986077,El Khomri law,projet de loi El Khomri,projet de loi El Khomri