org:country_of_headquarters	Singapore Airlines	Singapore
org:country_of_headquarters	Alcatel	France
org:country_of_headquarters	Mediacorp	Singapore
org:country_of_headquarters	Alliance Française in Poland	Poland
org:country_of_headquarters	Messageries Maritimes	France
org:country_of_headquarters	NOR-WAY Bussekspress	Norway
org:country_of_headquarters	Aoni Production	Japan
org:country_of_headquarters	Artumas Group	Canada
org:country_of_headquarters	Tnuva	Israel
org:country_of_headquarters	Señorita Panamá	Panama
org:country_of_headquarters	Studio One	Jamaica
org:country_of_headquarters	Association Najdeh	Lebanon
org:country_of_headquarters	Iraqi National Congress	Iraq
org:country_of_headquarters	COPPPAL	Dominican Republic
org:country_of_headquarters	Invisible Children	United States of America
org:country_of_headquarters	Conspiracy	Hungary
org:country_of_headquarters	Communist Party of Honduras	Honduras
org:country_of_headquarters	Kuwait Petroleum International	Kuwait
org:country_of_headquarters	Air Venture Tours	Guatemala
org:country_of_headquarters	Aman Futures Group	Malaysia
org:country_of_headquarters	Backward Society Education	Nepal
org:country_of_headquarters	Britt	Costa Rica
org:country_of_headquarters	TUVISA	Spain
org:country_of_headquarters	Islamic Republic of Iran Broadcasting	Iran
org:country_of_headquarters	Haitel	Haiti
org:country_of_headquarters	Generation Yes	Ireland
org:country_of_headquarters	Carrere Group	France
org:country_of_headquarters	OpenStreetMap	United Kingdom
org:country_of_headquarters	Shwe Taung Group	Myanmar
org:country_of_headquarters	Miss Dominica	Dominica
org:country_of_headquarters	Jordan New Cable	Jordan
org:country_of_headquarters	Yemen Mobile	Yemen
org:country_of_headquarters	Saint Kitts and Nevis Red Cross Society	Saint Kitts and Nevis
org:country_of_headquarters	Zalman	South Korea
org:country_of_headquarters	Grameen Bank	Bangladesh
org:country_of_headquarters	A4Tech	Taiwan
org:country_of_headquarters	Al-Mawrid	Pakistan
org:country_of_headquarters	Al Farooj Fresh	United Arab Emirates
org:country_of_headquarters	Socialist Party of Vietnam	Vietnam
org:country_of_headquarters	Film Location Services	Sri Lanka
org:country_of_headquarters	Fresh Mart	Thailand
org:country_of_headquarters	National Bank of Oman	Oman
org:country_of_headquarters	Afghan Red Crescent Society	Afghanistan
org:country_of_headquarters	National Office of Statistics	Algeria
org:country_of_headquarters	Mann ke Manjeeré	India
org:country_of_headquarters	Miss New Zealand International	New Zealand
org:country_of_headquarters	National Fascist Union	Argentina
org:country_of_headquarters	SotelTchad	Chad
org:country_of_headquarters	SunNet	North Korea
org:country_of_headquarters	Tonga Development Bank	Tonga
org:country_of_headquarters	Australian National Industries	Australia
org:country_of_headquarters	Miss Earth Mongolia	Mongolia
org:country_of_headquarters	African Exploration Mining and Finance Corporation	South Africa
org:country_of_headquarters	Asenav	Chile
org:country_of_headquarters	Nautical Archaeology Society	United Kingdom
org:country_of_headquarters	Pies Descalzos Foundation	Colombia
org:country_of_headquarters	Parfums Caron	France
org:country_of_headquarters	Parfums Christian Dior	France
org:country_of_headquarters	Watever	France
org:country_of_headquarters	Help Nepal Network	Nepal
org:country_of_headquarters	Groupe Feministe Socialiste	France
org:country_of_headquarters	Humanitarian Organization for Migration Economics	Singapore
org:country_of_headquarters	APL Logistics	Singapore
org:country_of_headquarters	Institute for Works of Religion	Vatican City
org:country_of_headquarters	PSA International	Singapore
org:country_of_headquarters	Bim	Turkey
org:country_of_headquarters	TechCrunch	United States of America
org:country_of_headquarters	CNN-IBN	India
org:country_of_headquarters	The Cannon Group	United States of America
org:country_of_headquarters	Brazilian Chemical Society	Brazil
org:country_of_headquarters	Bredbandsbolaget	Sweden
org:country_of_headquarters	AliceSoft	Japan
org:country_of_headquarters	Expekt.com	Sweden
org:country_of_headquarters	Andorran Democratic Centre	Andorra
org:country_of_headquarters	Type-Moon	Japan
org:country_of_headquarters	Ken-On	Japan
org:country_of_headquarters	Malaysia-Singapore Airlines	Singapore
org:country_of_headquarters	Quake Inc.	Japan
org:country_of_headquarters	Swedish Chemical Society	Sweden
org:country_of_headquarters	Tre Vänner	Sweden
org:country_of_headquarters	Chevron Cars	United Kingdom
org:country_of_headquarters	HOOKSOFT	Japan
org:country_of_headquarters	Feiyue	People's Republic of China
org:country_of_headquarters	Miss Spain	Spain
org:country_of_headquarters	World Muaythai Council	Thailand
org:country_of_headquarters	Asread	Japan
org:country_of_headquarters	Cihan News Agency	Turkey
org:country_of_headquarters	Classic International Cruises	Australia
org:country_of_headquarters	Railway Recruitment Control Board	India
org:country_of_headquarters	Clover Studio	Japan
org:country_of_headquarters	Silicon Motion	Taiwan
org:country_of_headquarters	Singapore University of Technology and Design	Singapore
org:country_of_headquarters	Columbia Graphophone Company	United Kingdom
org:country_of_headquarters	Comedy Central Sweden	Netherlands
org:country_of_headquarters	EToys.com	United States of America
org:country_of_headquarters	Compagnie des Autobus de Monaco	Monaco
org:country_of_headquarters	Trenes de Buenos Aires	Argentina
org:country_of_headquarters	Auction Co.	South Korea
org:country_of_headquarters	IKANO	Luxembourg
org:country_of_headquarters	Architect	Japan
org:country_of_headquarters	Fill-in-Cafe	Japan
org:country_of_headquarters	Moonstone	Japan
org:country_of_headquarters	CozyCot	Singapore
org:country_of_headquarters	Creed	France
org:country_of_headquarters	Flex LTD	Singapore
org:country_of_headquarters	Karhu	Finland
org:country_of_headquarters	Richmond Park	United Kingdom
org:country_of_headquarters	August	Japan
org:country_of_headquarters	Ectaco	United States of America
org:country_of_headquarters	Tokyo Metropolitan Television	Japan
org:country_of_headquarters	Navel	Japan
org:country_of_headquarters	Revolution Studios	United States of America
org:country_of_headquarters	Hungarian development bank	Hungary
org:country_of_headquarters	Tamara	Netherlands
org:country_of_headquarters	Evolavia	Italy
org:country_of_headquarters	FantLab	Russia
org:country_of_headquarters	Delfino	United Kingdom
org:country_of_headquarters	NHK World	Japan
org:country_of_headquarters	Samsonite	Luxembourg
org:country_of_headquarters	Deutsche Phytomedizinische Gesellschaft	Germany
org:country_of_headquarters	Papagájův Hlasatel Records	Czech Republic
org:country_of_headquarters	LibanPost	Lebanon
org:country_of_headquarters	Coal Energy S.A.	Luxembourg
org:country_of_headquarters	Group DF	Ukraine
org:country_of_headquarters	Veselka	Ukraine
org:country_of_headquarters	Design Office of Special Equipment	Ukraine
org:country_of_headquarters	FILM.UA Group	Ukraine
org:country_of_headquarters	Cook Door	Egypt
org:country_of_headquarters	Radiodiffusion-Télévision Française	France
org:country_of_headquarters	Dinky Toys	United Kingdom
org:country_of_headquarters	Directorate General for Civil Aviation	France
org:country_of_headquarters	IDEmøbler	Denmark
org:country_of_headquarters	IT-Political Association of Denmark	Denmark
org:country_of_headquarters	AS Coca-Cola HBC Eesti	Estonia
org:country_of_headquarters	Puli Space Technologies	Hungary
org:country_of_headquarters	Indonesian Atheists	Indonesia
org:country_of_headquarters	Anarchism in Mexico	Mexico
org:country_of_headquarters	ASUNARO: Action for Youth Rights of Korea	South Korea
org:country_of_headquarters	Poongsan Corporation	South Korea
org:country_of_headquarters	Norwegian digital learning arena	Norway
org:country_of_headquarters	Miss Earth New Zealand	New Zealand
org:country_of_headquarters	Miss Universe Sri Lanka	Sri Lanka
org:country_of_headquarters	Miss Earth Jamaica	Jamaica
org:country_of_headquarters	Miss Ghana	Ghana
org:country_of_headquarters	Miss Earth Rep of Congo	Republic of the Congo
org:country_of_headquarters	Limak Holding	Turkey
org:country_of_headquarters	Rekkof Aircraft	Netherlands
org:country_of_headquarters	NetSolve	United States of America
org:country_of_headquarters	Coalition of Socialist Forces	Egypt
org:country_of_headquarters	EFG-Hermes	Egypt
org:country_of_headquarters	Seng et Henry	France
org:country_of_headquarters	Grupo Marsans	Spain
org:country_of_headquarters	Radenska	Slovenia
org:country_of_headquarters	NPO “Digital Television Systems”	Russia
org:country_of_headquarters	CD-adapco	United States of America
org:country_of_headquarters	Elenco	Brazil
org:country_of_headquarters	StarRoc	United States of America
org:country_of_headquarters	Elka	Italy
org:country_of_headquarters	Czech National Corpus	Czech Republic
org:country_of_headquarters	Tamarrod Movement	Egypt
org:country_of_headquarters	Koza İpek Holding	Turkey
org:country_of_headquarters	Travix International B.V.	Netherlands
org:country_of_headquarters	Sanctuary Records Group	United Kingdom
org:country_of_headquarters	Rockwell International	United States of America
org:country_of_headquarters	Pantene	Switzerland
org:country_of_headquarters	CSC Jinling	People's Republic of China
org:country_of_headquarters	Singapore Airlines Cargo	Singapore
org:country_of_headquarters	Steel Authority of India Limited	India
org:country_of_headquarters	Eumig	Austria
org:country_of_headquarters	Mushi Production	Japan
org:country_of_headquarters	TopTen	Estonia
org:country_of_headquarters	Fairlight	Sweden
org:country_of_headquarters	Torche	United Kingdom
org:country_of_headquarters	International Workers' Association#IWA Today	Norway
org:country_of_headquarters	Sirius Software	United States of America
org:country_of_headquarters	Rigal	France
org:country_of_headquarters	Giant Records	United States of America
org:country_of_headquarters	Agenzia Fides	Vatican City
org:country_of_headquarters	Vitagraph Studios	United States of America
org:country_of_headquarters	BTJunkie	Canada
org:country_of_headquarters	New Holland Agriculture	United States of America
org:country_of_headquarters	Mehano	Slovenia
org:country_of_headquarters	Infinity	United States of America
org:country_of_headquarters	Luxoft	Switzerland
org:country_of_headquarters	Mitsubishi Aluminum Co.	Japan
org:country_of_headquarters	Royal Copenhagen	Denmark
org:country_of_headquarters	Teijin Aramid	Netherlands
org:country_of_headquarters	Bolloré Africa Logistics	France
org:country_of_headquarters	1HDTV	Russia
org:country_of_headquarters	Emotiv Systems	Australia
org:country_of_headquarters	Freebird Games	Canada
org:country_of_headquarters	Free Patriotic Movement	Lebanon
org:country_of_headquarters	RecordTV	Brazil
org:country_of_headquarters	DMG Entertainment	People's Republic of China
org:country_of_headquarters	Niagara Falls High School	United States of America
org:country_of_headquarters	Case Corporation	United States of America
org:country_of_headquarters	Venturi Automobiles	Monaco
org:country_of_headquarters	Muvee Technologies	Singapore
org:country_of_headquarters	Perodua	Malaysia
org:country_of_headquarters	Mark Levinson	United States of America
org:country_of_headquarters	World Karate Federation	Spain
org:country_of_headquarters	Giti Tire	Singapore
org:country_of_headquarters	Help the Aged	United Kingdom
org:country_of_headquarters	Gauntlet	United States of America
org:country_of_headquarters	Pacific International Lines	Singapore
org:country_of_headquarters	International Mercantile Marine Co.	United States of America
org:country_of_headquarters	Westinghouse Aviation Gas Turbine Division	United States of America
org:country_of_headquarters	Bonanza Printing	United States of America
org:country_of_headquarters	Bangladeshi Cyclists	Bangladesh
org:country_of_headquarters	Mind's Eye Productions	United Kingdom
org:country_of_headquarters	Playware Studios	Singapore
org:country_of_headquarters	Sherman3D	Malaysia
org:country_of_headquarters	Russian Union of Engineers	Russia
org:country_of_headquarters	Georgian Labour Party	Georgia
org:country_of_headquarters	Innospec	United States of America
org:country_of_headquarters	TeamTO	France
org:country_of_headquarters	Singapore Exchange	Singapore
org:country_of_headquarters	ASBIS	Cyprus
org:country_of_headquarters	All India Students Federation	India
org:country_of_headquarters	Impulse! Records	United States of America
org:country_of_headquarters	Russian Club of Financial Directors	Russia
org:country_of_headquarters	Asia Pacific Breweries	Singapore
org:country_of_headquarters	The Center for Research on Islamic Studies	Uzbekistan
org:country_of_headquarters	Children-404	Russia
org:country_of_headquarters	Printemps	France
org:country_of_headquarters	Pelephone	Israel
org:country_of_headquarters	Yes	Israel
org:country_of_headquarters	Michael Kelly Guitars	United States of America
org:country_of_headquarters	Thrive Africa	Ghana
org:country_of_headquarters	Education for Liberation of Siam	Thailand
org:country_of_headquarters	BTC-E	Russia
org:country_of_headquarters	R-kioski	Finland
org:country_of_headquarters	Sokol	Russia
org:country_of_headquarters	SakeVisual	United States of America
org:country_of_headquarters	Corcept Therapeutics	United States of America
org:country_of_headquarters	Exceet Group SE	Luxembourg
org:country_of_headquarters	RITES	India
org:country_of_headquarters	Ruby Cup	Denmark
org:country_of_headquarters	Mistwalker	Japan
org:country_of_headquarters	Reed Hamilton	Singapore
org:country_of_headquarters	FutureFuel	United States of America
org:country_of_headquarters	Encyclopedia Dramatica	United States of America
org:country_of_headquarters	Mondia	Switzerland
org:country_of_headquarters	Pardini	Italy
org:country_of_headquarters	National Justice Movement	Bahrain
org:country_of_headquarters	Syrian Democratic Turkmen Movement	Turkey
org:country_of_headquarters	Bread and Freedom Party	Egypt
org:country_of_headquarters	Organization for the Islamic Revolution in the Arabian peninsula	Iran
org:country_of_headquarters	Specular Interactive	United States of America
org:country_of_headquarters	BDMI	Luxembourg
org:country_of_headquarters	Mova Nanova	Belarus
org:country_of_headquarters	IEEE Reliability Society	United States of America
org:country_of_headquarters	Adult Entertainment Association of Canada	Canada
org:country_of_headquarters	Airborne Maintenance & Engineering Services	United States of America
org:country_of_headquarters	Hell Pizza	New Zealand
org:country_of_headquarters	77th Street	Singapore
org:country_of_headquarters	Adventa	Malaysia
org:country_of_headquarters	07th Expansion	Japan
org:country_of_headquarters	QuidditchUK	United Kingdom
org:country_of_headquarters	Resolve Uganda	United States of America
org:country_of_headquarters	Council for United Civil Rights Leadership	United States of America
org:country_of_headquarters	History of Science Society	United States of America
org:country_of_headquarters	Reaching Out Romania	Romania
org:country_of_headquarters	Servants Anonymous Society	Canada
org:country_of_headquarters	Greek life at the University of Massachusetts Amherst	United States of America
org:country_of_headquarters	Acura Pharmaceuticals	United States of America
org:country_of_headquarters	Angels Den	United Kingdom
org:country_of_headquarters	Architectus	Australia
org:country_of_headquarters	Asfour crystal	Egypt
org:country_of_headquarters	Coffesso	Indonesia
org:country_of_headquarters	Campbell-Grobman Films	United States of America
org:country_of_headquarters	ELGIN	United Kingdom
org:country_of_headquarters	Mandalay Pictures	United States of America
org:country_of_headquarters	HungryGoWhere	Singapore
org:country_of_headquarters	China Institute of International Studies	People's Republic of China
org:country_of_headquarters	Universia	Spain
org:country_of_headquarters	Platform HD	Russia
org:country_of_headquarters	Hotchkiss et Cie	France
org:country_of_headquarters	Lioré et Olivier	France
org:country_of_headquarters	TeleVideo	United States of America
org:country_of_headquarters	Socialist Popular Alliance Party	Egypt
org:country_of_headquarters	Timex Group USA	France
org:country_of_headquarters	Konichiwa Records	Sweden
org:country_of_headquarters	Antifascist Committee of Ukraine	Ukraine
org:country_of_headquarters	Yacht Club de France	France
org:country_of_headquarters	Miss World Sri Lanka	Sri Lanka
org:country_of_headquarters	BazQux Reader	Germany
org:country_of_headquarters	Carlo Erba	Italy
org:country_of_headquarters	Compagnie générale transsaharienne	France
org:country_of_headquarters	Italiaonline	Italy
org:country_of_headquarters	Líneas Aéreas Comerciales	Mexico
org:country_of_headquarters	Wintek	Taiwan
org:country_of_headquarters	Dignity Party	Egypt
org:country_of_headquarters	Lise Charmel	France
org:country_of_headquarters	Miss Universe Croatia	Croatia
org:country_of_headquarters	Musik Josef	Japan
org:country_of_headquarters	Jan De Nul	Luxembourg
org:country_of_headquarters	Abkhazian Network News Agency	Abkhazia
org:country_of_headquarters	Center for Advanced Life Cycle Engineering	United States of America
org:country_of_headquarters	Çukurova Media Group	Turkey
org:country_of_headquarters	Balloom	Japan
org:country_of_headquarters	HomeSense	Canada
org:country_of_headquarters	Joseph Rowntree Foundation	United Kingdom
org:country_of_headquarters	Jer's Vision	Canada
org:country_of_headquarters	J.Lo by Jennifer Lopez	United States of America
org:country_of_headquarters	CARad.com	United States of America
org:country_of_headquarters	JetBrains	Czech Republic
org:country_of_headquarters	Jiangxi Ganyue Expressway	People's Republic of China
org:country_of_headquarters	Hoka One One	France
org:country_of_headquarters	Trik	United States of America
org:country_of_headquarters	Miss Earth Sri Lanka	Sri Lanka
org:country_of_headquarters	URLabs	United States of America
org:country_of_headquarters	SNAP Interactive	United States of America
org:country_of_headquarters	Bangsamoro Transition Commission	Philippines
org:country_of_headquarters	Society for the History of Astronomy	United Kingdom
org:country_of_headquarters	SouthWest Energy	Ethiopia
org:country_of_headquarters	Miss Cameroon	Cameroon
org:country_of_headquarters	Miss Earth Argentina	Argentina
org:country_of_headquarters	MPP Global Solutions	United Kingdom
org:country_of_headquarters	The Initiative Collective	United States of America
org:country_of_headquarters	Canadian Coalition for the Rights of Children	Canada
org:country_of_headquarters	China Yuchai International	Singapore
org:country_of_headquarters	Türkiye Scholarships	Turkey
org:country_of_headquarters	Kind Campaign	United States of America
org:country_of_headquarters	Universal Hospitals Group	Turkey
org:country_of_headquarters	Asia Capital Reinsurance	Singapore
org:country_of_headquarters	Paradox Engineering	Switzerland
org:country_of_headquarters	Ashtons	United Kingdom
org:country_of_headquarters	Bitstamp	United Kingdom
org:country_of_headquarters	FIIG Securities	Australia
org:country_of_headquarters	Glenn Marine Group	Singapore
org:country_of_headquarters	HarambeeHolland	Netherlands
org:country_of_headquarters	British Chamber of Commerce in Japan	Japan
org:country_of_headquarters	Ingersoll Rand Industrial Technlogies	United States of America
org:country_of_headquarters	Chemoil	Singapore
org:country_of_headquarters	IHG Army Hotels	United States of America
org:country_of_headquarters	Internacionale Retail	United Kingdom
org:country_of_headquarters	VDMA	Germany
org:country_of_headquarters	Hill-Fields Entertainment	United States of America
org:country_of_headquarters	The ISIS Group	Australia
org:country_of_headquarters	Matamp	United Kingdom
org:country_of_headquarters	VentureSoft	Singapore
org:country_of_headquarters	Allity	Australia
org:country_of_headquarters	Australian Children's Television Foundation	Australia
org:country_of_headquarters	Is This Justice?	India
org:country_of_headquarters	Asian Sponsorship Association	Singapore
org:country_of_headquarters	Georges	Australia
org:country_of_headquarters	AzMeCo	Azerbaijan
org:country_of_headquarters	Old Chang Kee	Singapore
org:country_of_headquarters	Miss Singapore World	Singapore
org:country_of_headquarters	Miss International Germany	Germany
org:country_of_headquarters	Miss World Germany	Germany
org:country_of_headquarters	Independent Contractors Australia	Australia
org:country_of_headquarters	Jurlique	Australia
org:country_of_headquarters	Miss Singapore International	Singapore
org:country_of_headquarters	Nuestra Belleza Coahuila	Mexico
org:country_of_headquarters	Element14	Singapore
org:country_of_headquarters	Miss Earth South Africa	South Africa
org:country_of_headquarters	Network of Free Ulema – Libya	Libya
org:country_of_headquarters	Australian Medical Students' Association	Australia
org:country_of_headquarters	Trevvy	Singapore
org:country_of_headquarters	Playhouse Disney	United States of America
org:country_of_headquarters	Quidditch Canada	Canada
org:country_of_headquarters	Go Hotels	Philippines
org:country_of_headquarters	Southern Whaling and Sealing Company	United Kingdom
org:country_of_headquarters	Self-Help Group for Cerebral Palsy	Nepal
org:country_of_headquarters	Hacking Team	Italy
org:country_of_headquarters	Williams & Glyn	United Kingdom
org:country_of_headquarters	Nai Zindagi Trust	Pakistan
org:country_of_headquarters	Horizon Fuel Cell Technologies	Singapore
org:country_of_headquarters	Unitarian Earth Spirit Network	United Kingdom
org:country_of_headquarters	Hikari	Japan
org:country_of_headquarters	Leonard Development Group	United States of America
org:country_of_headquarters	Semichem	United Kingdom
org:country_of_headquarters	Socatel	Central African Republic
org:country_of_headquarters	Oilers Octane	Canada
org:country_of_headquarters	Votes at 16	United Kingdom
org:country_of_headquarters	Botak Jones	Singapore
org:country_of_headquarters	Conjunct Consulting	Singapore
org:country_of_headquarters	Idiriya	Sri Lanka
org:country_of_headquarters	FaceRecog	Singapore
org:country_of_headquarters	Gay SG Confessions	Singapore
org:country_of_headquarters	Hi-Beau International	Singapore
org:country_of_headquarters	Humanist Society of Singapore	Singapore
org:country_of_headquarters	Lerche	Japan
org:country_of_headquarters	Yojigen	Japan
org:country_of_headquarters	Miss World Mongolia	Mongolia
org:country_of_headquarters	KlickEx	New Zealand
org:country_of_headquarters	Lotus Five Star	Malaysia
org:country_of_headquarters	MBO Cinemas	Malaysia
org:country_of_headquarters	TradeGecko	Singapore
org:country_of_headquarters	Wen Ken Group	Singapore
org:country_of_headquarters	Indian Chemical Society	India
org:country_of_headquarters	Indian Dental Association	India
org:country_of_headquarters	Gulf Cryo	Kuwait
org:country_of_headquarters	Quidditch Benelux	Belgium
org:country_of_headquarters	CASA	Spain
org:country_of_headquarters	Regional Universities Network	Australia
org:country_of_headquarters	Wasabi Records	France
org:country_of_headquarters	Brandywine Productions	United States of America
org:country_of_headquarters	Integrated Defence Systems	Pakistan
org:country_of_headquarters	Dulces Miguelito	Mexico
org:country_of_headquarters	Omek Interactive	Israel
org:country_of_headquarters	Nikhil Bharat Banga Sahitya Sammelan	India
org:country_of_headquarters	Young Investment Group	Myanmar
org:country_of_headquarters	Takaud Savings and Pensions B.S.C.	Bahrain
org:country_of_headquarters	Thumbay Group	United Arab Emirates
org:country_of_headquarters	Negros Occidental Private Schools Sports Cultural Educational Association	Philippines
org:country_of_headquarters	Mauritius Shipping Corporation	Mauritius
org:country_of_headquarters	Rachel K	Singapore
org:country_of_headquarters	Sagicor Financial Corporation	Barbados
org:country_of_headquarters	Cabin Fever Media	Sweden
org:country_of_headquarters	National Association of Real Estate Investment Trusts	United States of America
org:country_of_headquarters	Hybris	Germany
org:country_of_headquarters	Water is Basic	South Sudan
org:country_of_headquarters	Miss Teen Earth International	Panama
org:country_of_headquarters	Seattle Works	United States of America
org:country_of_headquarters	Mercure Hotels	France
org:country_of_headquarters	Miss Earth Slovenia	Slovenia
org:country_of_headquarters	Uchaguzi	Kenya
org:country_of_headquarters	Democracy Matters	Ireland
org:country_of_headquarters	National Froebel Foundation	United Kingdom
org:country_of_headquarters	KLab	Rwanda
org:country_of_headquarters	Royal Institute of Public Administration	United Kingdom
org:country_of_headquarters	Emerson Group	United Kingdom
org:country_of_headquarters	Pei Partnership Architects	United States of America
org:country_of_headquarters	Miss Jamaica Global	Jamaica
org:country_of_headquarters	Chemical Research Society of India	India
org:country_of_headquarters	"Maclure, Macdonald and Co."	United Kingdom
org:country_of_headquarters	Rockwell Medical Inc.	United States of America
org:country_of_headquarters	Llorente & Cuenca	Spain
org:country_of_headquarters	Scorpion Releasing	United States of America
org:country_of_headquarters	Moseley Iron Bridge and Roof Company	United States of America
org:country_of_headquarters	Independent Betting Adjudication Service	United Kingdom
org:country_of_headquarters	FilmTack	Singapore
org:country_of_headquarters	Tembusu Partners Private Limited	Singapore
org:country_of_headquarters	Kapp Records	United States of America
org:country_of_headquarters	BPF Party	Belarus
org:country_of_headquarters	Bimeks	Turkey
org:country_of_headquarters	Société française de transmissions florales	France
org:country_of_headquarters	Mallette	Canada
org:country_of_headquarters	Creusot-Loire	France
org:country_of_headquarters	Be quiet!	Germany
org:country_of_headquarters	87 Minutes Project	Greece
org:country_of_headquarters	C2C	Japan
org:country_of_headquarters	Porch	United States of America
org:country_of_headquarters	Seventh Day Adventists of Sweden	Sweden
org:country_of_headquarters	Tuff Gong	Jamaica
org:country_of_headquarters	All-Malaya Council of Joint Action	Singapore
org:country_of_headquarters	Tangerine Computer Systems	United Kingdom
org:country_of_headquarters	Migros Türk	Turkey
org:country_of_headquarters	SEKEM	Egypt
org:country_of_headquarters	Tuas Power Ltd	Singapore
org:country_of_headquarters	Bahra Biscuit Factory	Azerbaijan
org:country_of_headquarters	Razor 1911	Norway
org:country_of_headquarters	Video Art Holland	Netherlands
org:country_of_headquarters	Maker's Mark	United States of America
org:country_of_headquarters	Springer Science+Business Media	Luxembourg
org:country_of_headquarters	Communist Party of Abkhazia	Abkhazia
org:country_of_headquarters	United World College of South East Asia	Singapore
org:country_of_headquarters	Wilmar International	Singapore
org:country_of_headquarters	Fédération Internationale d'Escrime	Switzerland
org:country_of_headquarters	Kyocera Document Solutions	Spain
org:country_of_headquarters	Wonderland Sound and Vision	United States of America
org:country_of_headquarters	La Confortable	France
org:country_of_headquarters	Musim Mas	Singapore
org:country_of_headquarters	Russian Party in Estonia	Estonia
org:country_of_headquarters	Frontier Martial-Arts Wrestling	Japan
org:country_of_headquarters	QED International	United States of America
org:country_of_headquarters	London Youth Support Trust	United Kingdom
org:country_of_headquarters	Netto UK	United Kingdom
org:country_of_headquarters	Eastern ARC	United Kingdom
org:country_of_headquarters	U.Sudan Peace & Development Foundation	United States of America
org:country_of_headquarters	Board of Canadian Registered Safety Professionals	Canada
org:country_of_headquarters	Indeni	Israel
org:country_of_headquarters	Certified Health Executive	Canada
org:country_of_headquarters	Ademco Security Group	Singapore
org:country_of_headquarters	Escrow.com	United States of America
org:country_of_headquarters	Vatican Publishing House	Vatican City
org:country_of_headquarters	Cnova	Netherlands
org:country_of_headquarters	Zimbabwe flyafrica.com	Mauritius
org:country_of_headquarters	Quadria Capital	Singapore
org:country_of_headquarters	Dustpan Recordings	Singapore
org:country_of_headquarters	OpenRest	United States of America
org:country_of_headquarters	CBS Productions	United States of America
org:country_of_headquarters	Sana Commerce	Netherlands
org:country_of_headquarters	National Academy of Science and Technology	Philippines
org:country_of_headquarters	Platonov Arts Festival	Russia
org:country_of_headquarters	Ti-Sarana Buddhist Association	Singapore
org:country_of_headquarters	Alkon	Russia
org:country_of_headquarters	Groupe Chantelle	France
org:country_of_headquarters	Nasajon Sistemas	Brazil
org:country_of_headquarters	Spanish Ornithological Society	Spain
org:country_of_headquarters	Cinéfrance 1888	France
org:country_of_headquarters	AGS Airports	United Kingdom
org:country_of_headquarters	Cross of Valour Association of Australia	Australia
org:country_of_headquarters	Combined Joint Task Force – Operation Inherent Resolve	Kuwait
org:country_of_headquarters	Fusion Consulting	Singapore
org:country_of_headquarters	Luxembourg Amateur Radio Union	Luxembourg
org:country_of_headquarters	Quantedge	Singapore
org:country_of_headquarters	Super M Productions	Lebanon
org:country_of_headquarters	Ansgar Fighting League	Spain
org:country_of_headquarters	Maison de la France	France
org:country_of_headquarters	Mars One	Netherlands
org:country_of_headquarters	Marbais and Lasnier	France
org:country_of_headquarters	Reform Party of the United States of America	United States of America
org:country_of_headquarters	Motion Picture Patents Company	United States of America
org:country_of_headquarters	Lambung Mangkurat University	Indonesia
org:country_of_headquarters	Marv Films	United Kingdom
org:country_of_headquarters	Zero Halliburton	United States of America
org:country_of_headquarters	Skånetrafiken	Sweden
org:country_of_headquarters	Housing and Development Board	Singapore
org:country_of_headquarters	Montesa Honda	Spain
org:country_of_headquarters	Orville by Gibson	Japan
org:country_of_headquarters	Libera!	Spain
org:country_of_headquarters	B144	Israel
org:country_of_headquarters	Les Films Concordia	France
org:country_of_headquarters	Instituto de Nutrición de Centro América y Panamá	Guatemala
org:country_of_headquarters	VictorsFood	Australia
org:country_of_headquarters	Warren James Jewellers	United Kingdom
org:country_of_headquarters	Kenon Holdings	Singapore
org:country_of_headquarters	Makro Market	Turkey
org:country_of_headquarters	Temasek Cares	Singapore
org:country_of_headquarters	Temasek Foundation	Singapore
org:country_of_headquarters	Nardini	France
org:country_of_headquarters	Craniofacial Society of Great Britain and Ireland	United Kingdom
org:country_of_headquarters	Paragon Software Group	United States of America
org:country_of_headquarters	Neat Records	United Kingdom
org:country_of_headquarters	MGM Home Entertainment	United States of America
org:country_of_headquarters	Skeptic Society	Russia
org:country_of_headquarters	Renegade Software	United Kingdom
org:country_of_headquarters	Green cadres	Bosnia and Herzegovina
org:country_of_headquarters	MyRepublic	Singapore
org:country_of_headquarters	Vera&John	Malta
org:country_of_headquarters	Art Star Scene Studios	United States of America
org:country_of_headquarters	Australian Quidditch Association	Australia
org:country_of_headquarters	RYOT	United States of America
org:country_of_headquarters	Pacific Drilling	Luxembourg
org:country_of_headquarters	Omnibus Press	United Kingdom
org:country_of_headquarters	Crimpy	United Kingdom
org:country_of_headquarters	ECHO Entertainment Group	Australia
org:country_of_headquarters	AmINext	Canada
org:country_of_headquarters	Pet Circle	Australia
org:country_of_headquarters	Buckinghams Retinue	United Kingdom
org:country_of_headquarters	M7 Group S.A.	Luxembourg
org:country_of_headquarters	Association des Radioamateurs du Kayldall	Luxembourg
org:country_of_headquarters	Eurekahedge	Singapore
org:country_of_headquarters	Krossblade Aerospace Systems	United States of America
org:country_of_headquarters	Keshet International	United States of America
org:country_of_headquarters	Rönesans Holding	Turkey
org:country_of_headquarters	Simplex	France
org:country_of_headquarters	Sivantos	Singapore
org:country_of_headquarters	TYKA Sports	India
org:country_of_headquarters	Ukrainian Universal Exchange	Ukraine
org:country_of_headquarters	Hot Bird	France
org:country_of_headquarters	Miss Continente Americano	Ecuador
org:country_of_headquarters	1024 architecture	France
org:country_of_headquarters	Mekelle Farms	Ethiopia
org:country_of_headquarters	Society of Trusts and Investments	Italy
org:country_of_headquarters	REVE Systems	Singapore
org:country_of_headquarters	Conrad Editora	Brazil
org:country_of_headquarters	Rivarossi	United Kingdom
org:country_of_headquarters	Artillery Armament Design  Bureau	Ukraine
org:country_of_headquarters	Kharkivoblenergo	Ukraine
org:country_of_headquarters	Factum Group	Czech Republic
org:country_of_headquarters	Christiania	Denmark
org:country_of_headquarters	DVS Shoes	United States of America
org:country_of_headquarters	Atlantic Records	United States of America
org:country_of_headquarters	Commission de Surveillance du Secteur Financier	Luxembourg
org:country_of_headquarters	Awwwards	Spain
org:country_of_headquarters	Oversea-Chinese Banking Corporation	Singapore
org:country_of_headquarters	Petri Camera	Japan
org:country_of_headquarters	Beymen	Turkey
org:country_of_headquarters	Pan-Car	Greece
org:country_of_headquarters	Smilebit	Japan
org:country_of_headquarters	Shogakukan Asia	Singapore
org:country_of_headquarters	Freesat	United Kingdom
org:country_of_headquarters	Unidad Editorial	Spain
org:country_of_headquarters	United Overseas Bank	Singapore
org:country_of_headquarters	RK M-Sport World Rally Team	United Kingdom
org:country_of_headquarters	Poste Vaticane	Vatican City
org:country_of_headquarters	Coca-Cola FEMSA	Mexico
org:country_of_headquarters	Vexor	United States of America
org:country_of_headquarters	Akbar Tea	Sri Lanka
org:country_of_headquarters	Lazada Group	Singapore
org:country_of_headquarters	Saloio	Portugal
org:country_of_headquarters	Universciné	France
org:country_of_headquarters	Grab	Singapore
org:country_of_headquarters	GMC Software AG	Switzerland
org:country_of_headquarters	Valhalla Game Studios	Japan
org:country_of_headquarters	Parlophone Records	Germany
org:country_of_headquarters	Cosmos	United States of America
org:country_of_headquarters	Monograms	United States of America
org:country_of_headquarters	Visible Noise	United Kingdom
org:country_of_headquarters	The Hour Glass Limited	Singapore
org:country_of_headquarters	Galaxy Resources	Australia
org:country_of_headquarters	MiGFlug	Switzerland
org:country_of_headquarters	Léon de Bruxelles	France
org:country_of_headquarters	Porterbrook	United Kingdom
org:country_of_headquarters	Cyanogen Inc.	United States of America
org:country_of_headquarters	Co-operative Party	United Kingdom
org:country_of_headquarters	Eve Audio	Germany
org:country_of_headquarters	Associated Motor Cycles	United Kingdom
org:country_of_headquarters	Movitel	Mozambique
org:country_of_headquarters	Rediffusion	Switzerland
org:country_of_headquarters	Goldcrest Films	United Kingdom
org:country_of_headquarters	Item 7	Canada
org:country_of_headquarters	SBS Broadcasting Group	Luxembourg
org:country_of_headquarters	Republican Movement of Aotearoa New Zealand	New Zealand
org:country_of_headquarters	Studios d'Épinay	France
org:country_of_headquarters	Ad Vitam Distribution	France
org:country_of_headquarters	EF English Live	Switzerland
org:country_of_headquarters	Further Films	United States of America
org:country_of_headquarters	Madshus	Norway
org:country_of_headquarters	DarXabre	Netherlands
org:country_of_headquarters	RoseVeRte	Japan
org:country_of_headquarters	Deskera	Singapore
org:country_of_headquarters	Réseau Luxembourgeois des Amateurs d'Ondes Courtes	Luxembourg
org:country_of_headquarters	Dodin Campenon-Bernard	France
org:country_of_headquarters	International Institute for Sport Science and Fitness Training	South Africa
org:country_of_headquarters	BET UK	United Kingdom
org:country_of_headquarters	Nation of Islam	United States of America
org:country_of_headquarters	SIA Engineering Company	Singapore
org:country_of_headquarters	Leonisa	Colombia
org:country_of_headquarters	Friday Film House	India
org:country_of_headquarters	Aquila Films	Italy
org:country_of_headquarters	Erdogan Group	Turkey
org:country_of_headquarters	Air Malta	Malta
org:country_of_headquarters	Les Productions du Trésor	France
org:country_of_headquarters	BRAFA	Belgium
org:country_of_headquarters	Tecnomare	Italy
org:country_of_headquarters	OCB	France
org:country_of_headquarters	Ninsee	Netherlands
org:country_of_headquarters	Shinjin Motors	South Korea
org:country_of_headquarters	Genre Films	United States of America
org:country_of_headquarters	Silversea Cruises	Monaco
org:country_of_headquarters	Seibu Kaihatsu	Japan
org:country_of_headquarters	Carousell	Singapore
org:country_of_headquarters	Toaplan	Japan
org:country_of_headquarters	National Geographic People	Singapore
org:country_of_headquarters	First Capital Insurance Limited	Singapore
org:country_of_headquarters	VDL Berkhof	Netherlands
org:country_of_headquarters	Ubu Productions	United States of America
org:country_of_headquarters	Kita-Osaka Kyūkō Railway	Japan
org:country_of_headquarters	International Hydrographic Organization	Monaco
org:country_of_headquarters	Europeana	Netherlands
org:country_of_headquarters	OpenTaal	Netherlands
org:country_of_headquarters	Uptown Records	United States of America
org:country_of_headquarters	Vivaldi Technologies	Iceland
org:country_of_headquarters	Voltaic Revolutionary Communist Party	Burkina Faso
org:country_of_headquarters	Legacy Recordings	United States of America
org:country_of_headquarters	Suomen Hiihtoliitto	Finland
org:country_of_headquarters	China Glaze Co. Ltd	Taiwan
org:country_of_headquarters	Systems on Silicon Manufacturing Co. Pte. Ltd.	Singapore
org:country_of_headquarters	Le Lombard	Belgium
org:country_of_headquarters	Bolsa de Valores de Cabo Verde	Cape Verde
org:country_of_headquarters	Marktplaats.nl	Netherlands
org:country_of_headquarters	Thinking Rabbit	Japan
org:country_of_headquarters	Angelic Informatics LTD	United Kingdom
org:country_of_headquarters	Anex tour	Russia
org:country_of_headquarters	Human Entertainment	Japan
org:country_of_headquarters	The Britons	United Kingdom
org:country_of_headquarters	Chuang Yi	Singapore
org:country_of_headquarters	International Wushu Federation	People's Republic of China
org:country_of_headquarters	Wuzhou Film Distribution	People's Republic of China
org:country_of_headquarters	GICR	Russia
org:country_of_headquarters	The Adventure Company	Canada
org:country_of_headquarters	Amaq News Agency	Iraq
org:country_of_headquarters	Amaq News Agency	Syria
org:country_of_headquarters	Golden Key International Honour Society	United States of America
org:country_of_headquarters	PostBank	New Zealand
org:country_of_headquarters	Kamakshi Movies	India
org:country_of_headquarters	MaximaTelecom	Russia
org:country_of_headquarters	Singapore International Arbitration Centre	Singapore
org:country_of_headquarters	Club Sport Emelec	Ecuador
org:country_of_headquarters	UK Municipal Bonds Agency	United Kingdom
org:country_of_headquarters	Verigy	Singapore
org:country_of_headquarters	Egyptian Communist Party	Egypt
org:country_of_headquarters	Moov Centrafrique	Central African Republic
org:country_of_headquarters	Organization of Modern Extreme Grappling Arts	United States of America
org:country_of_headquarters	Centre for Research on Multinational Corporations	Netherlands
org:country_of_headquarters	Woellmer Type Foundry	Germany
org:country_of_headquarters	Ethiopian Social Democratic Party	Ethiopia
org:country_of_headquarters	Ward LaFrance Truck Corporation	United States of America
org:country_of_headquarters	Spyker	Netherlands
org:country_of_headquarters	Women's National Basketball Association	United States of America
org:country_of_headquarters	Revolutionary Antifascist Patriotic Front	France
org:country_of_headquarters	MultiThématiques	France
org:country_of_headquarters	Flywest	France
org:country_of_headquarters	Democratic Movement – United Georgia	Georgia
org:country_of_headquarters	EnergyCasino	Malta
org:country_of_headquarters	Iraqi National Accord	Iraq
org:country_of_headquarters	International Association for Analytical Psychology	United States of America
org:country_of_headquarters	Singapore Press Holdings	Singapore
org:country_of_headquarters	Nintendo Research & Development 1	Japan
org:country_of_headquarters	Alpha Trains	Luxembourg
org:country_of_headquarters	Ekibastuz GRES-1	Kazakhstan
org:country_of_headquarters	Telfort	Netherlands
org:country_of_headquarters	Monetary Authority of Singapore	Singapore
org:country_of_headquarters	SBS Transit	Singapore
org:country_of_headquarters	Eleveneleven	United States of America
org:country_of_headquarters	Nintendo Research & Development 2	Japan
org:country_of_headquarters	Celio	France
org:country_of_headquarters	Digitant Consulting Pvt Ltd	India
org:country_of_headquarters	Nasza-klasa.pl	Poland
org:country_of_headquarters	Sammarinese Socialist Party	San Marino
org:country_of_headquarters	GameDaily	United States of America
org:country_of_headquarters	Philco	United States of America
org:country_of_headquarters	Aéropostale	France
org:country_of_headquarters	Kalpana (company)	United States of America
org:country_of_headquarters	Jugend Eine Welt	Austria
org:country_of_headquarters	Project Reason	United States of America
org:country_of_headquarters	Sociedad Española de Construcción Naval	Spain
org:country_of_headquarters	Borletti Group	Luxembourg
org:country_of_headquarters	ICAMAP	Luxembourg
org:country_of_headquarters	Millicom	Luxembourg
org:country_of_headquarters	Daelim Motor	South Korea
org:country_of_headquarters	EXEFI	France
org:country_of_headquarters	Société des transports Abidjanais	Côte d'Ivoire
org:country_of_headquarters	Uagadou	Uganda
org:country_of_headquarters	Castelobruxo	Brazil
org:country_of_headquarters	Koldovstoretz	Russia
org:country_of_headquarters	Variscite	Israel
org:country_of_headquarters	Hartwell Journal of Medicine	United States of America
org:country_of_headquarters	Van der Valk	Netherlands
org:country_of_headquarters	WIN	Belgium
org:country_of_headquarters	Vitality Corporate Services	United Kingdom
org:country_of_headquarters	Banque Transatlantique	France
org:country_of_headquarters	Youth Information Service of Kazakhstan	Kazakhstan
org:country_of_headquarters	General Company for Maritime Transport	Iraq
org:country_of_headquarters	5asec	France
org:country_of_headquarters	AABB	United States of America
org:country_of_headquarters	Axa Bank Europe	Belgium
org:country_of_headquarters	Abbey National	United Kingdom
org:country_of_headquarters	Aceair	Switzerland
org:country_of_headquarters	Agence des participations de l'État	France
org:country_of_headquarters	Les Ailes de la Mode	Canada
org:country_of_headquarters	Air Partner PLC	United Kingdom
org:country_of_headquarters	Aires Mateus	Portugal
org:country_of_headquarters	Alain Afflelou	France
org:country_of_headquarters	Poste Algérie	Algeria
org:country_of_headquarters	Allgemeine Gesellschaft der Schweizerischen Uhrenindustrie	Switzerland
org:country_of_headquarters	American Car and Foundry Company	United States of America
org:country_of_headquarters	American Society of Media Photographers	United States of America
org:country_of_headquarters	Apricot Computers	United Kingdom
org:country_of_headquarters	Arxel Tribe	Slovenia
org:country_of_headquarters	ASSEDIC	France
org:country_of_headquarters	Singapore Weiqi Association	Singapore
org:country_of_headquarters	Au Départ	France
org:country_of_headquarters	Audio Research	United States of America
org:country_of_headquarters	Aurecon	Singapore
org:country_of_headquarters	Azamara Club Cruises	United States of America
org:country_of_headquarters	Multiestetica	Spain
org:country_of_headquarters	BAC Films	France
org:country_of_headquarters	BG-TURK	Turkey
org:country_of_headquarters	TreeBox Solutions Pte Ltd	Singapore
org:country_of_headquarters	Thinkswap	Australia
org:country_of_headquarters	FreshTunes	United Arab Emirates
org:country_of_headquarters	Harley Street Medical Supplies	United Kingdom
org:country_of_headquarters	IDNPLAY	Philippines
org:country_of_headquarters	R&S Ceiling Installations Limited	Trinidad and Tobago
org:country_of_headquarters	Women of the Wall	Israel
org:country_of_headquarters	QAD Inc	United States of America
org:country_of_headquarters	Big Ape Productions	United States of America
org:country_of_headquarters	acetylleucine	France
org:country_of_headquarters	Keshet Broadcasting	Israel
org:country_of_headquarters	Netafim	Israel
org:country_of_headquarters	Íslandspóstur	Iceland
org:country_of_headquarters	Bricoman	France
org:country_of_headquarters	CAOZ	Iceland
org:country_of_headquarters	CAMPOST	Cameroon
org:country_of_headquarters	Agence française de coopération médias	France
org:country_of_headquarters	Cellectis	France
org:country_of_headquarters	Center for Research and Restoration of Museums of France	France
org:country_of_headquarters	"International Centre for Diarrhoeal Disease Research, Bangladesh"	Bangladesh
org:country_of_headquarters	Comet Group	United Kingdom
org:country_of_headquarters	Charbonnages de France	France
org:country_of_headquarters	Charles Oudin	France
org:country_of_headquarters	Chaumet	France
org:country_of_headquarters	"ARP Instruments, Inc."	United States of America
org:country_of_headquarters	Corus Québec	Canada
org:country_of_headquarters	Mod DB	Australia
org:country_of_headquarters	Compagnie des mines de Crespin	France
org:country_of_headquarters	Compagnie générale transaérienne	France
org:country_of_headquarters	Comptoir des Cotonniers	France
org:country_of_headquarters	"Confédération Nationale de la Mutualité, de la Coopération et du Crédit Agricoles"	France
org:country_of_headquarters	CIT Le Richelain	Canada
org:country_of_headquarters	CIT Roussillon	Canada
org:country_of_headquarters	Garena	Singapore
org:country_of_headquarters	Cottin SAS	France
org:country_of_headquarters	Craig Wireless	Canada
org:country_of_headquarters	Indonesian Red Cross Society	Indonesia
org:country_of_headquarters	Crédit Commercial de France	France
org:country_of_headquarters	Crédit Foncier de France	France
org:country_of_headquarters	dV Giochi	Italy
org:country_of_headquarters	D3M	France
org:country_of_headquarters	Dane-Elec	France
org:country_of_headquarters	Northwest Synergistic Software	United States of America
org:country_of_headquarters	Dinamic Software	Spain
org:country_of_headquarters	Discovery Holding Company	United States of America
org:country_of_headquarters	Divide By Zero	United Kingdom
org:country_of_headquarters	Austrian Mathematical Society	Austria
org:country_of_headquarters	Austrian Physical Society	Austria
org:country_of_headquarters	"Duluth, Missabe and Iron Range Railway"	United States of America
org:country_of_headquarters	Dynamic Structures	Canada
org:country_of_headquarters	Sirius Systems Technology	United States of America
org:country_of_headquarters	Minipreço	Portugal
org:country_of_headquarters	Elcoteq	Luxembourg
org:country_of_headquarters	Mopar	United States of America
org:country_of_headquarters	E. Remington and Sons	United States of America
org:country_of_headquarters	Easynet	United Kingdom
org:country_of_headquarters	Omega Force	Japan
org:country_of_headquarters	EPOS Game Studios	Sweden
org:country_of_headquarters	Europorte Channel	France
org:country_of_headquarters	"Evellin, goldsmith"	France
org:country_of_headquarters	Famous Studios	United States of America
org:country_of_headquarters	Fauré Le Page	France
org:country_of_headquarters	Fermentek	Israel
org:country_of_headquarters	TV Cultura	Brazil
org:country_of_headquarters	Au	Japan
org:country_of_headquarters	Heartbeat	Japan
org:country_of_headquarters	Folkspartei	Poland
org:country_of_headquarters	Rede Tupi	Brazil
org:country_of_headquarters	Fondation Gabriel-Péri	France
org:country_of_headquarters	Tunisian National Solidarity Fund	Tunisia
org:country_of_headquarters	rosenblum salmnber	Russia
org:country_of_headquarters	Fraser Milner Casgrain	Canada
org:country_of_headquarters	Fraser and Neave	Singapore
org:country_of_headquarters	Spanish National Liberation Front	Belgium
org:country_of_headquarters	French Federation of Go	France
org:country_of_headquarters	GAE	Japan
org:country_of_headquarters	Gamesville	United States of America
org:country_of_headquarters	Universal abit	Taiwan
org:country_of_headquarters	Greco guitars	Japan
org:country_of_headquarters	La Mère Poulard	France
org:country_of_headquarters	Kidiliz group	France
org:country_of_headquarters	Guardian Life Insurance Company of America	United States of America
org:country_of_headquarters	H3 Pharma	France
org:country_of_headquarters	Hit and Run Productions	United Kingdom
org:country_of_headquarters	Hobby Japan	Japan
org:country_of_headquarters	DigiWorld by IDATE	France
org:country_of_headquarters	Image-Line	Belgium
org:country_of_headquarters	Institut d'émission d'outre-mer	France
org:country_of_headquarters	"Iris Pharma, an ophthalmology-focused CRO"	France
org:country_of_headquarters	Communist Party of Spain (Reconstituted)	France
org:country_of_headquarters	Kami	France
org:country_of_headquarters	Kheops Studio	France
org:country_of_headquarters	Kulte	France
org:country_of_headquarters	Urgo	France
org:country_of_headquarters	Laboratoires Lehning	France
org:country_of_headquarters	Le Drapeau rouge	Belgium
org:country_of_headquarters	Les Sept Couleurs	France
org:country_of_headquarters	Les réveils Bayard	France
org:country_of_headquarters	Lig TV	Turkey
org:country_of_headquarters	Linuxfr	France
org:country_of_headquarters	Festival Cruises	Greece
org:country_of_headquarters	Regent Hotels & Resorts	United States of America
org:country_of_headquarters	Lopert Films	United States of America
org:country_of_headquarters	Loriciels	France
org:country_of_headquarters	SMRT Corporation	Singapore
org:country_of_headquarters	CapitaLand	Singapore
org:country_of_headquarters	MSTelcom	Angola
org:country_of_headquarters	MTN Côte d'Ivoire	Côte d'Ivoire
org:country_of_headquarters	MTN Cameroon	Cameroon
org:country_of_headquarters	Tonkam	France
org:country_of_headquarters	Mangrove Capital Partners	Luxembourg
org:country_of_headquarters	Animal Equality	Spain
org:country_of_headquarters	Mauboussin	France
org:country_of_headquarters	National-Report	Colombia
org:country_of_headquarters	Mecaplast Group	Monaco
org:country_of_headquarters	Miss Thailand World	Thailand
org:country_of_headquarters	Miss Chinese Taipei	Taiwan
org:country_of_headquarters	Miss Zimbabwe	Zimbabwe
org:country_of_headquarters	Miss Universe Ethiopia	Ethiopia
org:country_of_headquarters	Mo'men	Egypt
org:country_of_headquarters	Norauto	France
org:country_of_headquarters	Mondial	Netherlands
org:country_of_headquarters	Opera Soft	Spain
org:country_of_headquarters	Communist Unification of Spain	Spain
org:country_of_headquarters	The Curiosity Company	United States of America
org:country_of_headquarters	Moynat	France
org:country_of_headquarters	The Muppets Studio	United States of America
org:country_of_headquarters	NG.DEV.TEAM	Germany
org:country_of_headquarters	Spendrups	Sweden
org:country_of_headquarters	National Life Finance Corporation	Japan
org:country_of_headquarters	National Reso-Phonic Guitars	United States of America
org:country_of_headquarters	new man clothing	France
org:country_of_headquarters	Oregon Railroad and Navigation Company	United States of America
org:country_of_headquarters	Palm Pictures	United States of America
org:country_of_headquarters	Northland Resources	Luxembourg
org:country_of_headquarters	Paris Store	France
org:country_of_headquarters	United Issarak Front	Cambodia
org:country_of_headquarters	honeAndPhone.com	France
org:country_of_headquarters	Filmax International	Spain
org:country_of_headquarters	Sega Wow	Japan
org:country_of_headquarters	Powell and Pressburger	United Kingdom
org:country_of_headquarters	ProKennex	Singapore
org:country_of_headquarters	Rabot Dutilleul	France
org:country_of_headquarters	Rackham	France
org:country_of_headquarters	Norwegian State Agriculture Bank	Norway
org:country_of_headquarters	Red 5 Comics	United States of America
org:country_of_headquarters	Repossi	Italy
org:country_of_headquarters	Acronis	Singapore
org:country_of_headquarters	Roady	France
org:country_of_headquarters	Zone for Employment and Economic Development	Honduras
org:country_of_headquarters	Société française pour le commerce avec l'Outre-mer	France
org:country_of_headquarters	Socimi	Italy
org:country_of_headquarters	Sabena technics	France
org:country_of_headquarters	Safran Electronics & Defense	France
org:country_of_headquarters	Mauritanian Post Company	Mauritania
org:country_of_headquarters	Saintéloc Racing	France
org:country_of_headquarters	Seishinsha	Japan
org:country_of_headquarters	Shaw Theatre	Singapore
org:country_of_headquarters	Singapore Petroleum Company	Singapore
org:country_of_headquarters	ST Kinetics	Singapore
org:country_of_headquarters	Sixpack France	France
org:country_of_headquarters	Canadian Paediatric Society	Canada
org:country_of_headquarters	Nuclear Waste Management Organization (Canada)	Canada
org:country_of_headquarters	Société industrielle des téléphones	France
org:country_of_headquarters	Société mycologique de France	France
org:country_of_headquarters	Sofradir	France
org:country_of_headquarters	Transport Scolaire Sogesco	Canada
org:country_of_headquarters	Solo Mobile	Canada
org:country_of_headquarters	Someca	France
org:country_of_headquarters	Spring Court	France
org:country_of_headquarters	Steeden	Australia
org:country_of_headquarters	Avions Voisin	France
org:country_of_headquarters	Author	Czech Republic
org:country_of_headquarters	Telepace	Italy
org:country_of_headquarters	Telescreen	Netherlands
org:country_of_headquarters	The Logic Factory	United States of America
org:country_of_headquarters	Topcraft	Japan
org:country_of_headquarters	Birla Industrial & Technological Museum	India
org:country_of_headquarters	Nera	Norway
org:country_of_headquarters	My Israel	Israel
org:country_of_headquarters	United Media	United States of America
org:country_of_headquarters	Plitt Theatres	United States of America
org:country_of_headquarters	UNEDIC	France
org:country_of_headquarters	Veja Sneakers	France
org:country_of_headquarters	Adem	Italy
org:country_of_headquarters	Vinci Airports	France
org:country_of_headquarters	Virgin Mobile France	France
org:country_of_headquarters	Viet Tan	United States of America
org:country_of_headquarters	CYTA	Cyprus
org:country_of_headquarters	Walt Disney Attractions Japan	Japan
org:country_of_headquarters	Walt Disney World Company	United States of America
org:country_of_headquarters	William Clark & Sons	United Kingdom
org:country_of_headquarters	William Saurin	France
org:country_of_headquarters	Windmill Software	Canada
org:country_of_headquarters	Xerfi	France
org:country_of_headquarters	Yamato Holdings	Japan
org:country_of_headquarters	Zadig & Voltaire	France
org:country_of_headquarters	Zenith Data Systems	France
org:country_of_headquarters	Zoo Corporation	Japan
org:country_of_headquarters	Canadian Forces Exchange System	Canada
org:country_of_headquarters	Éditions Hortus	France
org:country_of_headquarters	Peace TV	United Arab Emirates
org:country_of_headquarters	ALcot	Japan
org:country_of_headquarters	Aerospace Medical Association	United States of America
org:country_of_headquarters	Arflex	Italy
org:country_of_headquarters	EMI Records	United Kingdom
org:country_of_headquarters	British UFO Research Association	United Kingdom
org:country_of_headquarters	Office 1 Superstore	United States of America
org:country_of_headquarters	Nippon Paint	Japan
org:country_of_headquarters	Cassa di Risparmio della Repubblica di San Marino	San Marino
org:country_of_headquarters	Dolgoprudnenskoe Scientific Production Plant	Russia
org:country_of_headquarters	Disneyland Records	United States of America
org:country_of_headquarters	Google Reader	United States of America
org:country_of_headquarters	Dog Eat Dog Films	United States of America
org:country_of_headquarters	People's Action Party	Singapore
org:country_of_headquarters	ST Engineering	Singapore
org:country_of_headquarters	"American Society of Composers, Authors and Publishers"	United States of America
org:country_of_headquarters	Tricolor TV	Russia
org:country_of_headquarters	Boeing Helicopters	United States of America
org:country_of_headquarters	Giochi Preziosi	Italy
org:country_of_headquarters	Historical Diving Society	United Kingdom
org:country_of_headquarters	Image Works	United Kingdom
org:country_of_headquarters	Isadora Records	Canada
org:country_of_headquarters	Italia Guitars	South Korea
org:country_of_headquarters	Western Somali Democratic Party	Ethiopia
org:country_of_headquarters	ASEES	Spain
org:country_of_headquarters	Safelayer Secure Communications	Spain
org:country_of_headquarters	LEN	Luxembourg
org:country_of_headquarters	Compile	Japan
org:country_of_headquarters	McCulloch Motors Corporation	United States of America
org:country_of_headquarters	Mentadent	Netherlands
org:country_of_headquarters	New Zealand Skeptics	New Zealand
org:country_of_headquarters	Charles & Keith	Singapore
org:country_of_headquarters	Oh! Production	Japan
org:country_of_headquarters	SyQuest Technology	United States of America
org:country_of_headquarters	Age Concern	United Kingdom
org:country_of_headquarters	RDI Video Systems	United States of America
org:country_of_headquarters	Radiant Records	United States of America
org:country_of_headquarters	Rai Cinema	Italy
org:country_of_headquarters	Agoda	Singapore
org:country_of_headquarters	Silvio Berlusconi Communications	Italy
org:country_of_headquarters	Società del quartetto di Milano	Italy
org:country_of_headquarters	Som Livre	Brazil
org:country_of_headquarters	Spalax	France
org:country_of_headquarters	Tandem Productions	United States of America
org:country_of_headquarters	Tandon Corporation	United States of America
org:country_of_headquarters	Triumph Films	United States of America
org:country_of_headquarters	Wildfire Games	United States of America
org:country_of_headquarters	Zoth Ommog Records	Germany
org:country_of_headquarters	Plasq	United States of America
org:country_of_headquarters	AMBRA Computer Corporation	United States of America
org:country_of_headquarters	BG Capital	Ukraine
org:country_of_headquarters	Baltic Aviation Academy	Lithuania
org:country_of_headquarters	Beyond Software	United Kingdom
org:country_of_headquarters	Bits Studios	United Kingdom
org:country_of_headquarters	Bluehole Studio	South Korea
org:country_of_headquarters	Boomstarter	Russia
org:country_of_headquarters	CAS Corporation	South Korea
org:country_of_headquarters	CD Projekt Investment	Poland
org:country_of_headquarters	City Wok	United States of America
org:country_of_headquarters	Cityline	Russia
org:country_of_headquarters	Crocus Group	Russia
org:country_of_headquarters	EX.UA	Ukraine
org:country_of_headquarters	Experimenter Publishing	United States of America
org:country_of_headquarters	GiveALink.org	United States of America
org:country_of_headquarters	Headup Games	Germany
org:country_of_headquarters	Lifespring	United States of America
org:country_of_headquarters	Marshall Cavendish	Singapore
org:country_of_headquarters	Merko Ehitus	Estonia
org:country_of_headquarters	Moldova Agroindbank	Moldova
org:country_of_headquarters	Morison International	United Kingdom
org:country_of_headquarters	Mr. Sandy	United States of America
org:country_of_headquarters	MStar Semiconductor	Taiwan
org:country_of_headquarters	Nigerian Postal Service	Nigeria
org:country_of_headquarters	OPEN CASCADE	France
org:country_of_headquarters	Old-Games.RU	Russia
