org:alternate_names	Médecins Sans Frontières	MSF
org:alternate_names	Jewish Combat Organization	ŻOB
org:alternate_names	American Economic Association	AEA
org:alternate_names	ARD	ARD
org:alternate_names	Société Nouvelle des Forges et Chantiers de la Méditerranée	FCM
org:alternate_names	Center for Jewish–Christian Understanding and Cooperation	CJCUC
org:alternate_names	International Earth Rotation and Reference Systems Service	IERS
org:alternate_names	Messageries Maritimes	MM
org:alternate_names	European Economic Association	EEA
org:alternate_names	StudierendenGesellschaft Witten/Herdecke	SG
org:alternate_names	Servicio Nacional de Cereales	SNC
org:alternate_names	Society for the Study of the Amur Region	ОИАК
org:alternate_names	Chilean Safety Association	ACHS
org:alternate_names	European Materials Handling Federation	FEM
org:alternate_names	Servicio Nacional del Trigo	SNT
org:alternate_names	International League against Racism and Anti-Semitism	LICRA
org:alternate_names	Foundation for the Development of the Education System	FRSE
org:alternate_names	The Expert Group on Future Skills Needs	GSRST
org:alternate_names	Democratic Union of Slovaks and Czechs of Romania	UDSCR
org:alternate_names	Fondo Español de Garantía Agraria	FEGA
org:alternate_names	K.A.A. Gent	Τα Βουβάλια
org:alternate_names	FC Anzhi Makhachkala	Άγρια μεραρχία
org:alternate_names	IRC	irkki
org:alternate_names	Paris	Ville-Lumière
org:alternate_names	Athletic Club	Rojiblancos
org:alternate_names	Athletic Club	Los Leones
org:alternate_names	PSFC Chernomorets Burgas	Οι καρχαρίες
org:alternate_names	Southampton F.C.	Οι Άγιοι
org:alternate_names	AC Omonia	Το Τριφύλλι
org:alternate_names	AC Omonia	Ομάδα του Λαού
org:alternate_names	AC Omonia	Οι Πράσινοι
org:alternate_names	A.C.R. Messina	Κιτρινοκόκκινοι
org:alternate_names	Leicester City F.C.	The Foxes
org:alternate_names	Leicester City F.C.	Οι Αλεπούδες
org:alternate_names	K.S.C. Lokeren Oost-Vlaanderen	Οι τρίχρωμοι
org:alternate_names	Stoke City F.C.	The Potters
org:alternate_names	Exeter City F.C.	Οι Ελληνιστές
org:alternate_names	Exeter City F.C.	The Grecians
org:alternate_names	KF Teuta Durrës	Παιδιά της θάλασσας
org:alternate_names	Norwich City F.C.	Τα Καναρίνια
org:alternate_names	Derry City F.C.	The Candystripes
org:alternate_names	Bradford City A.F.C.	Το μικρό πουλερικό
org:alternate_names	Bath City F.C.	The Romans
org:alternate_names	Bristol City F.C.	Οι Ρόμπινς
org:alternate_names	Anorthosis Famagusta FC	Μεγάλη Κυρία
org:alternate_names	Anorthosis Famagusta FC	Οι Κυανόλευκοι
org:alternate_names	American Public University System	APUS
org:alternate_names	University of Delhi	DU
org:alternate_names	C. J. Cregg	Flamingo
org:alternate_names	Tagbilaran	City of Peace and Friendship
org:alternate_names	Empoli F.C.	Μπλε
org:alternate_names	Associazione Sportiva Livorno Calcio	Βισσινοί
org:alternate_names	Ipswich Town F.C.	Οι Τρακτεράδες
org:alternate_names	Ipswich Town F.C.	Οι Γαλάζιοι
org:alternate_names	Windows 7	Vienna
org:alternate_names	Windows 7	Blackcomb
org:alternate_names	Windows Vista	Longhorn
org:alternate_names	Windows XP	Whistler
org:alternate_names	Gateshead F.C.	The Tynesiders
org:alternate_names	Gateshead F.C.	The Heed
org:alternate_names	Grimsby Town F.C.	Mighty Mariners
org:alternate_names	Grimsby Town F.C.	The Mariners
org:alternate_names	Grimsby Town F.C.	Town
org:alternate_names	Stockport County F.C.	Κάουντι
org:alternate_names	Stockport County F.C.	Καπελλάδες
org:alternate_names	Manchester United F.C.	Οι Κόκκινοι Διάβολοι
org:alternate_names	Manchester United F.C.	Red devils
org:alternate_names	Chelsea F.C.	Οι Συνταξιούχοι
org:alternate_names	Chelsea F.C.	Οι Μπλε
org:alternate_names	Fulham F.C.	The Cottagers
org:alternate_names	Newcastle United F.C.	Οι Καρακάξες
org:alternate_names	Sheffield F.C.	Ο Σύλλογος
org:alternate_names	Cambridge United F.C.	The U's
org:alternate_names	Cambridge United F.C.	United
org:alternate_names	Leyton Orient F.C.	Orient
org:alternate_names	Leyton Orient F.C.	The O's
org:alternate_names	Hannover 96	Οι Κόκκινοι
org:alternate_names	flag of the United States of America	The Star-Spangled Banner
org:alternate_names	flag of the United States of America	Old Glory
org:alternate_names	Wigan Athletic F.C.	The Latics
org:alternate_names	Accrington Stanley F.C.	Στάνλεϊ
org:alternate_names	Bristol Rovers F.C.	Οι πειρατές
org:alternate_names	Bolton Wanderers F.C.	The Trotters
org:alternate_names	Huddersfield Town F.C.	Οι Τεριέ
org:alternate_names	Plymouth Argyle F.C.	Οι Προσκυνητές
org:alternate_names	Hamburger SV	Οι Δεινόσαυροι
org:alternate_names	Nottingham Forest F.C.	Δάσος
org:alternate_names	A.S. Mont-Dore	Μελανέρυθροι
org:alternate_names	Minglanilla	Sugat Capital of the south
org:alternate_names	Rosario Central	Τα Καθάρματα
org:alternate_names	Rosario Central	Η Ακαδημία του Ροσάριο
org:alternate_names	A.S. Saint-Étienne	Οι πράσινοι
org:alternate_names	A.S. Saint-Étienne	Στεφανουά
org:alternate_names	A.S. Saint-Étienne	Σαιντέ
org:alternate_names	L.A.S.K. Linz	Οι Μαύροι-Λευκοί
org:alternate_names	A.S. Nancy-Lorraine	Τα Γαϊδουράγκαθα
org:alternate_names	Bury F.C.	The Shakers
org:alternate_names	Amway Arena	O-rena
org:alternate_names	Thirteen	Trinástka
org:alternate_names	Thirteen	Dreizehn
org:alternate_names	Thirteen	Thirteen
org:alternate_names	Leopold Bloom	Mackerel
org:alternate_names	Leopold Bloom	Poldy
org:alternate_names	SNCF BB 16500	Danseuses
org:alternate_names	USS Leahy	Sweet 16
org:alternate_names	Racing de Córdoba	Club Atlético Racing
org:alternate_names	PFC Slavia Sofia	Οι Λευκοί
org:alternate_names	1. FC Magdeburg	Der Club
org:alternate_names	A.F.C. Ajax	Γιοι των θεών
org:alternate_names	A.F.C. Ajax	Εβραίοι
org:alternate_names	USS Dwight D. Eisenhower	Mighty Ike
org:alternate_names	Alki Larnaca F.C.	Αθάνατη
org:alternate_names	Vyzas F.C.	Κιτρινόμαυροι
org:alternate_names	PFC CSKA - Sofia	Οι στρατιώτες
org:alternate_names	PFC CSKA - Sofia	Οι κόκκινοι
org:alternate_names	FK Qarabağ	Ιππείς
org:alternate_names	USS Harry S. Truman	HST
org:alternate_names	USS Harry S. Truman	Lone Warrior
org:alternate_names	FC Ingolstadt 04	Die Schanzer
org:alternate_names	Tarzan	Tarzan
org:alternate_names	4-4-2	Atlantic
org:alternate_names	Odakyu 50000 series VSE	Vault Super Express
org:alternate_names	Digenis Akritas Morphou FC	Ο Φονέας των Γιγάντων
org:alternate_names	VR Class Sr2	Alppiruusu
org:alternate_names	VR Class Sr2	Möhkö
org:alternate_names	VR Class Sr2	Käkikello
org:alternate_names	VR Class Sr2	Marsu
org:alternate_names	Sasshō Line	学園都市線
org:alternate_names	Gold Coast Football Club	Suns
org:alternate_names	Leeds United A.F.C.	Τα Παγώνια
org:alternate_names	Leeds United A.F.C.	Ένωση
org:alternate_names	Club Atlético Independiente	Κόκκινοι Διάβολοι
org:alternate_names	Delhi Technological University	DTU
org:alternate_names	Delhi Technological University	DELTECH
org:alternate_names	Delhi Technological University	DCE
org:alternate_names	Windows 10	Threshold
org:alternate_names	Windows 10	Redstone
org:alternate_names	AC Arles	ACA
org:alternate_names	AC Arles	Les Lions
org:alternate_names	USS George H.W. Bush	Avenger
org:alternate_names	Waseda University	Sōdai
org:alternate_names	Waseda University	早大
org:alternate_names	Symphony No. 93	De Londres
org:alternate_names	HMS Ocean (L12)	The Mighty O
org:alternate_names	SBB-CFF-FFS C 5/6	Elefant
org:alternate_names	Molly Bloom	Molly
org:alternate_names	Sam Seaborn	Princeton
org:alternate_names	Symphony No. 96	Miracle
org:alternate_names	Max Rockatansky	Max
org:alternate_names	Max Rockatansky	Mad Max
org:alternate_names	Richmond Football Club	Tigers
org:alternate_names	2nd Cavalry Division	Buffalo Soldiers
org:alternate_names	HMS St Albans	The Saint
org:alternate_names	"Regimiento Reforzado n.º 17 ""Los Ángeles"""	Los Ángeles
org:alternate_names	Baltimore and Ohio C-16 class	Little Joe
org:alternate_names	Milly Bloom	Milly
org:alternate_names	NZR WJ class	Jumbo
org:alternate_names	Odakyu 30000 series EXE	EXE
org:alternate_names	Seibu 5000 series	レッドアロー
org:alternate_names	Seibu 5000 series	Red Arrow
org:alternate_names	British Rail Class 206	Tadpole
org:alternate_names	Lars	Lasse
org:alternate_names	Sarkkiranta Pesäpallo Stadium	Sininen laguuni
org:alternate_names	"Tommy ""The Machine"" Gunn"	The Machine
org:alternate_names	Major Bill Cage	Bill
org:alternate_names	Carmen	Carmencita
org:alternate_names	Joseph Hynes (Ulysses character)	Joe
org:alternate_names	J. J. O’Molloy (Ulysses character)	Jack
org:alternate_names	Nord 2.311 to 2.380	Ravachol
org:alternate_names	Beatrice Prior	Tris
org:alternate_names	Jadavpur University	যদুপুর
org:alternate_names	Jadavpur University	JU
org:alternate_names	Josiah Bartlet	Jed Bartlet
org:alternate_names	Josiah Bartlet	Eagle
org:alternate_names	West Coast Eagles	Eagles
org:alternate_names	SNCF 040.DF.1 later BB 60041	Brigitte
org:alternate_names	Princess Patricia's Canadian Light Infantry	The Pats
org:alternate_names	Princess Patricia's Canadian Light Infantry	The Picklies
org:alternate_names	Princess Patricia's Canadian Light Infantry	Princess Pat's
org:alternate_names	Princess Patricia's Canadian Light Infantry	The Patricias
org:alternate_names	Princess Patricia's Canadian Light Infantry	VP
org:alternate_names	Windows 8.1	Blue
org:alternate_names	flag of the United Kingdom	Union Jack
org:alternate_names	1. FSV Mainz 05	Die Nullfünfer
org:alternate_names	1. FSV Mainz 05	Karnevalsverein
org:alternate_names	Ingjald	il Malgovernante
org:alternate_names	Ingjald	Illråde
org:alternate_names	Ingjald	the Ill-ruler
org:alternate_names	Ingjald	il Malconsigliante
org:alternate_names	Ingjald	the Ill-ready
org:alternate_names	APOEL F.C.	Οι Γαλαζοκίτρινοι
org:alternate_names	APOEL F.C.	Θρύλος
org:alternate_names	PFC Levski Sofia	ΟΙ Μπλε
org:alternate_names	PFC Levski Sofia	Η ομάδα του λαού
org:alternate_names	PFC Levski Sofia	Η μπλε χιονοστιβάδα
org:alternate_names	S.L. Benfica	Águias
org:alternate_names	S.L. Benfica	Encarnados
org:alternate_names	S.L. Benfica	Glorioso
org:alternate_names	Indiana Jones	Indy
org:alternate_names	Boca Juniors	Γενοβέζοι
org:alternate_names	A.S. Monaco F.C.	Οι κόκκινοι και άσπροι
org:alternate_names	Symphony No. 22	Filòsof
org:alternate_names	Neftchi Baku PFC	Πετρελαιοεργάτες
org:alternate_names	Neftchi Baku PFC	Ναυαρχίδα
org:alternate_names	Neftchi Baku PFC	Εθνικη Ομαδα
org:alternate_names	Newell's Old Boys	Λεπροί
org:alternate_names	FC Inter Turku	Κυανόμαυροι
org:alternate_names	Milton Keynes Dons F.C.	The Dons
org:alternate_names	Liloan	The Light of the North
org:alternate_names	Ajax Cape Town F.C.	Αστικοί Πολεμιστές
org:alternate_names	Darkseid	Бог зла
org:alternate_names	Darkseid	Босс тёмной стороны
org:alternate_names	Darkseid	Тёмный лорд
org:alternate_names	Darkseid	Ужасный лорд Апоколипса
org:alternate_names	Curtiss NC	Nancy boat
org:alternate_names	Stephen Dedalus	Kinch
org:alternate_names	Stephen Dedalus	Wandering Ængus
org:alternate_names	Stephen Dedalus	Stevie
org:alternate_names	USS Abraham Lincoln	Abe
org:alternate_names	Essendon Football Club	Bombers
org:alternate_names	Symphony No. 7	Temps de tempesta
org:alternate_names	Édifice Marie-Guyart	Complexe G
org:alternate_names	Rifle Brigade (Prince Consort's Own)	The Grasshoppers
org:alternate_names	Rifle Brigade (Prince Consort's Own)	The Sweeps
org:alternate_names	Rifle Brigade (Prince Consort's Own)	The Rifles
org:alternate_names	HMS Invincible	Vince
org:alternate_names	ADtranz DE-AC33C	Blue Tiger
org:alternate_names	Compostela	Land of the Free
org:alternate_names	EMD DDA40X	Centennial
org:alternate_names	PFC Botev Plovdiv	Τα καναρίνια
org:alternate_names	SNCF BB 26000	Sybic
org:alternate_names	Arthur Dent	Monkey-Man
org:alternate_names	Arthur Dent	The sandwich-maker
org:alternate_names	Ebbsfleet United F.C.	The Fleet
org:alternate_names	Ebbsfleet United F.C.	Ο Στόλος
org:alternate_names	Middlesbrough F.C.	Ομάδα
org:alternate_names	The White Rovers	The Rovers
org:alternate_names	Esméralda	La Esmeralda
org:alternate_names	Nea Salamis Famagusta FC	The Red-Whites
org:alternate_names	Nea Salamis Famagusta FC	Οι Ερυθρόλευκοι
org:alternate_names	The Beatles	The Fab Four
org:alternate_names	Barnsley Football Club	The Tykes
org:alternate_names	Barnsley Football Club	The Super Reds
org:alternate_names	Barnsley Football Club	The Reds
org:alternate_names	Barnsley Football Club	The Colliers
org:alternate_names	Symphony No. 43	Mercuri
org:alternate_names	Aviron Bayonnais FC	Txuri-Urdin
org:alternate_names	Barros Blancos	Capitán Juan Antonio Artigas
org:alternate_names	HMS Ark Royal	The Mighty Ark
org:alternate_names	Cebu City	Queen City of the South
org:alternate_names	Cebu City	Oldest City in the Philippines
org:alternate_names	Cebu City	First Capital of the Philippines
org:alternate_names	Buenos Aires	"""La Ciudad De La Furia"""
org:alternate_names	Doncaster Rovers	Donny
org:alternate_names	Wembley F.C.	The Lions
org:alternate_names	Gabala FC	Ραντάρ
org:alternate_names	VR Class Hr1	Ukko-Pekka
org:alternate_names	USS Constitution	Old Ironsides
org:alternate_names	Geelong Football Club	Cats
org:alternate_names	Odakyu 3000 series SE	Super Express
org:alternate_names	NS Class 200	sik
org:alternate_names	Elizabeth Bennet	Eliza
org:alternate_names	Elizabeth Bennet	Lizzy
org:alternate_names	St Kilda Football Club	Saints
org:alternate_names	IBM PCjr	Peanut
org:alternate_names	Newt Scamander	Newt
org:alternate_names	South Melbourne Football Club	Ελλάς
org:alternate_names	Blackburn Rovers F.C.	Rovers
org:alternate_names	Blackburn Rovers F.C.	The Blue and Whites
org:alternate_names	Blackburn Rovers F.C.	The Riversiders
org:alternate_names	Rocky Balboa	Rocky
org:alternate_names	45th Infantry Division	Thunderbird
org:alternate_names	Sydney Swans	Swans
org:alternate_names	A.C. Milan	Κοκκινόμαυροι
org:alternate_names	A.C. Milan	Στο τραμ
org:alternate_names	A.C. Milan	Ο Διάβολος
org:alternate_names	A.C. Milan	Kατσαβίδια
org:alternate_names	Cork GAA	The Blood and Bandage
org:alternate_names	Cork GAA	The Rebels
org:alternate_names	Cork GAA	The Leesiders
org:alternate_names	York City F.C.	The Minstermen
org:alternate_names	Burton Albion F.C.	Brewers
org:alternate_names	Milwaukee	Cream City
org:alternate_names	Milwaukee	Brew City
org:alternate_names	Milwaukee	Mil Town
org:alternate_names	Olympiacos F.C.	Ερυθρόλευκοι
org:alternate_names	Tranmere Rovers F.C.	Super White Army
org:alternate_names	Southend United F.C.	Τα Γαριδάδικα
org:alternate_names	Southend United F.C.	Οι Παράλιοι
org:alternate_names	A.E.K. Athens F.C.	Δικέφαλος
org:alternate_names	Port Adelaide Football Club	Power
org:alternate_names	Port Adelaide Football Club	Magpies
org:alternate_names	Tobu 100 series	スペーシア
org:alternate_names	Tobu 100 series	Spacia
org:alternate_names	Clair Brothers	Clair
org:alternate_names	Clair Brothers	Clair Global
org:alternate_names	Club Universidad de Chile	Η Κουκουβάγια
org:alternate_names	JS Kabylie	Τα λιοντάρια
org:alternate_names	Dodo beer	Dodo
org:alternate_names	"SNCF 060.GA, later CC 80000"	Belphégor
org:alternate_names	Eddie Dean	The Prisoner
org:alternate_names	Symphony No. 5	Di tre re
org:alternate_names	Botafogo	Botafogo
org:alternate_names	Her Majesty's Naval Service	Senior Service
org:alternate_names	Greater Western Sydney Football Club	Giants
org:alternate_names	123d Fighter Squadron	Redhawks
org:alternate_names	Bideford A.F.C.	The Robins
org:alternate_names	Fredrikinkatu	Freda
org:alternate_names	Bonnyrigg Rose Athletic F.C.	The Rose
org:alternate_names	Buck Mulligan	Buck
org:alternate_names	Chaudhary Charan Singh Haryana Agricultural University	HAU
org:alternate_names	Chaudhary Charan Singh University	CCSU
org:alternate_names	USS Portland	Sweet Pea
org:alternate_names	Warrington Wolves	The Wire
org:alternate_names	Northwest Africa 7034	Black Beauty
org:alternate_names	Captain Ahab	Old Thunder
org:alternate_names	North Melbourne Football Club	Kangaroos
org:alternate_names	Ouest 3501 to 3530	Boers
org:alternate_names	PLM 971 to 999	Les Bossues
org:alternate_names	État 231-011 to 231-060	Dieppoises
org:alternate_names	Nord 3.801 to 3.865	Bleriot
org:alternate_names	SNCF 232.U.1	La Divine
org:alternate_names	Geva Binyamin	Adam
org:alternate_names	GER Class R24	buckjumpers
org:alternate_names	HM-19	Goldenbears
org:alternate_names	HSC-3	Merlins
org:alternate_names	Specialist Firearms Command	blue berets
org:alternate_names	Huracán Corrientes	"El Globito, Malos perdedores."
org:alternate_names	Puente de Piedra	Puente de Piedra
org:alternate_names	LMS Stanier Class 5 4-6-0	Black Five
org:alternate_names	Midland Railway 115 Class	Spinner
org:alternate_names	"Patrick ""Paddy"" Dignam"	Paddy
org:alternate_names	Santa Fe 5000	Madam Queen
org:alternate_names	Seibu 30000 series	Smile Train
org:alternate_names	Seibu 30000 series	スマイルトレイン
org:alternate_names	Seminex	Seminex
org:alternate_names	Sowdeswari Vidyalaya Coimbatore	ssv
org:alternate_names	Wee-Bey Brice	Wee-Bey
org:alternate_names	American Public University	APU
org:alternate_names	American Military University	AMU
org:alternate_names	January 2016 United States winter storm	Snowzilla
org:alternate_names	January 2016 United States winter storm	霸王寒流
org:alternate_names	January 2016 United States winter storm	霸王寒潮
org:alternate_names	Skye	Skye
org:alternate_names	Rita Vrataski	Full Metal Bitch
org:alternate_names	Rita Vrataski	Angel of Verdun
org:alternate_names	Nikkia Bell	Nikki
org:alternate_names	Porpentina Goldstein	Tina
org:alternate_names	William Carmichael	Bill Carmichael
org:alternate_names	Club Sportif Clodoaldien	La Clodo
org:alternate_names	"Rudolph ""Rudy"" Bloom"	Rudy
org:alternate_names	Nasty Roche	Nasty
org:alternate_names	Heike Schäffer	Muschi
org:alternate_names	FCNEA 11 Yatay	Yatay
org:alternate_names	Vanhala	Ylen Sankia Priha
org:alternate_names	David Mason	Section
org:alternate_names	A.E. Irakleio F.C	Νερατζούροι
org:alternate_names	Harold Finch	Harry
org:alternate_names	"1st Battalion, 120th Field Artillery Regiment"	Red Fox
org:alternate_names	Nord 2.231 to 2.305	revolver
org:alternate_names	BB Alsthom	danseuses
org:alternate_names	Mayweather vs. Pacquiao	Le combat du siècle
org:alternate_names	El ataque de Uchumayo	La Salaverrina
org:alternate_names	"Dominick Carisi, Jr."	Sonny
org:alternate_names	Tale Taalasmaa	Tale
org:alternate_names	Catherine Bennet	Kitty
org:alternate_names	Fish Mooney	Fish
org:alternate_names	KF Skënderbeu Korçë	Λύκοι του χιονιού
org:alternate_names	flag of Spain	rojigualda
org:alternate_names	Club Bolívar	Η Ακαδημία
org:alternate_names	Vampirella	Vampi
org:alternate_names	FK Austria Wien	Οι Βιολετί
org:alternate_names	SK Rapid Wien	Οι λευκοπράσινοι
org:alternate_names	1. FC Union Berlin	Eiserne
org:alternate_names	1. FC Union Berlin	The Iron Ones
org:alternate_names	Metropolitan Museum of Art	the Met
org:alternate_names	Symphony No. 100	Militar
org:alternate_names	A.J. Auxerre	AJA
org:alternate_names	"Miles ""Tails"" Prower"	Tails
org:alternate_names	P.A.O.K. Thessaloniki F.C.	Δικέφαλος του Βορρά
org:alternate_names	P.A.O.K. Thessaloniki F.C.	Ασπρόμαυροι
org:alternate_names	USS Maryland	Fighting Mary
org:alternate_names	Hughes OH-6 Cayuse	Loach
org:alternate_names	PFC Lokomotiv Plovdiv	Τα Στρουμφάκια
org:alternate_names	USS Cleveland	Charlie Love Five Five
org:alternate_names	HMS Illustrious	Lusty
org:alternate_names	Civic Arena	The Igloo
org:alternate_names	PFC Ludogorets Razgrad	Οι αετοί
org:alternate_names	Kastoria F.C.	Γουναράδες
org:alternate_names	FC Andorra	Οι Τρίχρωμοι
org:alternate_names	Colo-Colo	Οι Δημοφιλείς
org:alternate_names	KF Tirana	Κυανόλευκοι
org:alternate_names	C.A. Vélez Sarsfield	Το οχυρό
org:alternate_names	A.A. Argentinos Juniors	Κόκκινοι Κοριοί
org:alternate_names	Grêmio Foot-Ball Porto Alegrense	Αθάνατη Τρίχρωμη
org:alternate_names	Royal Engineers A.F.C.	Σκαπανείς
org:alternate_names	Kuopio Ice Hall	Niiralan monttu
org:alternate_names	New Statesman	The Staggers
org:alternate_names	S.L. Benfica	Águias de Luanda
org:alternate_names	USS Washington (BB-56)	Mighty W
org:alternate_names	"February 5–6, 2010 North American blizzard"	Snowmageddon
org:alternate_names	Aldershot F.C.	The Shots
org:alternate_names	Zündapp KS 601	Der Grüne Elefant
org:alternate_names	7th Armoured Division	The Desert Rats
org:alternate_names	A.C. Ajaccio	Η αρκούδα
org:alternate_names	PFC Litex Lovech	Οι Πορτοκαλιοί
org:alternate_names	Western Bulldogs	Bulldogs
org:alternate_names	Jamia Millia Islamia	Jamia
org:alternate_names	Jamia Millia Islamia	جامعہ
org:alternate_names	NS 20	Kameel
org:alternate_names	USS Idaho	The Big Spud
org:alternate_names	Achilles'29	Οι Ασπρόμαυροι
org:alternate_names	Omonia Aradippou	Τα περιστέρια
org:alternate_names	Guru Gobind Singh Indraprastha University	GGSIPU
org:alternate_names	Nord 3.101	la Baleine
org:alternate_names	État 140-501 to 600 and 1001 to 1045	les bossues
org:alternate_names	PLM C.61 to C.180	Grosses C
org:alternate_names	Nord 3.1201 to 3.1290	Super Pacific
org:alternate_names	AEL Limassol FC	Οι Λέοντες
org:alternate_names	Balamban	Ship building capital of the Philippines
org:alternate_names	Al-Masry Club	Οι πράσινοι αετοί
org:alternate_names	C.A. Lanús	Granate Grana
org:alternate_names	C.A. Lanús	Garnet Grana
org:alternate_names	C.A. Lanús	Οι καστανέρυθροι
org:alternate_names	2nd Dragoon Regiment	Condé Dragons
org:alternate_names	MD Helicopters MH-6 Little Bird	Killer Egg
org:alternate_names	British Rail Class 121	Bubble car
org:alternate_names	Kalloni F.C.	Σαρδέλες
org:alternate_names	Scotland national rugby league team	The Bravehearts
org:alternate_names	1st King's Dragoon Guards	Bland Dragoons
org:alternate_names	1st King's Dragoon Guards	The Kings Dancing Girls
org:alternate_names	RA class 500	Mucca
org:alternate_names	Queensland Lions FC	Τα Λιοντάρια
org:alternate_names	Avadh University	RMLAU
org:alternate_names	BELC	Rue Lhomond
org:alternate_names	Australian national quidditch team	Australian Dropbears
org:alternate_names	SNOtone	SNOtone Records
org:alternate_names	Gros-Caillou Sportif	Le Gros Pav'
org:alternate_names	C.A. Huracán	Αερόστατα
org:alternate_names	Flag of California	Bear Flag Revolt
org:alternate_names	FC Ararat Yerevan	Λευκοί Αετοί
org:alternate_names	British Rail 18000	Kerosene Castle
org:alternate_names	British Rail Class 122	Bubble cars
org:alternate_names	Bunk Moreland	The Bunk
org:alternate_names	GCR Class 11F	Improved Director class
org:alternate_names	HM-15	Blackhawks
org:alternate_names	José Fuentes Mares National Prize for Literature	José Fuentes Mares
org:alternate_names	Jaypee Institute of Information Technology	JIIT
org:alternate_names	Jaypee University of Information Technology	JUIT
org:alternate_names	Jodhpur National University	JNU
org:alternate_names	Odakyu 10000 series HiSE	High Super Express
org:alternate_names	Odakyu 3100 series NSE	New Super Express
org:alternate_names	Otto Karhi Park	Letkunpuisto
org:alternate_names	city hall of The Hague	IJspaleis
org:alternate_names	Tião	killer dolphin
org:alternate_names	USS Curts (FFG-38)	.38 Special
org:alternate_names	University of St Mark & St John	Marjon
org:alternate_names	Lennie Briscoe	Lennie Briscoe
org:alternate_names	Apollon Limassol	Οι Γαλανόλευκοι
org:alternate_names	Akita Prefectural Road Route 2	樹海ライン
org:alternate_names	Seibu 8500 series	レオライナー
org:alternate_names	Seibu 8500 series	Leo Liner
org:alternate_names	Oulu YMCA	Ynni
org:alternate_names	Puolivälinkangas	Puokkari
org:alternate_names	Nord 4.2016 to 4.2095	Grosse Julie
org:alternate_names	"Josephine ""Josie"" Powell Breen"	Josie
org:alternate_names	Belgian State Railways type 23	cuisinières
org:alternate_names	VR Class Vr2	Ankka
org:alternate_names	Maconka	A világ közepe
org:alternate_names	Pilatus PC-9M	Hudournik
org:alternate_names	Regimiento de Caballería Acorazado Montesa N.º 3	Montesa
org:alternate_names	Indian Institute of Art and Design	IIAD
org:alternate_names	Lawrence Weaver	Larry Weaver
org:alternate_names	Afghanistan Technical Vocational Institute	atvi
org:alternate_names	Jim Rhodes / War Machine	Rhodey
org:alternate_names	Vic Faison	The Fruit Fly Guy
org:alternate_names	Aris Limassol F.C.	Ελαφρά Ταξιαρχία
org:alternate_names	Ermis Aradippou FC	Ο Φτεροπόδαροι
org:alternate_names	Loboc	Music Capital of Bohol
org:alternate_names	Amatitlán	La ciudad del sueño dorado
org:alternate_names	Paris–Nice	La course au soleil
org:alternate_names	Symphony No. 9	La Gran
org:alternate_names	Airbus UK Broughton F.C.	The Wingmakers
org:alternate_names	Koskenkorva Viina	Kossu
org:alternate_names	Bavarian PtL 2/2	Glaskasten
org:alternate_names	Angers SCO	les Scoïstes
org:alternate_names	Angers SCO	le Sporting
org:alternate_names	Angers SCO	le SCO
org:alternate_names	Lapu-Lapu	Historic Resort City
org:alternate_names	Symphony No. 8	Inacabada
org:alternate_names	Puerto Plata Province	la novia del Atlántico
org:alternate_names	Glock	Drastic Plastic
org:alternate_names	1. FC Slovácko	Γενναίοι Σλοβάκοι
org:alternate_names	Chacarita Juniors	Τρίχρωμοι
org:alternate_names	Chacarita Juniors	Νεκροθάφτες
org:alternate_names	Flags of the Confederate States of America	The Stars and Bars
org:alternate_names	via Veneto	Via Veneto
org:alternate_names	Havana	Ciutat de les columnes
org:alternate_names	Leek Town F.C.	Οι μπλε
org:alternate_names	Luton Town F.C.	The Ηatters
org:alternate_names	Tamworth F.C.	Τα Πρόβατα
org:alternate_names	Queens Park Rangers F.C.	The Rs
org:alternate_names	Queens Park Rangers F.C.	The Hoops
org:alternate_names	1st Cavalry Division	First Team
org:alternate_names	Watford Football Club	Οι Σφήκες
org:alternate_names	Aston Villa F.C.	Οι Χωριάτες
org:alternate_names	Tottenham Hotspur F.C.	Τα Κρίνα
org:alternate_names	Tottenham Hotspur F.C.	Πετεινοί
org:alternate_names	Everton F.C.	Τα Ζαχαρωτά
org:alternate_names	Sunderland A.F.C.	Οι Μαυρόγατες
org:alternate_names	West Ham United F.C.	Τα Σφυριά
org:alternate_names	Blackpool F.C.	The Seasiders
org:alternate_names	Blackpool F.C.	The Tangerines
org:alternate_names	Blackpool F.C.	The 'Pool
org:alternate_names	Barnet Football Club	Οι μέλισσες
org:alternate_names	Club Atlético River Plate	Η Λωρίδα
org:alternate_names	Club Atlético River Plate	Οι Εκατομυριούχοι
org:alternate_names	Brighton & Hove Albion F.C.	Οι γλάροι
org:alternate_names	Club Estudiante del grado de urgencia	Οι Ποντικοσφάχτες
org:alternate_names	AIK Fotboll	Τρωκτικά
org:alternate_names	Ikurriña	Ikurrina
org:alternate_names	Ikurriña	Ikurriña
org:alternate_names	Burnley F.C.	The Clarets
org:alternate_names	Symphony No. 7	El Migdia
org:alternate_names	AEK Larnaca F.C.	Οι Κιτρινοπράσινοι
org:alternate_names	Charlton Athletic F.C.	The Addicks
org:alternate_names	Charlton Athletic F.C.	The Valiants
org:alternate_names	Charlton Athletic F.C.	Red Robins
org:alternate_names	Crystal Palace F.C.	Οι Αετοί
org:alternate_names	Derby County F.C.	Τα Κριάρια
org:alternate_names	ES Sétif	Οι Μαύροι Αετοί
org:alternate_names	Everton de Viña del Mar	Παίκτες ρουλέτας
org:alternate_names	Yeading F.C.	The Ding
org:alternate_names	French fiscal package of 2007	paquet fiscal
org:alternate_names	Royal Regiment of Fusiliers	Lord Wellington's Bodyguards
org:alternate_names	Royal Regiment of Fusiliers	The Shiners
org:alternate_names	Royal Regiment of Fusiliers	The Old and the Bold
org:alternate_names	Società Polisportiva Tre Fiori	Φανατικοί
org:alternate_names	Kőbánya-Kispest	KöKi
org:alternate_names	Mickey Smith	Mickey-Maus
org:alternate_names	Quilmes Atletic Club	Ζυθοποιοί
org:alternate_names	Blues and Royals	The Tin Bellies
org:alternate_names	Host-based intrusion detection system	Host-based intrusion prevention system
org:alternate_names	A.S. Roma	Οι λύκοι
org:alternate_names	A.S. Roma	Οι Κιτρινοκόκκινοι
org:alternate_names	A.S. Roma	Η Μαγική
org:alternate_names	A London Symphony	Simfonia de Londres
org:alternate_names	Naga	The Industrial Hub of Southern Cebu
org:alternate_names	America Football Club	Οι Διάβολοι
org:alternate_names	Republic of Korea Marine Corps	귀신잡는 해병대
org:alternate_names	Republic of Korea Marine Corps	무적 해병
org:alternate_names	Wenduine	prinses der badsteden
org:alternate_names	Sheffield Wednesday F.C.	Οι Κουκουβάγιες
org:alternate_names	Hartlepool United F.C.	Οι Μαϊμούδες
org:alternate_names	Hartlepool United F.C.	Οι Πισίνες
org:alternate_names	PocketZip	Clik!
org:alternate_names	The New Church	Swedenborgianism
org:alternate_names	Life Guards	Donkey Wallopers
org:alternate_names	Life Guards	Piccadilly Butchers
org:alternate_names	Life Guards	Tins
org:alternate_names	Life Guards	Piccadilly Cowboys
org:alternate_names	Life Guards	Tinned Fruit
org:alternate_names	Jim Halpert	Big Tuna
org:alternate_names	C.S. Visé	Οι χήνες
org:alternate_names	Preston North End F.C.	The Invincibles
org:alternate_names	Preston North End F.C.	The Lilywhites
org:alternate_names	USS Tennessee	The Rebel Ship
org:alternate_names	North Stradbroke Island	Straddie
org:alternate_names	HMS Cumberland	The Fighting Sausage
org:alternate_names	classical archaeology	Faltenphilologie
org:alternate_names	Arsenal F.C.	Οι Κανονιέρηδες
org:alternate_names	Scunthorpe United F.C.	The Iron
org:alternate_names	Yeovil Town F.C.	The Glovers
org:alternate_names	USS Intrepid	Dry I
org:alternate_names	USS Intrepid	Decrepit
org:alternate_names	USS Intrepid	The Fighting I
org:alternate_names	USS Intrepid	Fighting I
org:alternate_names	USS Intrepid	The Tough Old Lady
org:alternate_names	Bucharest	Micul Paris
org:alternate_names	Bucharest	Paris of the Balkans
org:alternate_names	A.F.C. Bournemouth	Τα Κεράσια
org:alternate_names	Colchester United F.C.	Εμείς
org:alternate_names	Coventry City F.C.	Οι Γαλάζιοι
org:alternate_names	Notts County F.C.	Οι σφήκες
org:alternate_names	Sheffield United F.C.	The Blades
org:alternate_names	Sheffield United F.C.	Red and White Wizards
org:alternate_names	John Cage	The Biscuit
org:alternate_names	GCR Class 11E	Director class
org:alternate_names	GCR Class 9J	Pompoms
org:alternate_names	GE P30CH	Pooch
org:alternate_names	HC-4	Black Stallions
org:alternate_names	Úbeda Club de Fútbol	Ubetenses
org:alternate_names	John Reese	The Man in the Suit
org:alternate_names	John Reese	El hombre del traje
org:alternate_names	John Reese	l'homme au costume
org:alternate_names	Lutterworth Town A.F.C.	The Swifts
org:alternate_names	Mah-Jongg	Jongy
org:alternate_names	No. 103 Squadron RAF	Swindon's 'own' Squadron
org:alternate_names	No. 38 Squadron RAAF	Dingo Airlines
org:alternate_names	Odakyu 20000 series RSE	Resort Super Express
org:alternate_names	Odakyu 60000 series MSE	Multi Super Express
org:alternate_names	Seibu 10000 series	New Red Arrow
org:alternate_names	Seibu 10000 series	Red Arrow Classic
org:alternate_names	Seibu 10000 series	ニューレッドアロー
org:alternate_names	Seibu 10000 series	レッドアロークラシック
org:alternate_names	Dietmar Schäffer	Bär
org:alternate_names	Bärbel Schmied	Bärbelchen
org:alternate_names	Exclusive economic zone of Germany in the North Sea	Entenschnabel
org:alternate_names	HMS Formidable	The Ship That Launched Itself
org:alternate_names	5th Canadian (Armoured) Division	The Mighty Maroon Machine
org:alternate_names	Nord 4.061 to 4.340	les Bœufs
org:alternate_names	SNCF 141.P	Petites P
org:alternate_names	43rd Infantry Division	Winged Victory Division
org:alternate_names	Deborah Fiderer	Debbie Fiderer
org:alternate_names	HMS Bulwark	The Rusty B
org:alternate_names	HMS Albion	The Old Grey Ghost of the Borneo Coast
org:alternate_names	"2nd Battalion, Parachute Regiment"	Immaculate Second
org:alternate_names	3rd Battalion 1st Marines	Thundering Third
org:alternate_names	45th (Nottinghamshire) (Sherwood Foresters) Regiment of Foot	Old Stubborns
org:alternate_names	47th Regiment Royal Artillery	The Hampshire & Sussex Gunners
org:alternate_names	50th Infantry Brigade Combat Team	Jersey Blues
org:alternate_names	Australian National Data Service	ANDS
org:alternate_names	Bob Russell	Bingo Bob
org:alternate_names	Duke of Lancaster's Regiment	Lions of England
org:alternate_names	Oldham Athletic A.F.C.	Λάτικς
org:alternate_names	Oxford	The City of Dreaming Spires
org:alternate_names	Hereford United F.C.	Οι Ταύροι
org:alternate_names	Hull City A.F.C.	Οι Τίγρεις
org:alternate_names	Long Beach	City by the Sea
org:alternate_names	Long Beach	Civitas ad Mare
org:alternate_names	Fleetwood Town F.C.	Οι ψαράδες
org:alternate_names	Northampton Town F.C.	Τσαγκάρηδες
org:alternate_names	Oxford United F.C.	Κίτρινοι
org:alternate_names	Oxford United F.C.	The Boys from Up the Hill
org:alternate_names	Rochdale A.F.C.	The Dale
org:alternate_names	SV Austria Salzburg	Βιολετί
org:alternate_names	Port Vale F.C.	Γενναίοι
org:alternate_names	Ñoño	Ñoño
org:alternate_names	Odakyu 7000 series LSE	Luxury Super Express
org:alternate_names	Akita Prefectural Road Route 56	新国道
org:alternate_names	Hearts of Iron IV	Project Armstrong
org:alternate_names	Manchester City F.C.	Η Σίτυ
org:alternate_names	Manchester City F.C.	Οι Πολίτες
org:alternate_names	EFE 126 José Manuel Balmaceda	José Manuel Balmaceda
org:alternate_names	Task Force 75	NEFCPAC
org:alternate_names	Task Force 75	CTF 75
org:alternate_names	Menchey Music Service	Menchey Music
org:alternate_names	GER Class Y65	Crystal Palace tanks
org:alternate_names	GER Class Y65	Tomato houses
org:alternate_names	El Khomri law	loi Travail
org:alternate_names	El Khomri law	projet de loi El Khomri
