org:stateorprovince_of_headquarters	Roadrunner Records	New York
org:stateorprovince_of_headquarters	Amway	Michigan
org:stateorprovince_of_headquarters	California Institute of Technology	California
org:stateorprovince_of_headquarters	Converse	Massachusetts
org:stateorprovince_of_headquarters	"Toys ""R"" Us"	New Jersey
org:stateorprovince_of_headquarters	Muse Software	Maryland
org:stateorprovince_of_headquarters	Clearing Corporation	Delaware
org:stateorprovince_of_headquarters	National Software Testing Laboratories	Pennsylvania
org:stateorprovince_of_headquarters	University of North Carolina at Chapel Hill	North Carolina
org:stateorprovince_of_headquarters	Virgin Galactic	New Mexico
org:stateorprovince_of_headquarters	United States Mint	Washington
org:stateorprovince_of_headquarters	Iron Crown Enterprises	Virginia
org:stateorprovince_of_headquarters	Frank Pepe Pizzeria Napoletana	Connecticut
org:stateorprovince_of_headquarters	Ladd & Co.	Hawaii
org:stateorprovince_of_headquarters	Oceanic Preservation Society	Colorado
org:stateorprovince_of_headquarters	Fieldbus Foundation	Texas
org:stateorprovince_of_headquarters	Xonox	Minnesota
org:stateorprovince_of_headquarters	Amtelco	Wisconsin
org:stateorprovince_of_headquarters	Artists for Charity	Georgia
org:stateorprovince_of_headquarters	Beaufort-Jasper Water and Sewer Authority	South Carolina
org:stateorprovince_of_headquarters	CenturyTel of Central Indiana	Indiana
org:stateorprovince_of_headquarters	Dataware Games	Mississippi
org:stateorprovince_of_headquarters	Emprise Bank	Kansas
org:stateorprovince_of_headquarters	Fine Paints of Europe	Vermont
org:stateorprovince_of_headquarters	Fredericksburg Farmers Cooperative	Iowa
org:stateorprovince_of_headquarters	Celina Tent Inc.	Ohio
org:stateorprovince_of_headquarters	Freedom Yachts	Rhode Island
org:stateorprovince_of_headquarters	Sunbelt Software	Florida
org:stateorprovince_of_headquarters	BASIS Schools	Arizona
org:stateorprovince_of_headquarters	"Chicago Franchise Systems, Inc."	Illinois
org:stateorprovince_of_headquarters	Gold Strike Hotel and Gambling Hall	Nevada
org:stateorprovince_of_headquarters	Healing Through Creativity	West Virginia
org:stateorprovince_of_headquarters	Montana Elevator Co.	Montana
org:stateorprovince_of_headquarters	Amangiri	Utah
org:stateorprovince_of_headquarters	JBovier Stringed Instruments	Kentucky
org:stateorprovince_of_headquarters	Kerr-McGee	Oklahoma
org:stateorprovince_of_headquarters	Oregon Community Credit Union	Oregon
org:stateorprovince_of_headquarters	Payless Cashways	Missouri
org:stateorprovince_of_headquarters	Cabins USA	Tennessee
org:stateorprovince_of_headquarters	New Hampshire Wildlife Federation	New Hampshire
org:stateorprovince_of_headquarters	Moldovan–American Chamber of Commerce	New York
org:stateorprovince_of_headquarters	Yad Leah	New Jersey
org:stateorprovince_of_headquarters	Niagara Falls High School	New York
org:stateorprovince_of_headquarters	City Wok	California
org:stateorprovince_of_headquarters	GameSpy	California
org:stateorprovince_of_headquarters	Toon Disney	California
org:stateorprovince_of_headquarters	THQ	California
org:stateorprovince_of_headquarters	Vimeo	New York
org:stateorprovince_of_headquarters	Ultimate Pro Wrestling	California
org:stateorprovince_of_headquarters	PortalPlayer	California
org:stateorprovince_of_headquarters	TDK Mediactive	California
org:stateorprovince_of_headquarters	BlueSky Software	California
org:stateorprovince_of_headquarters	Hercules	California
org:stateorprovince_of_headquarters	Doggystyle Records	California
org:stateorprovince_of_headquarters	Evil Angel	California
org:stateorprovince_of_headquarters	Kensington Computer Products Group	California
org:stateorprovince_of_headquarters	Liberty Films	California
org:stateorprovince_of_headquarters	Ludwig-Musser	North Carolina
org:stateorprovince_of_headquarters	Black Mesa Research Facility	New Mexico
org:stateorprovince_of_headquarters	Eyeball Records	New Jersey
org:stateorprovince_of_headquarters	WizKids	New Jersey
org:stateorprovince_of_headquarters	CoverGirl	Maryland
org:stateorprovince_of_headquarters	LiteSpeed Technologies Inc.	New Jersey
org:stateorprovince_of_headquarters	Wright Aeronautical	New Jersey
org:stateorprovince_of_headquarters	Jersey All Pro Wrestling	New Jersey
org:stateorprovince_of_headquarters	Sirius XM Radio	Delaware
org:stateorprovince_of_headquarters	3G Capital	New York
org:stateorprovince_of_headquarters	Leo Baeck Institute	New York
org:stateorprovince_of_headquarters	Rocket Racing League	New York
org:stateorprovince_of_headquarters	Collins Line	New York
org:stateorprovince_of_headquarters	CLS Group	New York
org:stateorprovince_of_headquarters	"Fisher-Price, Inc."	New York
org:stateorprovince_of_headquarters	American Vacuum Society	New York
org:stateorprovince_of_headquarters	New York Public Interest Research Group	New York
org:stateorprovince_of_headquarters	4Kids Productions	New York
org:stateorprovince_of_headquarters	Abacus Federal Savings Bank	New York
org:stateorprovince_of_headquarters	Accion USA	New York
org:stateorprovince_of_headquarters	Actimize	New York
org:stateorprovince_of_headquarters	AdaCore	New York
org:stateorprovince_of_headquarters	Alacra	New York
org:stateorprovince_of_headquarters	Altegrity Risk International	New York
org:stateorprovince_of_headquarters	"AntiGravity, Inc"	New York
org:stateorprovince_of_headquarters	Arthur Treacher's	New York
org:stateorprovince_of_headquarters	Association for the Study of Nationalities	New York
org:stateorprovince_of_headquarters	Atala T	New York
org:stateorprovince_of_headquarters	Atlas Media Corp.	New York
org:stateorprovince_of_headquarters	Avignone Chemists	New York
org:stateorprovince_of_headquarters	Berghahn Books	New York
org:stateorprovince_of_headquarters	BurnsGroupNYC	New York
org:stateorprovince_of_headquarters	Catalan Communications	New York
org:stateorprovince_of_headquarters	Cendant	New York
org:stateorprovince_of_headquarters	CitiFX Pro	New York
org:stateorprovince_of_headquarters	Citi Private Bank	New York
org:stateorprovince_of_headquarters	Citigold	New York
org:stateorprovince_of_headquarters	Crohn's & Colitis Foundation of America	New York
org:stateorprovince_of_headquarters	Designer Bride	New York
org:stateorprovince_of_headquarters	Deutsch Group	New York
org:stateorprovince_of_headquarters	Digital Assembly	New York
org:stateorprovince_of_headquarters	Dilmaghani	New York
org:stateorprovince_of_headquarters	Direct Agents	New York
org:stateorprovince_of_headquarters	Dollie & Me	New York
org:stateorprovince_of_headquarters	Donghia	New York
org:stateorprovince_of_headquarters	EMeta	New York
org:stateorprovince_of_headquarters	Entertainment One Films	New York
org:stateorprovince_of_headquarters	Elite Gudz	New York
org:stateorprovince_of_headquarters	Equinox Fitness	New York
org:stateorprovince_of_headquarters	Maisto	California
org:stateorprovince_of_headquarters	Applied Biosystems	California
org:stateorprovince_of_headquarters	L.A.M.B.	California
org:stateorprovince_of_headquarters	Icon Productions	California
org:stateorprovince_of_headquarters	Fox Feature Syndicate	Massachusetts
org:stateorprovince_of_headquarters	International Cultic Studies Association	Florida
org:stateorprovince_of_headquarters	Zongo Comics	California
org:stateorprovince_of_headquarters	Cape Cod Crusaders	Massachusetts
org:stateorprovince_of_headquarters	Chaotic Wrestling	Massachusetts
org:stateorprovince_of_headquarters	Smokehouse Pictures	California
org:stateorprovince_of_headquarters	Orion Telescopes & Binoculars	California
org:stateorprovince_of_headquarters	AMEN Missionary	California
org:stateorprovince_of_headquarters	Bear Creek Guitars	California
org:stateorprovince_of_headquarters	BodyRock Sport	California
org:stateorprovince_of_headquarters	Bolder Media	California
org:stateorprovince_of_headquarters	Carrington College	California
org:stateorprovince_of_headquarters	Cherry Blossoms	Hawaii
org:stateorprovince_of_headquarters	Cowlip Productions	California
org:stateorprovince_of_headquarters	DFH Network	California
org:stateorprovince_of_headquarters	Farrell's Ice Cream Parlour	California
org:stateorprovince_of_headquarters	Ferfrans	California
org:stateorprovince_of_headquarters	GBC International Bank	California
org:stateorprovince_of_headquarters	Gloucester Net and Twine Company	Massachusetts
org:stateorprovince_of_headquarters	H. M. Van Deusen Whip Company	Massachusetts
org:stateorprovince_of_headquarters	Gathering of Developers	Texas
org:stateorprovince_of_headquarters	Basement Comics	North Carolina
org:stateorprovince_of_headquarters	Budget Suites of America	Texas
org:stateorprovince_of_headquarters	International Male	New Jersey
org:stateorprovince_of_headquarters	Khmers Kampuchea-Krom Federation	New Jersey
org:stateorprovince_of_headquarters	Ad Astra Rocket Company	Texas
org:stateorprovince_of_headquarters	Balanced Ecology	Texas
org:stateorprovince_of_headquarters	"Cinematronics, LLC"	Texas
org:stateorprovince_of_headquarters	Console Classix	South Carolina
org:stateorprovince_of_headquarters	Councils on Chiropractic Education International	New Mexico
org:stateorprovince_of_headquarters	Cruise Critic	New Jersey
org:stateorprovince_of_headquarters	Davison's	Georgia
org:stateorprovince_of_headquarters	Dream House For Medically Fragile Children	Georgia
org:stateorprovince_of_headquarters	Family Health International	North Carolina
org:stateorprovince_of_headquarters	Fictionwise	New Jersey
org:stateorprovince_of_headquarters	G&G Entertainment	New Jersey
org:stateorprovince_of_headquarters	Stack Exchange	Delaware
org:stateorprovince_of_headquarters	Arotech Corporation	Delaware
org:stateorprovince_of_headquarters	Ayers Saint Gross	Maryland
org:stateorprovince_of_headquarters	Biddle Motor Car Company	Pennsylvania
org:stateorprovince_of_headquarters	Böttcher America	Maryland
org:stateorprovince_of_headquarters	CancerVax	Delaware
org:stateorprovince_of_headquarters	China Clean Energy	Delaware
org:stateorprovince_of_headquarters	Evans Tuning	Pennsylvania
org:stateorprovince_of_headquarters	GeoEdge	Rhode Island
org:stateorprovince_of_headquarters	Goodman Brothers and Hinlein Company	Pennsylvania
org:stateorprovince_of_headquarters	Harvard Company-Weber Dental Manufacturing Company	Ohio
org:stateorprovince_of_headquarters	Keystone Hook and Ladder Company	Pennsylvania
org:stateorprovince_of_headquarters	Kreider Shoe Manufacturing Company	Pennsylvania
org:stateorprovince_of_headquarters	LibLime	Maryland
org:stateorprovince_of_headquarters	Maryland Jockey Club	Maryland
org:stateorprovince_of_headquarters	Merit Underwear Company	Pennsylvania
org:stateorprovince_of_headquarters	Pawtuxet Valley Dyeing Company	Rhode Island
org:stateorprovince_of_headquarters	Pittsburgh Opera	Pennsylvania
org:stateorprovince_of_headquarters	"Providence Dyeing, Bleaching, Calendring Company"	Rhode Island
org:stateorprovince_of_headquarters	Public Opinion Research	Maryland
org:stateorprovince_of_headquarters	Rhode Island Urban Debate League	Rhode Island
org:stateorprovince_of_headquarters	Sublime Dreamer	Delaware
org:stateorprovince_of_headquarters	Uneek Havana Cigar Company	Pennsylvania
org:stateorprovince_of_headquarters	Uplifting Entertainment	Pennsylvania
org:stateorprovince_of_headquarters	Wasserstein Perella & Co.	New York
org:stateorprovince_of_headquarters	WebMediaBrands	New York
org:stateorprovince_of_headquarters	Welspun USA Inc	New York
org:stateorprovince_of_headquarters	Wetson's	New York
org:stateorprovince_of_headquarters	White Marsh Volunteer Fire Company	Maryland
org:stateorprovince_of_headquarters	Worldcom PR Group	New York
org:stateorprovince_of_headquarters	Worldview Pictures	New York
org:stateorprovince_of_headquarters	YCD Multimedia	New York
org:stateorprovince_of_headquarters	Zola Books	New York
org:stateorprovince_of_headquarters	Sunbow Entertainment	New York
org:stateorprovince_of_headquarters	Biart	Delaware
org:stateorprovince_of_headquarters	50 Eggs Films	Massachusetts
org:stateorprovince_of_headquarters	"Warren, Brookfield and Spencer Street Railway"	Massachusetts
org:stateorprovince_of_headquarters	CATY	California
org:stateorprovince_of_headquarters	Data Age	California
org:stateorprovince_of_headquarters	New England Institute of Religious Research	Massachusetts
org:stateorprovince_of_headquarters	Viva Móvil	California
org:stateorprovince_of_headquarters	Western States Gospel Music Association	California
org:stateorprovince_of_headquarters	Rumble on the Rock	Hawaii
org:stateorprovince_of_headquarters	LEIA Inc	California
org:stateorprovince_of_headquarters	Parkinson's Association	California
org:stateorprovince_of_headquarters	The Hands for Music Foundation	Connecticut
org:stateorprovince_of_headquarters	AMY COCHRAN INSTITUTE OF PHYSIO-SYNTHESIS	California
org:stateorprovince_of_headquarters	HopSkipDrive	California
org:stateorprovince_of_headquarters	Equity One	New York
org:stateorprovince_of_headquarters	Esophageal Cancer Awareness Association	New York
org:stateorprovince_of_headquarters	Fedcap Rehabilitation Services	New York
org:stateorprovince_of_headquarters	Finlay Enterprises	New York
org:stateorprovince_of_headquarters	Fund.com	New York
org:stateorprovince_of_headquarters	FundAmerica	New York
org:stateorprovince_of_headquarters	G-Unit Clothing Company	New York
org:stateorprovince_of_headquarters	Griffin-Bacal Advertising	New York
org:stateorprovince_of_headquarters	Herbert Levine	New York
org:stateorprovince_of_headquarters	Hitwise	New York
org:stateorprovince_of_headquarters	Huntington's Disease Society of America	New York
org:stateorprovince_of_headquarters	FXCM	New York
org:stateorprovince_of_headquarters	ITerating	New York
org:stateorprovince_of_headquarters	"Inform, Inc."	New York
org:stateorprovince_of_headquarters	Juno Healthcare Staffing	New York
org:stateorprovince_of_headquarters	KIND Snacks	New York
org:stateorprovince_of_headquarters	L'Observatoire International	New York
org:stateorprovince_of_headquarters	LatinFinance	New York
org:stateorprovince_of_headquarters	Left/Right Productions	New York
org:stateorprovince_of_headquarters	Libra Group	New York
org:stateorprovince_of_headquarters	Loden Dager	New York
org:stateorprovince_of_headquarters	Martin's	New York
org:stateorprovince_of_headquarters	Mechanism Digital	New York
org:stateorprovince_of_headquarters	Mediapolis (company)	New York
org:stateorprovince_of_headquarters	Mom + Pop Music	New York
org:stateorprovince_of_headquarters	MoviePass	New York
org:stateorprovince_of_headquarters	Muddy Waters Research	New York
org:stateorprovince_of_headquarters	Nazmiyal collection	New York
org:stateorprovince_of_headquarters	One Art World	New York
org:stateorprovince_of_headquarters	OpenPlans	New York
org:stateorprovince_of_headquarters	Outsource Partners International	New York
org:stateorprovince_of_headquarters	Pangea3	New York
org:stateorprovince_of_headquarters	Penton Media	New York
org:stateorprovince_of_headquarters	Philatelic Foundation	New York
org:stateorprovince_of_headquarters	Project EVIE	New York
org:stateorprovince_of_headquarters	Pseudo.com	New York
org:stateorprovince_of_headquarters	R/GA	New York
org:stateorprovince_of_headquarters	FINCA International	Washington
org:stateorprovince_of_headquarters	Maple Pictures	New York
org:stateorprovince_of_headquarters	Dualstar	New York
org:stateorprovince_of_headquarters	Carnegie Corporation of New York	New York
org:stateorprovince_of_headquarters	Aggressive	New York
org:stateorprovince_of_headquarters	411 PAIN	Florida
org:stateorprovince_of_headquarters	Brastilo	Florida
org:stateorprovince_of_headquarters	Bravo Music	Florida
org:stateorprovince_of_headquarters	Carahsoft	Virginia
org:stateorprovince_of_headquarters	Citizenship Counts	Arizona
org:stateorprovince_of_headquarters	Data Design Interactive	Florida
org:stateorprovince_of_headquarters	Echo Films	Washington
org:stateorprovince_of_headquarters	Eminent Technology	Florida
org:stateorprovince_of_headquarters	Florida Sheriffs Association	Florida
org:stateorprovince_of_headquarters	Future Comics	Florida
org:stateorprovince_of_headquarters	Gogebic Taconite	Florida
org:stateorprovince_of_headquarters	Golden Spike Company	Colorado
org:stateorprovince_of_headquarters	Insurance Services of America	Arizona
org:stateorprovince_of_headquarters	K-Dow Petrochemicals	Michigan
org:stateorprovince_of_headquarters	Ker's WingHouse	Florida
org:stateorprovince_of_headquarters	Liggett and Myers Tobacco Company	West Virginia
org:stateorprovince_of_headquarters	Montana Legacy Project	Montana
org:stateorprovince_of_headquarters	R3	New York
org:stateorprovince_of_headquarters	Rainforest Foundation US	New York
org:stateorprovince_of_headquarters	Ralph Appelbaum Associates	New York
org:stateorprovince_of_headquarters	Reversible destiny	New York
org:stateorprovince_of_headquarters	Rhizome	New York
org:stateorprovince_of_headquarters	Romanian-American Chamber of Commerce	New York
org:stateorprovince_of_headquarters	Science Research Associates	New York
org:stateorprovince_of_headquarters	Seltaeb	New York
org:stateorprovince_of_headquarters	Shipley & Halmos	New York
org:stateorprovince_of_headquarters	Sims Metal Management	New York
org:stateorprovince_of_headquarters	Solve Media	New York
org:stateorprovince_of_headquarters	Songtrust	New York
org:stateorprovince_of_headquarters	Stallion Bus and Transit Corp.	New York
org:stateorprovince_of_headquarters	StrawberryFrog	New York
org:stateorprovince_of_headquarters	Tech 21	New York
org:stateorprovince_of_headquarters	Teneo	New York
org:stateorprovince_of_headquarters	The Barbarian Group	New York
org:stateorprovince_of_headquarters	The Beanstalk Group	New York
org:stateorprovince_of_headquarters	The Demand Institute	New York
org:stateorprovince_of_headquarters	The Natori Company	New York
org:stateorprovince_of_headquarters	Thinkorswim	New York
org:stateorprovince_of_headquarters	Tri-State Transportation Campaign	New York
org:stateorprovince_of_headquarters	Tronic Studio	New York
org:stateorprovince_of_headquarters	Urban Green Energy	New York
org:stateorprovince_of_headquarters	Usablenet	New York
org:stateorprovince_of_headquarters	VIP Art Fair	New York
org:stateorprovince_of_headquarters	Vendome Group	New York
org:stateorprovince_of_headquarters	Villard	New York
org:stateorprovince_of_headquarters	Ingersoll Watch Company	Virginia
org:stateorprovince_of_headquarters	Viacom International Media Networks	New York
org:stateorprovince_of_headquarters	Salomon Brothers	New York
org:stateorprovince_of_headquarters	Kaltura	New York
org:stateorprovince_of_headquarters	Girl Scouts of the USA	New York
org:stateorprovince_of_headquarters	"Clinique Laboratories, LLC"	New York
org:stateorprovince_of_headquarters	Shapeways	New York
org:stateorprovince_of_headquarters	Sunlight Productions	Michigan
org:stateorprovince_of_headquarters	B. Altman and Company	New York
org:stateorprovince_of_headquarters	Software Freedom Conservancy	New York
org:stateorprovince_of_headquarters	Big UP Productions	New York
org:stateorprovince_of_headquarters	Sony BMG	New York
org:stateorprovince_of_headquarters	GOAT Store	Wisconsin
org:stateorprovince_of_headquarters	Housing Vermont	Vermont
org:stateorprovince_of_headquarters	International Quidditch Association	Vermont
org:stateorprovince_of_headquarters	Liberty Union Party	Vermont
org:stateorprovince_of_headquarters	LightBuckets	New Mexico
org:stateorprovince_of_headquarters	Indiana University	Indiana
org:stateorprovince_of_headquarters	MetroCorp Bancshares	Texas
org:stateorprovince_of_headquarters	Mind Dynamics	Texas
org:stateorprovince_of_headquarters	Miss Wisconsin USA	Wisconsin
org:stateorprovince_of_headquarters	Mrs. Winner's Chicken & Biscuits	Minnesota
org:stateorprovince_of_headquarters	National NuGrape Company	Georgia
org:stateorprovince_of_headquarters	"Passaic Machine Works-Watts, Campbell & Company"	New Jersey
org:stateorprovince_of_headquarters	D.O.O.P.	New Jersey
org:stateorprovince_of_headquarters	Pressed Steel Car Company	New Jersey
org:stateorprovince_of_headquarters	Rearwin Airplanes Inc.	Kansas
org:stateorprovince_of_headquarters	Red River Gorge Climbers' Coalition	Kentucky
org:stateorprovince_of_headquarters	Schmitt and Henry Manufacturing Company	Iowa
org:stateorprovince_of_headquarters	SeaStreak	New Jersey
org:stateorprovince_of_headquarters	H. W. Clark Biscuit Company	Massachusetts
org:stateorprovince_of_headquarters	Johnson Manufacturing Company	Massachusetts
org:stateorprovince_of_headquarters	Juno Ju-X	California
org:stateorprovince_of_headquarters	Amazon Robotics	Massachusetts
org:stateorprovince_of_headquarters	Leadership Dynamics	California
org:stateorprovince_of_headquarters	"Matson, Inc."	Hawaii
org:stateorprovince_of_headquarters	Megatech Software	California
org:stateorprovince_of_headquarters	NebuAd	California
org:stateorprovince_of_headquarters	Northeast Organic Farming Association	Connecticut
org:stateorprovince_of_headquarters	O'Neill Sea Odyssey	California
org:stateorprovince_of_headquarters	OnForce	Massachusetts
org:stateorprovince_of_headquarters	Outrigger Hotels & Resorts	Hawaii
org:stateorprovince_of_headquarters	Pearl Street Films	California
org:stateorprovince_of_headquarters	Professional Amigos of Comic Art Society	California
org:stateorprovince_of_headquarters	Tokyo-Hot	California
org:stateorprovince_of_headquarters	Quicklaunch	California
org:stateorprovince_of_headquarters	Reallusion	California
org:stateorprovince_of_headquarters	Rockland Trust Company	Massachusetts
org:stateorprovince_of_headquarters	Rolfe Photoplays	California
org:stateorprovince_of_headquarters	SOS Records	California
org:stateorprovince_of_headquarters	"STEC, Inc."	California
org:stateorprovince_of_headquarters	San Joaquin Light and Power Corporation	California
org:stateorprovince_of_headquarters	Strive for College	California
org:stateorprovince_of_headquarters	Tarzana Treatment Centers	California
org:stateorprovince_of_headquarters	Technopop	California
org:stateorprovince_of_headquarters	The Artery Foundation	California
org:stateorprovince_of_headquarters	The Clothesline Project	Massachusetts
org:stateorprovince_of_headquarters	Titan Pharmaceuticals	California
org:stateorprovince_of_headquarters	United States Watch Company	Massachusetts
org:stateorprovince_of_headquarters	Wachusett Shirt Company	Massachusetts
org:stateorprovince_of_headquarters	Westfield Whip Manufacturing Company	Massachusetts
org:stateorprovince_of_headquarters	Westport Bank and Trust Company	Connecticut
org:stateorprovince_of_headquarters	Wolfe Video	California
org:stateorprovince_of_headquarters	Fox Television Studios	California
org:stateorprovince_of_headquarters	ESS Technology	California
org:stateorprovince_of_headquarters	Aggregate Films	California
org:stateorprovince_of_headquarters	I-Mockery	California
org:stateorprovince_of_headquarters	National Board of Chiropractic Examiners	Colorado
org:stateorprovince_of_headquarters	Nickelodeon Studios	Florida
org:stateorprovince_of_headquarters	North America Vishwa Kannada Association	Florida
org:stateorprovince_of_headquarters	"Product Architects, Inc."	Colorado
org:stateorprovince_of_headquarters	RocketShip Tours	Arizona
org:stateorprovince_of_headquarters	Rosati's	Illinois
org:stateorprovince_of_headquarters	Schiller Piano Company	Illinois
org:stateorprovince_of_headquarters	Shiloh Rifle Manufacturing Company	Montana
org:stateorprovince_of_headquarters	Solid Rock Foundation	Arizona
org:stateorprovince_of_headquarters	St. Joseph High School	Illinois
org:stateorprovince_of_headquarters	Teen Driver Challenge	Florida
org:stateorprovince_of_headquarters	Thrall Car Manufacturing Company	Illinois
org:stateorprovince_of_headquarters	Truven Health Analytics	Michigan
org:stateorprovince_of_headquarters	VT Systems	Virginia
org:stateorprovince_of_headquarters	VeriWave	Oregon
org:stateorprovince_of_headquarters	Wasabi Anime	Florida
org:stateorprovince_of_headquarters	Wild Horse Adult Resort & Spa	Nevada
org:stateorprovince_of_headquarters	Wilson Audio	Utah
org:stateorprovince_of_headquarters	Woman's Temperance Publishing Association	Illinois
org:stateorprovince_of_headquarters	Yeh for Games	Nevada
org:stateorprovince_of_headquarters	Mustang Ranch	Nevada
org:stateorprovince_of_headquarters	Biocutis	Nevada
org:stateorprovince_of_headquarters	Jacksonville Transportation Authority	Florida
org:stateorprovince_of_headquarters	Truckers Against Trafficking	Colorado
org:stateorprovince_of_headquarters	Reasonable Solutions	Oregon
org:stateorprovince_of_headquarters	Life in Color	Florida
org:stateorprovince_of_headquarters	Continucare Corporation	Florida
org:stateorprovince_of_headquarters	Miss Montana USA	Montana
org:stateorprovince_of_headquarters	World Orphans	Colorado
org:stateorprovince_of_headquarters	Sprout Social	Illinois
org:stateorprovince_of_headquarters	Parkinson Association of the Rockies	Colorado
org:stateorprovince_of_headquarters	Methode Electronics	Illinois
org:stateorprovince_of_headquarters	Rover.com	Washington
org:stateorprovince_of_headquarters	BioTork	Florida
org:stateorprovince_of_headquarters	Florida Center for Investigative Reporting	Florida
org:stateorprovince_of_headquarters	Go Port Canaveral	Florida
org:stateorprovince_of_headquarters	Florida Carry	Florida
org:stateorprovince_of_headquarters	Lulu (app)	New York
org:stateorprovince_of_headquarters	Zello	New York
org:stateorprovince_of_headquarters	Qello	New York
org:stateorprovince_of_headquarters	Callision	New York
org:stateorprovince_of_headquarters	Decarcerate PA	Pennsylvania
org:stateorprovince_of_headquarters	FXDD	New York
org:stateorprovince_of_headquarters	The Franklin Report	New York
org:stateorprovince_of_headquarters	CommonBond	New York
org:stateorprovince_of_headquarters	WeShow	New York
org:stateorprovince_of_headquarters	Live Gamer	New York
org:stateorprovince_of_headquarters	BillGuard	New York
org:stateorprovince_of_headquarters	StockTouch	New York
org:stateorprovince_of_headquarters	Morgan Iron Works	New York
org:stateorprovince_of_headquarters	New York Skyride	New York
org:stateorprovince_of_headquarters	Gatestone Institute	New York
org:stateorprovince_of_headquarters	Knoa Software	New York
org:stateorprovince_of_headquarters	Random House Studio	New York
org:stateorprovince_of_headquarters	MWW	New York
org:stateorprovince_of_headquarters	New York Military Affairs Symposium	New York
org:stateorprovince_of_headquarters	Taskworld	New York
org:stateorprovince_of_headquarters	Sumall	New York
org:stateorprovince_of_headquarters	Magnum Foundation	New York
org:stateorprovince_of_headquarters	Tapad	New York
org:stateorprovince_of_headquarters	World Culture Open	New York
org:stateorprovince_of_headquarters	Misterbnb	Delaware
org:stateorprovince_of_headquarters	The Frye Company	New York
org:stateorprovince_of_headquarters	BLV Group	New York
org:stateorprovince_of_headquarters	FXall	New York
org:stateorprovince_of_headquarters	IPark	New York
org:stateorprovince_of_headquarters	Jacob & Co	New York
org:stateorprovince_of_headquarters	New York Cocoa Exchange	New York
org:stateorprovince_of_headquarters	TradingScreen	New York
org:stateorprovince_of_headquarters	United Breast Cancer Foundation	New York
org:stateorprovince_of_headquarters	SeedInvest	New York
org:stateorprovince_of_headquarters	MediaBrix	New York
org:stateorprovince_of_headquarters	PALPA	Pennsylvania
org:stateorprovince_of_headquarters	SkillBridge	New York
org:stateorprovince_of_headquarters	Vaad Talmidei Hatmimim Haolami	New York
org:stateorprovince_of_headquarters	StartUp Health	New York
org:stateorprovince_of_headquarters	Michael Kors	New York
org:stateorprovince_of_headquarters	Bindo	New York
org:stateorprovince_of_headquarters	School Outfitters	Ohio
org:stateorprovince_of_headquarters	Shannon's Soaps	Ohio
org:stateorprovince_of_headquarters	Edison Manufacturing Company	New York
org:stateorprovince_of_headquarters	"Schuyler, Hartley and Graham"	New York
org:stateorprovince_of_headquarters	Fairfax (US) Inc.	Delaware
org:stateorprovince_of_headquarters	Concord Pet Foods and Supplies	Maryland
org:stateorprovince_of_headquarters	Brookfield Property Partners	New York
org:stateorprovince_of_headquarters	Organization of Triangles Inc.	New York
org:stateorprovince_of_headquarters	Kantar Health	New York
org:stateorprovince_of_headquarters	Committee Entertainment	Florida
org:stateorprovince_of_headquarters	LunarG	Colorado
org:stateorprovince_of_headquarters	Pet Pros	Washington
org:stateorprovince_of_headquarters	"UTC Climate, Controls & Security"	Florida
org:stateorprovince_of_headquarters	American Society of Neuroradiology	Illinois
org:stateorprovince_of_headquarters	AXIOS Media	Virginia
org:stateorprovince_of_headquarters	Seacoast Packing Company	South Carolina
org:stateorprovince_of_headquarters	Shay's Bones and Biscuits	Kentucky
org:stateorprovince_of_headquarters	Shocker Toys	New Jersey
org:stateorprovince_of_headquarters	Tarheel Forensic League	North Carolina
org:stateorprovince_of_headquarters	Texas Comics	Texas
org:stateorprovince_of_headquarters	Texas Forensic Association	Texas
org:stateorprovince_of_headquarters	The John Cooper School	Texas
org:stateorprovince_of_headquarters	Theta Networks	New Jersey
org:stateorprovince_of_headquarters	Traveling Guitar Foundation	New Jersey
org:stateorprovince_of_headquarters	Women Superstars Uncensored	New Jersey
org:stateorprovince_of_headquarters	Moral Mondays	North Carolina
org:stateorprovince_of_headquarters	Destineer	Minnesota
org:stateorprovince_of_headquarters	Telugu Association of North America	Texas
org:stateorprovince_of_headquarters	Oklahoma Football Club	Oklahoma
org:stateorprovince_of_headquarters	Fulcrum Worldwide	New Jersey
org:stateorprovince_of_headquarters	Vision Research	New Jersey
org:stateorprovince_of_headquarters	Motor Ave	North Carolina
org:stateorprovince_of_headquarters	MTBC	New Jersey
org:stateorprovince_of_headquarters	Zycus	New Jersey
org:stateorprovince_of_headquarters	Food Democracy Now!	Iowa
org:stateorprovince_of_headquarters	Allen Tate Realtors	North Carolina
org:stateorprovince_of_headquarters	American News Company	New Jersey
org:stateorprovince_of_headquarters	Luxor Linens	New Jersey
org:stateorprovince_of_headquarters	Cabins USA Gatlinburg	Tennessee
org:stateorprovince_of_headquarters	Pacific Packing and Navigation Company	New Jersey
org:stateorprovince_of_headquarters	Tedjourney	North Carolina
org:stateorprovince_of_headquarters	Barzz.net	New Jersey
