org:founded_by	Culper Ring	George Washington
org:founded_by	Jimmy Wales Foundation	Jimmy Wales
org:founded_by	Elton John AIDS Foundation	Elton John
org:founded_by	Southern Christian Leadership Conference	Ralph Abernathy
org:founded_by	Southern Christian Leadership Conference	Fred Shuttlesworth
org:founded_by	Southern Christian Leadership Conference	Joseph Lowery
org:founded_by	Southern Christian Leadership Conference	Bayard Rustin
org:founded_by	Southern Christian Leadership Conference	"Martin Luther King, Jr."
org:founded_by	Nelson Mandela Foundation	Nelson Mandela
org:founded_by	"President's Council on Fitness, Sports, and Nutrition"	Dwight D. Eisenhower
org:founded_by	Social Security Treasury Venezuela	Hugo Chávez
org:founded_by	al-Qaeda	Osama bin Laden
org:founded_by	InterNIC	Elizabeth J. Feinler
org:founded_by	League for Programming Freedom	Richard Stallman
org:founded_by	Ada Initiative	Mary Gardiner
org:founded_by	Ada Initiative	Valerie Aurora
org:founded_by	Pasteur Institute	Louis Pasteur
org:founded_by	Committee on Human Rights in the USSR	Valery Chalidze
org:founded_by	Committee on Human Rights in the USSR	Andrei Sakharov
org:founded_by	Seva Dal	Jawaharlal Nehru
org:founded_by	Aktionsgruppe Banat	Richard Wagner
org:founded_by	Aktionsgruppe Banat	Anton Sterbling
org:founded_by	Aktionsgruppe Banat	Gerhard Ortinau
org:founded_by	Aktionsgruppe Banat	William Totok
org:founded_by	Aktionsgruppe Banat	Werner Kremm
org:founded_by	Aktionsgruppe Banat	Johann Lippet
org:founded_by	Kommune 1	Dieter Kunzelmann
org:founded_by	Theaterpathologisches Institut	Roland Reber
org:founded_by	World Union of Jewish Students	Hersch Lauterpacht
org:founded_by	Verein für Raumschiffahrt	Johannes Winkler
org:founded_by	Catholic Scouts of Europe	Andreas Hönisch
org:founded_by	Nivea product line	Paul Carl Beiersdorf
org:founded_by	Austrian Service Abroad	Andreas Maislinger
org:founded_by	Situationist International	Guy Debord
org:founded_by	Situationist International	Asger Jorn
org:founded_by	Order of the New Templars	Jörg Lanz von Liebenfels
org:founded_by	Survivre et vivre	Pierre Samuel
org:founded_by	Survivre et vivre	Claude Chevalley
org:founded_by	Survivre et vivre	Alexander Grothendieck
org:founded_by	Nicolas Berggruen Institute	Nicolas Berggruen
org:founded_by	United Synagogue	Nathan Marcus Adler
org:founded_by	Literaturkreis Adam Müller-Guttenbrunn	Harald Kyri
org:founded_by	Literaturkreis Adam Müller-Guttenbrunn	Nikolaus Berwanger
org:founded_by	Volunteer Ministers	L. Ron Hubbard
org:founded_by	Writers' Trust of Canada	Margaret Atwood
org:founded_by	Mia Hamm Foundation	Mia Hamm
org:founded_by	Animals Australia	Peter Singer
org:founded_by	Roots & Shoots	Jane Goodall
org:founded_by	"2nd Meta group at University of California, Santa Cruz"	Richard Bandler
org:founded_by	"2nd Meta group at University of California, Santa Cruz"	Frank Pucelik
org:founded_by	"2nd Meta group at University of California, Santa Cruz"	John Grinder
org:founded_by	Creative Commons	Lawrence Lessig
org:founded_by	Vivarium	Cassiodorus
org:founded_by	Center for Economic and Policy Research	Dean Baker
org:founded_by	Inspiration Mars Foundation	Dennis Tito
org:founded_by	Friends of Abe	Gary Sinise
org:founded_by	Public Interest Research Group	Ralph Nader
org:founded_by	Médecins Sans Frontières	Bernard Kouchner
org:founded_by	Sri Aurobindo Ashram	Sri Aurobindo
org:founded_by	German American Bund	Fritz Julius Kuhn
org:founded_by	Human Development and Capability Association	Amartya Sen
org:founded_by	National Centre for Promotion of Employment for Disabled People	Sonia Gandhi
org:founded_by	Artful Learning	Leonard Bernstein
org:founded_by	American Philosophical Society	Benjamin Franklin
org:founded_by	League of Nations	Woodrow Wilson
org:founded_by	Academia Brasileira de Letras	Joaquim Maria Machado de Assis
org:founded_by	Prussian Academy of Arts	Frederick I of Prussia
org:founded_by	American Psychiatric Association	Benjamin Rush
org:founded_by	American Legion	Theodore Roosevelt
org:founded_by	International Astronomical Union	Benjamin Baillaud
org:founded_by	Agon Shu	Seiyū Kiriyama
org:founded_by	For Inspiration and Recognition of Science and Technology	Dean Kamen
org:founded_by	International League for Human Rights	Roger Nash Baldwin
org:founded_by	Time Inc.	Henry Luce
org:founded_by	Time Inc.	Briton Hadden
org:founded_by	Samastha Kerala Jamiyyathul Ulama	Varakkal Mullokoya Thangal
org:founded_by	Victor Gollancz Ltd	Victor Gollancz
org:founded_by	Warner Bros. Animation	Hal Geer
org:founded_by	Muslim Jamaat	Ullal Thangal
org:founded_by	Muslim Jamaat	Sheikh Aboobacker Ahmad
org:founded_by	Campact	Christoph Bautz
org:founded_by	Centre for Economic Policy Research	Richard Portes
org:founded_by	Smithsonian Institution	Joseph Henry
org:founded_by	Smithsonian Institution	Joel Roberts Poinsett
org:founded_by	Smithsonian Institution	James Smithson
org:founded_by	Ludwig Institute for Cancer Research	Daniel K. Ludwig
org:founded_by	Society of Saint Vincent de Paul	Frédéric Ozanam
org:founded_by	Center for Jewish–Christian Understanding and Cooperation	Shlomo Riskin
org:founded_by	Messageries Maritimes	Albert Rostand
org:founded_by	Society for the Study of the Amur Region	Leo Grinevetsky
org:founded_by	Society for the Study of the Amur Region	Fyodor Fyodorovich Busse
org:founded_by	International League against Racism and Anti-Semitism	Bernard Lecache
org:founded_by	National Secular Society	Charles Bradlaugh
org:founded_by	Church of Scientology	L. Ron Hubbard
org:founded_by	League of Militant Atheists	Yemelyan Yaroslavsky
org:founded_by	Royal Shakespeare Company	Peter Hall
org:founded_by	Royal United Services Institute for Defence and Security Studies	"Arthur Wellesley, 1st Duke of Wellington"
org:founded_by	Société Notre-Dame de Montréal	Jérôme le Royer de la Dauversière
org:founded_by	Southern Poverty Law Center	Morris Dees
org:founded_by	Southern Poverty Law Center	"Joseph J. Levin, Jr."
org:founded_by	Memorial	Lev Ponomaryov
org:founded_by	Peabody Institute	George Peabody
org:founded_by	Economic Policy Institute	Robert Kuttner
org:founded_by	Economic Policy Institute	Lester Thurow
org:founded_by	Economic Policy Institute	Robert Reich
org:founded_by	World Vision International	Robert Pierce
org:founded_by	Conventual Franciscans	Francis of Assisi
org:founded_by	Durrell Wildlife Conservation Trust	Gerald Durrell
org:founded_by	Fluid Mechanics Institute - Institut de mécanique des fluides de Lille (ONERA Lille)	Joseph Kampé de Fériet
org:founded_by	American Public Health Association	Henry Hartshorne
org:founded_by	American Public Health Association	Stephen Smith
org:founded_by	Media Research Center	L. Brent Bozell III
org:founded_by	Global Footprint Network	Mathis Wackernagel
org:founded_by	Gibbs & Cox	Frederic H. Gibbs
org:founded_by	Gibbs & Cox	William Francis Gibbs
org:founded_by	Population Council	John D. Rockefeller III
org:founded_by	World Access for the Blind	Daniel Kish
org:founded_by	Parikrama Humanity Foundation	Shukla Bose
org:founded_by	Blogging Ghana	Kajsa Hallberg Adu
org:founded_by	Colibrí Center for Human Rights	Robin Reineke
org:founded_by	National Council of Swedish Women	Ellen Fries
org:founded_by	OpenGov Foundation	Seamus Kraft
org:founded_by	OpenGov Foundation	Darrell Issa
org:founded_by	Lomi School	Robert K. Hall
org:founded_by	The School for Body-Mind Centering	Bonnie Bainbridge Cohen
org:founded_by	Viewpoints Institute	Ethel Longstreet
org:founded_by	Viewpoints Institute	Joseph Samuel Bois
org:founded_by	Somatic Academy Berlin	Kai Ehrhardt
org:founded_by	Middendorf Institute for Breathexperience	Jörg Roffler
org:founded_by	Society of Universal Harmony	Franz Anton Mesmer
org:founded_by	Novato Institute for Somatic Research and Training	Eleanor Criswell Hanna
org:founded_by	Novato Institute for Somatic Research and Training	Thomas Hanna
org:founded_by	General Administration for Jewish Welfare	Nico Gunzburg
org:founded_by	Center for Applied research and Studies on Perceptual Psychoeducation	Danis Bois
org:founded_by	Arcadie	André Baudry
org:founded_by	Sociedad de Periodistas Manuel Márquez Sterling	Ricardo González Alfonso
org:founded_by	Sociedad de Periodistas Manuel Márquez Sterling	Adolfo Fernández Sainz
org:founded_by	Sociedad de Periodistas Manuel Márquez Sterling	Alfredo Felipe Fuentes
org:founded_by	Sociedad de Periodistas Manuel Márquez Sterling	Raúl Rivero
org:founded_by	Defenders of Human Rights Center	Mohammad Seifzadeh
org:founded_by	Defenders of Human Rights Center	Mohammad Ali Dadkhah
org:founded_by	Defenders of Human Rights Center	Shirin Ebadi
org:founded_by	Defenders of Human Rights Center	Abdolfattah Soltani
org:founded_by	Rousseau Institute	Édouard Claparède
org:founded_by	Pennsylvania Abolition Society	Thomas Paine
org:founded_by	Pennsylvania Abolition Society	John Woolman
org:founded_by	Pennsylvania Abolition Society	Anthony Benezet
org:founded_by	Wildlife Warriors	Steve Irwin
org:founded_by	The Vegan Society	Donald Watson
org:founded_by	Jeune France	Olivier Messiaen
org:founded_by	Jeune France	André Jolivet
org:founded_by	Jeune France	Yves Baudrier
org:founded_by	Appalachian Mountain Club	Edward Charles Pickering
org:founded_by	Jean Monnet Foundation for Europe	Jean Monnet
org:founded_by	Egyptian Organization for Human Rights	Saad Eddin Ibrahim
org:founded_by	One Foundation	Jet Li
org:founded_by	Riad Seif Forum	Riad Seif
org:founded_by	Youth Public Chamber of Russia	Alexey Navalny
org:founded_by	Youth Public Chamber of Russia	Dmitry Gudkov
org:founded_by	Youth Public Chamber of Russia	Maria Gaidar
org:founded_by	Thorn	Ashton Kutcher
org:founded_by	Thorn	Demi Moore
org:founded_by	Peace Now	Amos Oz
org:founded_by	Hostelling International	Richard Schirrmann
org:founded_by	William Alanson White Institute	Janet Rioch
org:founded_by	William Alanson White Institute	Frieda Fromm-Reichmann
org:founded_by	William Alanson White Institute	Harry Stack Sullivan
org:founded_by	William Alanson White Institute	Erich Fromm
org:founded_by	William Alanson White Institute	Clara Thompson
org:founded_by	American Association for the Abolition of Involuntary Mental Hospitalization	George Alexander
org:founded_by	American Association for the Abolition of Involuntary Mental Hospitalization	Thomas Szasz
org:founded_by	American Association for the Abolition of Involuntary Mental Hospitalization	Erving Goffman
org:founded_by	Satellite Sentinel Project	George Clooney
org:founded_by	Green Cross International	Mikhail Gorbachev
org:founded_by	SMURD	Raed Arafat
org:founded_by	Peres Center for Peace	Shimon Peres
org:founded_by	Ramakrishna Mission	Swami Vivekananda
org:founded_by	International Federation for Housing and Planning	Ebenezer Howard
org:founded_by	Campaign for Liberty	Ron Paul
org:founded_by	Israeli Committee Against House Demolitions	Jeff Halper
org:founded_by	Berkeley Earth Surface Temperature	Richard A. Muller
org:founded_by	Bujinkan	Masaaki Hatsumi
org:founded_by	OMF International	Hudson Taylor
org:founded_by	Order of the Star in the East	Annie Besant
org:founded_by	Revolutionary Association of the Women of Afghanistan	Meena Keshwar Kamal
org:founded_by	Māori Women's Welfare League	Whina Cooper
org:founded_by	Olmsted Brothers	"Frederick Law Olmsted, Jr."
org:founded_by	Olmsted Brothers	John Charles Olmsted
org:founded_by	Interact Club	Paul P. Harris
org:founded_by	Medbridge	Willy De Clercq
org:founded_by	Sons and Daughters of Jewish Deportees from France	Serge Klarsfeld
org:founded_by	Al-Muhajiroun	Anjem Choudary
org:founded_by	Al-Muhajiroun	Omar Bakri Muhammad
org:founded_by	Arman FM	Saad Mohseni
org:founded_by	Children's Miracle Network Hospitals	Marie Osmond
org:founded_by	Ecoglasnost	Peter Slabakov
org:founded_by	Fundación El Hacedor	José Luis Rodríguez Pittí
org:founded_by	Israel Council on Foreign Relations	David Kimche
org:founded_by	Refuge	Erin Pizzey
org:founded_by	Smeatonian Society of Civil Engineers	John Smeaton
org:founded_by	The Alliance for Safe Children	Pete Peterson
org:founded_by	Wildlife Preservation Society of Queensland	Judith Wright
org:founded_by	Michael Feinstein Great American Songbook Initiative	Michael Feinstein
org:founded_by	Cambridge Tolkien Society	Vera Chapman
org:founded_by	Good Thinking Society	Simon Singh
org:founded_by	News Corp	Rupert Murdoch
org:founded_by	SeriousFun Children's Network	Paul Newman
org:founded_by	Pies Descalzos Foundation	SHEIN
org:founded_by	Patrimonio Nacional	Francisco Franco
org:founded_by	Russian Esperantist Union	Boris Kolker
org:founded_by	International Esperanto Institute	Julia Isbrücker
org:founded_by	International Esperanto Institute	Andreo Cseh
org:founded_by	International Esperanto Institute	J. R. G. Isbrücker
org:founded_by	1001 Club	Prince Bernhard of the Netherlands
org:founded_by	The Film Foundation	Martin Scorsese
org:founded_by	Fundación PUPI	Javier Zanetti
org:founded_by	"AmfAR, The Foundation for AIDS Research"	Elizabeth Taylor
org:founded_by	Commission on Science and Technology for Sustainable Development in the South	Abdus Salam
org:founded_by	Design Council	Hugh Dalton
org:founded_by	Focus Group Holdings Limited	Andy Lau
org:founded_by	International League of Humanists	Linus Pauling
org:founded_by	KAICIID Dialogue Centre	Abdullah of Saudi Arabia
org:founded_by	Lopez Family Foundation	Jennifer Lopez
org:founded_by	The Prince's Trust	"Charles, Prince of Wales"
org:founded_by	Women's Sports Foundation	Billie Jean King
org:founded_by	Imam Khomeini Relief Foundation	Ruhollah Khomeini
org:founded_by	International Abolitionist Federation	Josephine Butler
org:founded_by	Order of the Hop	John the Fearless
org:founded_by	Merriam-Webster	Noah Webster
org:founded_by	Arya Samaj	Dayananda Saraswati
org:founded_by	Right To Play	Johann Olav Koss
org:founded_by	Narcotics Anonymous	Jimmy Kinnon
org:founded_by	Sar-El	Aharon Davidi
org:founded_by	Royal College of Physicians of Edinburgh	Robert Sibbald
org:founded_by	Série noire	Marcel Duhamel
org:founded_by	International Federation of Little Brothers of the Poor	Armand Marquiset
org:founded_by	New Acropolis	Jorge Ángel Livraga Rizzi
org:founded_by	Ashoka: Innovators for the Public	Bill Drayton
org:founded_by	Ananda Marga	Prabhat Ranjan Sarkar
org:founded_by	ROKPA International	Akong Rinpoche
org:founded_by	Royal Photographic Society	Roger Fenton
org:founded_by	Christian Coalition of America	Pat Robertson
org:founded_by	Sisters of Our Lady of Charity of the Refuge	Jean Eudes
org:founded_by	International Rehabilitation Council for Torture Victims	Inge Genefke
org:founded_by	INFORM	Eileen Barker
org:founded_by	Edhi Foundation	Abdul Sattar Edhi
org:founded_by	Ente Nazionale Sordi	Antonio Magarotto
org:founded_by	Britain Israel Communications and Research Centre	Poju Zabludowicz
org:founded_by	Chimpanzee and Human Communication Institute	Roger Fouts
org:founded_by	Comic Relief USA	Bob Zmuda
org:founded_by	Darpana Academy of Performing Arts	Vikram Sarabhai
org:founded_by	Darpana Academy of Performing Arts	Mrinalini Sarabhai
org:founded_by	National Committee to Preserve Social Security and Medicare	James Roosevelt
org:founded_by	National Women's Service	Soledad Alvear
org:founded_by	Saudi High Commission for Aid to Bosnia	Salman bin Abdulaziz Al Saud
org:founded_by	Sultan bin Abdulaziz Al Saud Foundation	Sultan bin Abdulaziz
org:founded_by	The Acting Company	John Houseman
org:founded_by	The Hollywood Vampires	Alice Cooper
org:founded_by	Getty Research Institute	J. Paul Getty
org:founded_by	National Dental Association	Weston Price
org:founded_by	Artists for Peace and Justice	Paul Haggis
org:founded_by	National initiative	Mike Gravel
org:founded_by	White Ribbon Campaign	Jack Layton
org:founded_by	Air Force Aid Society	Henry H. Arnold
org:founded_by	Little Sun	Olafur Eliasson
org:founded_by	Order of the Visitation of Holy Mary	Francis de Sales
org:founded_by	Conradh na Gaeilge	Douglas Hyde
org:founded_by	Jane Goodall Institute	Jane Goodall
org:founded_by	Emmaus	Abbé Pierre
org:founded_by	Special Olympics	Eunice Kennedy Shriver
org:founded_by	Sisters of the Resurrection	Celine Borzecka
org:founded_by	Alliance Israélite Universelle	Adolphe Crémieux
org:founded_by	Great Ape Project	Peter Singer
org:founded_by	Oddfellows	Thomas Wildey
org:founded_by	Policy Exchange	Nicholas Boles
org:founded_by	International Alliance of Women	Carrie Chapman Catt
org:founded_by	Khmer Rouge	Son Ngoc Minh
org:founded_by	Center for Science in the Public Interest	Michael F. Jacobson
org:founded_by	The Underground Camera	Tonny van Renterghem
org:founded_by	Bhaktivedanta Book Trust	A. C. Bhaktivedanta Swami Prabhupada
org:founded_by	Hudson Institute	Herman Kahn
org:founded_by	Esperanto PEN center	Perla Martinelli
org:founded_by	Esperanto PEN center	Giorgio Silfer
org:founded_by	Esperanto PEN center	István Nemere
org:founded_by	fédération photographique de France	Pierre Janssen
org:founded_by	Shuttleworth Foundation	Mark Shuttleworth
org:founded_by	Society of Anthropology of Paris	Paul Broca
org:founded_by	Batonga Foundation	Angélique Kidjo
org:founded_by	CCJO René Cassin	René Cassin
org:founded_by	Oud-Strijders Legioen	Prosper Ego
org:founded_by	Académie de Marine	Antoine Louis Rouillé
org:founded_by	First Satanic Church	Karla LaVey
org:founded_by	Clayton Knight Committee	Clayton Knight
org:founded_by	Clayton Knight Committee	Billy Bishop
org:founded_by	Vietnam Veterans of America	Bobby Muller
org:founded_by	Evans Scholars Foundation	Chick Evans
org:founded_by	Punjab Land Development Company	Shahbaz Sharif
org:founded_by	Chamillitary Entertainment	Chamillionaire
org:founded_by	Talal Abu-Ghazaleh Knowledge Society (TAGKS)	Talal Abu-Ghazaleh
org:founded_by	National Council of Negro Women	Mary McLeod Bethune
org:founded_by	Not On Our Watch Project	Don Cheadle
org:founded_by	Save the Children USA	Eglantyne Jebb
org:founded_by	William Holden Wildlife Foundation	Stefanie Powers
org:founded_by	The Simple Way	Shane Claiborne
org:founded_by	Cuban Institute of Independent Economists	Marta Beatriz Roque
org:founded_by	Women Under Siege Project	Gloria Steinem
org:founded_by	National Committee on Federal Legislation for Birth Control	Margaret Sanger
org:founded_by	FEMEN	Anna Hutsol
org:founded_by	Calvary Chapel	Chuck Smith
org:founded_by	World Business Council for Sustainable Development	Stephan Schmidheiny
org:founded_by	Gruppe SPUR	Helmut Sturm
org:founded_by	Gruppe SPUR	Hans-Peter Zimmer
org:founded_by	Gruppe SPUR	Heimrad Prem
org:founded_by	Gruppe SPUR	Lothar Fischer
org:founded_by	Buddhist Society	Christmas Humphreys
org:founded_by	Tablighi Jamaat	Muhammad Ilyas Kandhalawi
org:founded_by	Vajradhatu	Chögyam Trungpa
org:founded_by	Syrian Computer Society	Bassel al-Assad
org:founded_by	Men Against Rape and Discrimination	Farhan Akhtar
org:founded_by	gorsedd	Iolo Morganwg
org:founded_by	Junior Achievement	Horace A. Moses
org:founded_by	Junior Achievement	Theodore Newton Vail
org:founded_by	Junior Achievement	Winthrop M. Crane
org:founded_by	Open Doors	Andrew van der Bijl
org:founded_by	Students for the Exploration and Development of Space	Peter Diamandis
org:founded_by	International Movement ATD Fourth World	Joseph Wresinski
org:founded_by	Rocky Mountain Fur Company	William Henry Ashley
org:founded_by	Institute for Social Research	Felix Weil
org:founded_by	National Hispanic Leadership Agenda	Henry Cisneros
org:founded_by	Order of Lafayette	Hamilton Fish III
org:founded_by	Pittsburgh Film Office	Russell Streiner
org:founded_by	Sweet Relief Musicians Fund	Victoria Williams
org:founded_by	Knowledge Fund	Kakha Bendukidze
org:founded_by	Southern Regional Council	Howard W. Odum
org:founded_by	Bophana Center	Rithy Panh
org:founded_by	Action Tuam	Joseph Cassidy
org:founded_by	Union of Concerned Scientists	Kurt Gottfried
org:founded_by	Youth With A Mission	Loren Cunningham
org:founded_by	Institution of Civil Engineers	Joshua Field
org:founded_by	Institution of Civil Engineers	Henry Robinson Palmer
org:founded_by	New Kadampa Tradition	Kelsang Gyatso
org:founded_by	Save The Climate	Roger Balian
org:founded_by	American Society of Ichthyologists and Herpetologists	John Treadwell Nichols
org:founded_by	Ceres Hellenic Shipping Enterprises	George P. Livanos
org:founded_by	Dal Khalsa	Jassa Singh Ahluwalia
org:founded_by	Documentary Film Movement	John Grierson
org:founded_by	Family Research Institute	Paul Cameron
org:founded_by	John S. and James L. Knight Foundation	James L. Knight
org:founded_by	John S. and James L. Knight Foundation	John S. Knight
org:founded_by	Raelism	Claude Vorilhon
org:founded_by	SolarAid	Jeremy Leggett
org:founded_by	Ásatrúarfélagið	Sveinbjörn Beinteinsson
org:founded_by	Gapminder Foundation	Hans Rosling
org:founded_by	Barnardo's	Thomas John Barnardo
org:founded_by	Clemencic Consort	René Clemencic
org:founded_by	JAARS	William Cameron Townsend
org:founded_by	American Society for Biochemistry and Molecular Biology	John Jacob Abel
org:founded_by	Association for Women in Psychology	Phyllis Chesler
org:founded_by	Bosniak Academy of Sciences and Arts	Mustafa Cerić
org:founded_by	Business and Professionals Federation of Hong Kong	Vincent Lo
org:founded_by	Cartoons Against Corruption	Aseem Trivedi
org:founded_by	Feed The Hungry	Lester Sumrall
org:founded_by	Houston Galveston Institute	Harlene Anderson
org:founded_by	Jam Handy Organization	Jam Handy
org:founded_by	Innovations for Poverty Action	Dean Karlan
org:founded_by	Institute of Jamaica	Anthony Musgrave
org:founded_by	Investigative Reporting Workshop	Charles Lewis
org:founded_by	Sociedad Española de Psicología	Mariano Yela
org:founded_by	Sociedad Española de Psicología	Joan Josep López Ibor
org:founded_by	Sociedad Española de Psicología	Juan Zaragüeta
org:founded_by	Sociedad Española de Psicología	Antonio Vallejo-Nájera
org:founded_by	Sociedad Española de Psicología	José Luis Pinillos
org:founded_by	Sociedad Española de Psicología	Gonzalo Rodríguez Lafora
org:founded_by	Minhaj Welfare Foundation	Muhammad Tahir-ul-Qadri
org:founded_by	Six Point Group	"Margaret Mackworth, 2nd Viscountess Rhondda"
org:founded_by	Smile Angel Foundation	Li Yapeng
org:founded_by	Soil Association	Lady Eve Balfour
org:founded_by	Spread the Net	Belinda Stronach
org:founded_by	Red Cross Society of China	Sheng Xuanhuai
org:founded_by	ONE Campaign	Bono
org:founded_by	Center for Science and Culture	Stephen C. Meyer
org:founded_by	Gussstahl-Werk Witten	Carl Ludwig Berger
org:founded_by	Turkish Language Association	Celâl Sahir Erozan
org:founded_by	Turkish Language Association	Ruşen Eşref Ünaydın
org:founded_by	Turkish Language Association	Yakup Kadri Karaosmanoğlu
org:founded_by	United States Chamber of Commerce	Charles Nagel
org:founded_by	Aéro-Club de France	Ernest Archdeacon
org:founded_by	Mel Blount Youth Home	Mel Blount
org:founded_by	Heritage Foods USA	Carlo Petrini
org:founded_by	Davis Phinney Foundation	Davis Phinney
org:founded_by	Bosniac National Council	Sulejman Ugljanin
org:founded_by	Moscow Helsinki Group	Yuri Orlov
org:founded_by	Ars industrialis	Bernard Stiegler
org:founded_by	French Society of Cinematographers	Henri Alekan
org:founded_by	Jewish Released Time	Yosef Yitzchok Schneersohn
org:founded_by	Blue Labour	"Maurice Glasman, Baron Glasman"
org:founded_by	Wild-Touch	Luc Jacquet
org:founded_by	Kosmopoisk	Alexander Kazantsev
org:founded_by	Blue Obelisk	Peter Murray-Rust
org:founded_by	Authors' Club	Walter Besant
org:founded_by	Before Columbus Foundation	Ishmael Reed
org:founded_by	Bharti Foundation	Sunil Mittal
org:founded_by	Deep Green Resistance	Derrick Jensen
org:founded_by	European Center for Leadership Development	Alexandre Havard
org:founded_by	Focus on the Global South	Walden Bello
org:founded_by	Docomomo International	Hubert-Jan Henket
org:founded_by	Gorsedh Kernow	Henry Jenner
org:founded_by	École nationale supérieure de chimie de Lille	Alphonse Buisine
org:founded_by	Institute for Science and International Security	David Albright
org:founded_by	National Rifle Association	George Wood Wingate
org:founded_by	National Rifle Association	William Conant Church
org:founded_by	Knights of Columbus	Michael J. McGivney
org:founded_by	Brothers of Christian Instruction	Jean-Marie de Lamennais
org:founded_by	Brothers of Christian Instruction	Gabriel Deshayes
org:founded_by	E.Leclerc	Édouard Leclerc
org:founded_by	International Council of Christian Churches	Carl McIntire
org:founded_by	Vishva Hindu Parishad	M. S. Golwalkar
org:founded_by	Soul Survivor	Mike Pilavachi
org:founded_by	Save the Elephants	Iain Douglas-Hamilton
org:founded_by	April	Frédéric Couchet
org:founded_by	Association François-Xavier Bagnoud	Albina du Boisrouvray
org:founded_by	Brandt	Edgar Brandt
org:founded_by	International Game Developers Association	Ernest W. Adams
org:founded_by	Félix Potin	Félix Potin
org:founded_by	Parfums Caron	Ernest Daltroff
org:founded_by	Parfums Christian Dior	Marcel Boussac
org:founded_by	Seismological Society of Japan	John Milne
org:founded_by	OneKind	"Nina Douglas-Hamilton, Duchess of Hamilton"
org:founded_by	Pushtimarg	Vallabha Acharya
org:founded_by	ChildLine	Esther Rantzen
org:founded_by	Duke Ellington Fellowship Program	Willie Ruff
org:founded_by	Faith and Freedom Coalition	"Ralph E. Reed, Jr."
org:founded_by	Front Line Defenders	Denis O'Brien
org:founded_by	Na Píobairí Uilleann	Breandán Breathnach
org:founded_by	P2P Foundation	Michel Bauwens
org:founded_by	The Fred Hollows Foundation	Fred Hollows
org:founded_by	The Reach Foundation	Jim Stynes
org:founded_by	WWF-Canada	Alan Macnaughton
org:founded_by	HealthCorps	Mehmet Oz
org:founded_by	Htoo Foundation	Tay Za
org:founded_by	Equal Justice Initiative	Bryan Stevenson
org:founded_by	The Plaza Group	Louis Reijtenbagh
org:founded_by	 International Center for the Study of Psychiatry and Psychology	Peter Breggin
org:founded_by	FiLM iNDEPENDANT	Gregory Nava
org:founded_by	DEREVO	Anton Adasinsky
org:founded_by	TangoVia Buenos Aires	Ignacio Varchausky
org:founded_by	Inuit Tapiriit Kanatami	Tagak Curley
org:founded_by	Muhammadiyah	Ahmad Dahlan
org:founded_by	Vegetarians' International Voice for Animals	Juliet Gellatley
org:founded_by	Cult Awareness Network	Ted Patrick
org:founded_by	ARTICLE 19	J. Roderick MacArthur
org:founded_by	ARTICLE 19	Greg MacArthur
org:founded_by	ARTICLE 19	Martin Ennals
org:founded_by	ARTICLE 19	Aryeh Neier
org:founded_by	Ukrainian Helsinki Group	Mykola Rudenko
org:founded_by	Change.org	Ben Rattray
org:founded_by	Early Childhood Development Center	Pushpa Basnet
org:founded_by	Aitysh Public Fund	Sadyk Sher-Niyaz
org:founded_by	Civitas Institute	Art Pope
org:founded_by	"Lifeblood, the Thrombosis Charity"	Beverley Hunt
org:founded_by	Foundation for Individual Rights in Education	Alan Charles Kors
org:founded_by	House of creativity «Staraya Ladoga»	Vsevolod Bazhenov
org:founded_by	Last Post Fund	Arthur Hair
org:founded_by	Young Chamber of Commerce	Ansif Ashraf
org:founded_by	marabia.com.sa	Abdul Aziz al-Harbi
org:founded_by	Women of the Year Lunch	"Antonella Kerr, Marchioness of Lothian"
org:founded_by	Black Emergency Cultural Coalition	Benny Andrews
org:founded_by	New Negro Alliance	"Belford Lawson, Jr."
org:founded_by	Movement Development and Peace	Giorgio Ceragioli
org:founded_by	Open Russia	Irina Yasina
org:founded_by	Open Russia	Vladimir Dubov
org:founded_by	American Craft Council	Aileen Osborn Webb
org:founded_by	Bernard Daly Educational Fund	Bernard Daly
org:founded_by	CA/Browser Forum	Melih Abdulhayoğlu
org:founded_by	Chernobyl Children International	Adi Roche
org:founded_by	Confederate Stamp Alliance	August Dietz
org:founded_by	Daphne Jackson Trust	Daphne Jackson
org:founded_by	Indian Institute of Planning and Management	Arindam Chaudhuri
org:founded_by	Kairos Society	Ankur Jain
org:founded_by	Lifeline	Alan Walker
org:founded_by	Białoruska Partia Niezależnych Socjalistów	Szymon Rak-Michajłowski
org:founded_by	Nexa Center for Internet and Society	Marco Ricolfi
org:founded_by	Nexa Center for Internet and Society	Juan Carlos De Martin
org:founded_by	Royal Australian Historical Society	Andrew Houison
org:founded_by	Royal Institution of Naval Architects	Edward James Reed
org:founded_by	Saudi Civil and Political Rights Association	Mohammad Fahad al-Qahtani
org:founded_by	Saudi Civil and Political Rights Association	Issa al-Hamid
org:founded_by	Saudi Civil and Political Rights Association	Abdulrahman al-Hamid
org:founded_by	Saudi Civil and Political Rights Association	Mohammed Saleh al-Bejadi
org:founded_by	Saudi Civil and Political Rights Association	Abdullah al-Hamid
org:founded_by	Second Amendment Foundation	Alan Gottlieb
org:founded_by	The Message Trust	Andy Hawthorne
org:founded_by	ULTACH Trust	Aodán Mac Póilin
org:founded_by	Alberto and Elena Cortina Foundation	Alberto Cortina
org:founded_by	Delamain	James Delamain
org:founded_by	International Campaign for Tibet	Tenzin Tethong
org:founded_by	GoodWeave International	Kailash Satyarthi
org:founded_by	Goursez Vreizh	Jean Le Fustec
org:founded_by	The Yes Men	Jacques Servin
org:founded_by	The Yes Men	Igor Vamos
org:founded_by	Junior Chamber International	Henry Giessenbier
org:founded_by	Mind and Life Institute	R. Adam Engle
org:founded_by	Welsh Language Society	Geraint Jones
org:founded_by	Welsh Language Society	Owain Owain
org:founded_by	Welsh Language Society	John Davies
org:founded_by	Tehreek-e-Nafaz-e-Shariat-e-Mohammadi	Sufi Muhammad
org:founded_by	Sohu	Charles Zhang
org:founded_by	Les Enfants de Don Quichotte	Jean-Baptiste Legrand
org:founded_by	LulzSec	Hector Xavier Monsegur
org:founded_by	Unicode Consortium	Mark Davis
org:founded_by	Shriners	William J. Florence
org:founded_by	Shriners	Walter M. Fleming
org:founded_by	Tibetan Women's Association	Rinchen Khandro Choegyal
org:founded_by	Alfanar	Tarek Ben Halim
org:founded_by	Association française pour l'information scientifique	Michel Rouzé
org:founded_by	Bourbon	Jacques de Chateauvieux
org:founded_by	Centre contre les manipulations mentales	Roger Ikor
org:founded_by	Center of Contemporary Jewish Documentation	Isaac Schneersohn
org:founded_by	Cercle des économistes	Jean-Hervé Lorenzi
org:founded_by	Padmakara Translation Group	Péma Wangyal Rinpoché
org:founded_by	Scioto Company	Jean-Jacques Duval d'Eprémesnil
org:founded_by	Devoteam	Stanislas de Bentzmann
org:founded_by	FIMALAC	Marc Ladreit de Lacharrière
org:founded_by	Groupe Le Duff	Louis Le Duff
org:founded_by	Kredenn Geltiek	Raffig Tullou
org:founded_by	Panzani	Jean Panzani
org:founded_by	Americans Elect	Peter Ackerman
org:founded_by	Boys' Brigade	William Alexander Smith
org:founded_by	CAMBIA	Richard Anthony Jefferson
org:founded_by	Council on Competitiveness	John A. Young
org:founded_by	DKT International	Phil Harvey
org:founded_by	Evangelism Explosion	D. James Kennedy
org:founded_by	Hong Kong Note Printing	Thomas de la Rue
org:founded_by	Jain Foundation	Ajit Jain
org:founded_by	Passion Conferences	Louie Giglio
org:founded_by	Peace Alliance	Marianne Williamson
org:founded_by	PFLAG China	Hu Zhijun
org:founded_by	Terma Foundation	Nancy S. Harris
org:founded_by	United Democratic Front	K. Karunakaran
org:founded_by	World Pantheist Movement	Paul Harrison
org:founded_by	Fungus Federation of Santa Cruz	David Arora
org:founded_by	Association for the Study and Documentation of Asian Textiles	Jean Riboud
org:founded_by	Campaign Against Psychiatric Abuse	Viktor Fainberg
org:founded_by	Iris Global	Heidi Baker
org:founded_by	Animal Liberation Front	Ronnie Lee
org:founded_by	Camp Quest	Edwin Kagin
org:founded_by	United Negro College Fund	Frederick D. Patterson
org:founded_by	Ushahidi	Erik Hersman
org:founded_by	Heifer International	Dan West
org:founded_by	Alpha Phi Alpha	Robert Harold Ogle
org:founded_by	Alpha Phi Alpha	Nathaniel Allison Murray
org:founded_by	Alpha Phi Alpha	Charles Henry Chapman
org:founded_by	Alpha Phi Alpha	George Biddle Kelley
org:founded_by	Alpha Phi Alpha	Eugene Kinckle Jones
org:founded_by	Alpha Phi Alpha	Henry Arthur Callis
org:founded_by	Alpha Phi Alpha	Vertner Woodson Tandy
org:founded_by	Sutherland Institute	Gaylord K. Swim
org:founded_by	Texas Freedom Network	Cecile Richards
org:founded_by	The Donkey Sanctuary	Elisabeth Svendsen
org:founded_by	The Druid Network	Emma Restall Orr
org:founded_by	The Mission Continues	Eric Greitens
org:founded_by	Genealogical Society of Utah	Franklin D. Richards
org:founded_by	First Descents	Brad Ludden
org:founded_by	KMG Ethiopia	Bogaletch Gebre
org:founded_by	International Society for Autonomic Neuroscience	Geoffrey Burnstock
org:founded_by	GeoHazards International	Brian Tucker
org:founded_by	Recovering from Religion	Darrel Ray
org:founded_by	Women's Islamic Initiative in Spirituality and Equality	Daisy Khan
org:founded_by	Anti-Insane Asylum Society	Elizabeth Packard
org:founded_by	Delia Moran Vidanta Foundation	Daniel Chavez Moran
org:founded_by	Jerusalem Center for Public Affairs	Daniel J. Elazar
org:founded_by	National Vanguard	Kevin Alfred Strom
org:founded_by	Mercy Corps	Ellsworth Culver
org:founded_by	American Association for Nude Recreation	Kurt Barthel
org:founded_by	Black Data Processing Associates	"Earl A. Pace, Jr."
org:founded_by	Buttle UK	Frank Buttle
org:founded_by	Center for Defense Information	Gene La Rocque
org:founded_by	"Double ""H"" Ranch"	Charles Wood
org:founded_by	Edvance Foundation	Brian C. Mitchell
org:founded_by	Elizabeth Finn Care	Elizabeth Anne Finn
org:founded_by	Engineers Without Borders (Canada)	George Roter
org:founded_by	Institute in Basic Life Principles	Bill Gothard
org:founded_by	Islamic Forum of Europe	Chowdhury Mueen-Uddin
org:founded_by	MIT Sloan Sports Analytics Conference	Daryl Morey
org:founded_by	Memorable Order of Tin Hats	Charles Evenden
org:founded_by	Miss World Philippines	Cory Quirino
org:founded_by	National Research Center for Women and Families	Diana Zuckerman
org:founded_by	Notting Hill Housing Trust	Bruce Kenrick
org:founded_by	Outsports	"Cyd Zeigler, Jr."
org:founded_by	Posse Foundation	Deborah Bial
org:founded_by	Public Advocate of the United States	Eugene Delgaudio
org:founded_by	Radical Women	Clara Fraser
org:founded_by	Redeeming Our Communities	Debra Green
org:founded_by	Roper Center for Public Opinion Research	Elmo Roper
org:founded_by	Safe Humane Chicago	Cynthia Bathurst
org:founded_by	San Jose Stamp Club	Everett C. Erle
org:founded_by	Sea Turtles 911	Frederick Yeh
org:founded_by	Social Market Foundation	Daniel Finkelstein
org:founded_by	Society for Promoting the Employment of Women	Emily Faithfull
org:founded_by	Spring Harvest	Clive Calver
org:founded_by	Student Press Initiative	Erick Gordon
org:founded_by	World Resources Institute	James Gustave Speth
org:founded_by	Cult of the Dead Cow	Grandmaster Ratte'
org:founded_by	StopBadware	John Palfrey
org:founded_by	Götabanken	Lazarus Elias Magnus
org:founded_by	Götabanken	Philip Leman
org:founded_by	J Street	Jeremy Ben-Ami
org:founded_by	National Organization for the Reform of Marijuana Laws	Keith Stroup
org:founded_by	Stop Huntingdon Animal Cruelty	Greg Avery
org:founded_by	Gerontology Research Group	L. Stephen Coles
org:founded_by	Minuteman Project	Jim Gilchrist
org:founded_by	Friends of New Germany	Heinz Spanknobel
org:founded_by	American Institutes for Research	John C. Flanagan
org:founded_by	American Sports Medicine Institute	James Andrews
org:founded_by	Anti-Football League	Keith Dunstan
org:founded_by	BlueVoice.org	Hardy Jones
org:founded_by	Color of Change	James Rucker
org:founded_by	Conference on World Affairs	Howard Higman
org:founded_by	Conservation Strategy Fund	John Reid
org:founded_by	"Niantic, Inc."	John Hanke
org:founded_by	Institution of Environmental Sciences	"Julian Snow, Baron Burntwood"
org:founded_by	The Louis D. Brandeis Center for Human Rights under Law	Kenneth L. Marcus
org:founded_by	Reviving Baseball in Inner Cities	John Young
org:founded_by	YouthAIDS	Kate Roberts
org:founded_by	Canadian Association for Equality	Justin Trottier
org:founded_by	Nehirim	Jay Michaelson
org:founded_by	Swedish Doctors for Human Rights	Marcello Ferrada de Noli
org:founded_by	Junta de la Victoria	María Rosa Oliver
org:founded_by	Junta de la Victoria	Cora Ratto de Sadosky
org:founded_by	Council on Tall Buildings and Urban Habitat	Lynn S. Beedle
org:founded_by	Youth For Understanding	Rachel Andresen
org:founded_by	DBLP	Michael Ley
org:founded_by	The Real News	Paul Jay
org:founded_by	Jaringan Islam Liberal	Luthfi Assyaukanie
org:founded_by	Susan B. Anthony List	Rachel MacNair
org:founded_by	Traditional Values Coalition	Louis P. Sheldon
org:founded_by	Artangel	Roger Took
org:founded_by	Action for Children's Television	Peggy Charren
org:founded_by	Africa Inland Mission	Peter Cameron Scott
org:founded_by	Akanksha Foundation	Shaheen Mistri
org:founded_by	Aleph Institute	Sholom Lipskar
org:founded_by	AmeriCares	Robert Macauley
org:founded_by	American Association of Textile Chemists and Colorists	Louis Olney
org:founded_by	Dignitas International	James Orbinski
org:founded_by	Dignity in Dying	Killick Millard
org:founded_by	Déjà Vu	Harry Mohney
org:founded_by	Ecotrust Canada	Ian Gill
org:founded_by	Emergency Medicine Residents' Association	Joseph Waeckerle
org:founded_by	Extreme Ice Survey	James Balog
org:founded_by	Fetzer Institute	John Fetzer
org:founded_by	Great Commission church movement	Jim McCotter
org:founded_by	Helen Rollason Cancer Charity	Helen Rollason
org:founded_by	Information Society Project	Jack Balkin
org:founded_by	Institute for Security and Development Policy	Svante Cornell
org:founded_by	Interfaith Center of New York	James Parks Morton
org:founded_by	Janapada Loka	H. L. Nage Gowda
org:founded_by	Network of enlightened Women	Karin Agness
org:founded_by	Royal Canadian Numismatic Association	Jerome Remick
org:founded_by	Socialist Party	Mario Miranda
org:founded_by	Studio East	Lani Brockman
org:founded_by	Tall Clubs International	Kae Sumner Einfeldt
org:founded_by	The Second Mile	Jerry Sandusky
org:founded_by	Victims of Communism Memorial Foundation	Lee Edwards
org:founded_by	Wine Institute	Leon Adams
org:founded_by	Evangelize China Fellowship	Ji Zhiwen
org:founded_by	TransAfrica	Randall Robinson
org:founded_by	UKSA	Noel Lister
org:founded_by	Umam Documentation & Research	Lokman Slim
org:founded_by	Vermont Mozart Festival	Melvin Kaplan
org:founded_by	Visual Communications	Robert A. Nakamura
org:founded_by	Women's Way	Lynn Yeakel
org:founded_by	Free Expression Policy Project	Marjorie Heins
org:founded_by	Minnesota 2020	Matt Entenza
org:founded_by	International AIDS Vaccine Initiative	Seth Berkley
org:founded_by	Triad Foundation	Roy Hampton Park
org:founded_by	New Yorkers For Children	Nicholas Scoppetta
org:founded_by	Alberta Farmers' Association	Rice Sheppard
org:founded_by	National Entrepreneurship Network	Romesh Wadhwani
org:founded_by	The AIDS Support Organization	Noerine Kaleeba
org:founded_by	Society for New Music	Neva Pilgrim
org:founded_by	Girls Who Code	Reshma Saujani
org:founded_by	Crisis Text Line	Nancy Lublin
org:founded_by	Tantrik Order in America	Pierre Bernard
org:founded_by	ArtTable	Lowery Stokes Sims
org:founded_by	American Majority Action	Ned Ryun
org:founded_by	Americans for Truth about Homosexuality	Peter LaBarbera
org:founded_by	Australian Cancer Research Foundation	Peter Abeles
org:founded_by	Bochasanwasi Shri Akshar Purushottam Swaminarayan Sanstha	Shastriji Maharaj
org:founded_by	Cambodian Children's Fund	Scott Neeson
org:founded_by	Clear Channel Outdoor	Lowry Mays
org:founded_by	Compassion Over Killing	Paul Shapiro
org:founded_by	D.A.V. College Managing Committee	Mahatma Hansraj
org:founded_by	DotConnectAfrica	Sophia Bekele
org:founded_by	Free Congress Foundation	Paul Weyrich
org:founded_by	Global Happiness Organization	Ludvig Lindström
org:founded_by	Hacktivismo	Oxblood Ruffin
org:founded_by	Home School Legal Defense Association	Michael Farris
org:founded_by	ITIM: Resources and Advocacy for Jewish Life	Seth Farber
org:founded_by	Independent Women's Forum	Rosalie (Ricky) Gaull Silberman
org:founded_by	Institute for Energy Research	"Robert L. Bradley, Jr."
org:founded_by	International Development Enterprises	Paul Polak
org:founded_by	Lead or Leave	Rob Nelson
org:founded_by	London Welsh Centre	Margaret Lloyd George
org:founded_by	Los Angeles Gay and Lesbian Center	Morris Kight
org:founded_by	Moldovan–American Chamber of Commerce	Mark A. Meyer
org:founded_by	Mutuo	Peter Hunt
org:founded_by	National Women's Law Center	Nancy Duff Campbell
org:founded_by	Northern Student Movement	Peter J. Countryman
org:founded_by	People's Dispensary for Sick Animals	Maria Dickin
org:founded_by	Prison Reform Trust	Monty Finniston
org:founded_by	Roots of Empathy	Mary Gordon
org:founded_by	SPEAK campaign	Mel Broughton
org:founded_by	Southern Pulse	Samuel Logan
org:founded_by	StudentsFirst	Michelle Rhee
org:founded_by	TechChange	Nick Martin
org:founded_by	The Saylor Foundation	Michael J. Saylor
org:founded_by	AlloCiné	Jean David Blanc
org:founded_by	Energy Cities	Gérard Magnin
org:founded_by	Joseph Dufour et Cie	Joseph Dufour
org:founded_by	Fairness and Accuracy in Reporting	Jeff Cohen
org:founded_by	Stichting Skepsis	Marcel Hulspas
org:founded_by	Compassion in World Farming	Peter Roberts
org:founded_by	Société Française de Physique	Charles Joseph d'Almeida
org:founded_by	Women of Zimbabwe Arise	Jenni Williams
org:founded_by	Dalai Lama Center for Peace and Education	Victor Chan
org:founded_by	Hatier	Alexandre Hatier
org:founded_by	Jubilee 2000	Martin Dent
org:founded_by	Jubilee 2000	William Peters
org:founded_by	Young Life	Jim Rayburn
org:founded_by	Unione femminile nazionale	Ersilia Majno
org:founded_by	Landesa	Roy Prosterman
org:founded_by	Alaska Conservation Society	Ginny Wood
org:founded_by	American GI Forum	Hector P. Garcia
org:founded_by	American Institute for Medical and Biological Engineering	Robert M. Nerem
org:founded_by	British Committee for the Reunification of the Parthenon Marbles	James Cubitt
org:founded_by	Camp Stone	Irving I. Stone
org:founded_by	Common Purpose UK	Julia Middleton
org:founded_by	Crim Festival of Races	Bobby Crim
org:founded_by	Fishermen's Mission	Ebenezer Joseph Mather
org:founded_by	Freedom Now	Jared Genser
org:founded_by	Mideast Youth	Esra'a Al-Shafei
org:founded_by	Pais Movement	Paul Gibbs
org:founded_by	Rare Book School	Terry Belanger
org:founded_by	Sudan Social Development Organization	Mudawi Ibrahim Adam
org:founded_by	K11 Art Foundation	Adrian Cheng
org:founded_by	Women's Entrepreneurship Day	Wendy Diamond
org:founded_by	World Toilet Organization	Jack Sim
org:founded_by	Free State Project	Jason Sorens
org:founded_by	Society for Promoting Christian Knowledge	Thomas Bray
org:founded_by	123 Democratic Alliance	Yum Sin-ling
org:founded_by	Islamic Defenders Front	Muhammad Rizieq Shihab
org:founded_by	Ghent Bio-Energy Valley	Wim Soetaert
org:founded_by	The Spamhaus Project	Steve Linford
org:founded_by	ARK Music Factory	Patrice Wilson
org:founded_by	Royal Zoological Society of Scotland	Thomas Haining Gillespie
org:founded_by	Beauty with a Purpose	Julia Morley
org:founded_by	AMBUCS	William L. White
org:founded_by	Teach First	Brett Wigdortz
org:founded_by	The Global Fund for Children	Maya Ajmera
org:founded_by	The Oaktree Foundation	Hugh Evans
org:founded_by	Udavum Karangal	Pappa Vidyaakar
org:founded_by	W. Alton Jones Foundation	William Alton Jones
org:founded_by	Young Naturists and Nudists America	Felicity Jones
org:founded_by	Esperanto-Centro Paderborn	Hermann Behrmann
org:founded_by	Bridging Eastern & Western Psychiatry	Mario Di Fiorino
org:founded_by	Bridging Eastern & Western Psychiatry	Maria Luisa Figueira
org:founded_by	Freedom	Aneeta Prem
org:founded_by	Nida Civil Movement	Zaur Gurbanli
org:founded_by	Nida Civil Movement	Uzeyir Mammadli
org:founded_by	Nida Civil Movement	Rashadat Akhundov
org:founded_by	Watever	Marc Van Peteghem
org:founded_by	Critical Commons	Steve F. Anderson
org:founded_by	Help Nepal Network	Rabindra Mishra
org:founded_by	Groupe Feministe Socialiste	Louise Saumoneau
org:founded_by	The Compass Institute Inc	David Dangerfield
org:founded_by	K D Singh Foundation	K. D. Singh
org:founded_by	World Intelligence Network	Evangelos Katsioulis
org:founded_by	Cameroonian American Chamber of Commerce	Francis Ikome
org:founded_by	Correctiv	David Schraven
org:founded_by	Peace and Democracy Institute	Leyla Yunus
org:founded_by	SOI Institute	Mary N. Meeker
org:founded_by	SOI Institute	Robert Meeker
org:founded_by	Association of Negro Colleges and Secondary Schools	George Edmund Haynes
org:founded_by	Brazil Child Health	Vera Cordeiro
org:founded_by	California Cannabis Research Medical Group	Tod H. Mikuriya
org:founded_by	CanDo4Kids	William Townsend
org:founded_by	Chen Hsong	Chiang Chen
org:founded_by	El Pomar Foundation	Spencer Penrose
org:founded_by	Eugene Bell Foundation	Stephen Winn Linton
org:founded_by	Fisher House Foundation	Zachary Fisher
org:founded_by	Free Funeral Service Society	Thukha
org:founded_by	Giving What We Can	Toby Ord
org:founded_by	Green Monday	David Yeung
org:founded_by	Interdisciplinary Council on Developmental and Learning Disorders	Stanley Greenspan
org:founded_by	International Fellowship of Christians and Jews	Yechiel Eckstein
org:founded_by	Japan Center for International Exchange	Tadashi Yamamoto
org:founded_by	Lontar Foundation	Goenawan Mohamad
org:founded_by	Massachusetts Horticultural Society	William H. Sumner
org:founded_by	Monmouth Alms Houses	William Jones
org:founded_by	Public Allies	Vanessa Kirsch
org:founded_by	Silicon Cape Initiative	Vinny Lingham
org:founded_by	Spirit of Enniskillen Trust	Gordon Wilson
org:founded_by	State Policy Network	Thomas A. Roe
org:founded_by	Together On A Mission	Terry Virgo
org:founded_by	Federação Espírita do Estado de São Paulo	Augusto Elias da Silva
org:founded_by	Yad Leah	Karen Milch Thaler
org:founded_by	Lithuanian Helsinki Group	Viktoras Petkus
org:founded_by	National Association of Scholars	Stephen Balch
org:founded_by	New Community Corporation	William Linder
org:founded_by	Fashion Law Institute	Susan Scafidi
org:founded_by	Rotary Blood Bank	Sudarshan Agarwal
org:founded_by	Territorial Grain Growers' Association	William Richard Motherwell
org:founded_by	Movimento Feminino pela Anistia	Therezinha Zerbini
org:founded_by	Bystander Revolution	Mackenzie Bezos
org:founded_by	Architects & Engineers for 9/11 Truth	Richard Gage
org:founded_by	International Order of the Rainbow for Girls	W. Mark Sexson
org:founded_by	Rare Breeds Survival Trust	Joe Henson
org:founded_by	Humanitarian Organization for Migration Economics	Bridget Tan
org:founded_by	Council of Popular and Indigenous Organizations of Honduras	Berta Cáceres
org:founded_by	Girls for Gender Equity	Joanne N. Smith
org:founded_by	Meta Institute	Jeffrey Alan Paris
org:founded_by	Meta Institute	Lisa J. Chiara
org:founded_by	Meta Institute	Marilyn Moskowitz
org:founded_by	Reclaim New York	Rebekah Mercer
org:founded_by	Food Not Bombs	Keith McHenry
org:founded_by	Australian Conservation Foundation	Milo Dunphy
org:founded_by	House of Yahweh	Yisrayl Hawkins
org:founded_by	La Vie Claire	Henri-Charles Geffroy
org:founded_by	Mother's Right Foundation	Veronika Marchenko
org:founded_by	"80,000 Hours"	William MacAskill
org:founded_by	Abayima	Jon Gosier
org:founded_by	All India Ulema & Mashaikh Board	Mohammad Ashraf Kichhouchhwi
org:founded_by	American Turkish Chamber of Commerce	Ihsan Isik
org:founded_by	Ditch the Label	Liam Hackett
org:founded_by	Dodge Revolutionary Union Movement	General Baker
org:founded_by	ECRI Institute	Joel J. Nobel
org:founded_by	Healthy Planet	Shaylesh Patel
org:founded_by	Makers of Memories	Brian F. Martin
org:founded_by	Kizito Mihigo Peace Foundation	Kizito Mihigo
org:founded_by	Center for Applied Rationality	Julia Galef
org:founded_by	Uday Foundation	Rahul Verma
org:founded_by	Illyrian Academy	John Peter Marchi
org:founded_by	SEALDs	Aki Okuda
org:founded_by	Youth for Heritage Foundation	Vikramjit Singh Rooprai
org:founded_by	Voice of Libyan Women	Alaa Murabit
org:founded_by	Defy Ventures	Catherine Hoke
org:founded_by	New Artist Model	Dave Kusek
org:founded_by	Domestic Violence Institute	Lenore E. Walker
org:founded_by	National Animal Interest Alliance	Patti Strand
org:founded_by	SaveLIFE Foundation	Piyush Tewari
org:founded_by	Scholarship America	Irving A. Fradkin
org:founded_by	Teach For China	Andrea Pasinetti
org:founded_by	United States India Political Action Committee	Sanjay Puri
org:founded_by	Sex and Society	Agnete Bræstrup
org:founded_by	Mahvash & Jahangir Siddiqui Foundation	Jahangir Siddiqui
org:founded_by	MedChi	Ashton Alexander
org:founded_by	Open Whisper Systems	Moxie Marlinspike
org:founded_by	Code.org	Hadi Partovi
org:founded_by	Prerana	Priti Patkar
org:founded_by	Women for Human Rights	Lily Thapa
org:founded_by	TeenPact	Tim Echols
org:founded_by	Lahash International	Daniel Holcomb
org:founded_by	Community of Arran Seabed Trust	Howard Wood
org:founded_by	Restore International	Bob Goff
org:founded_by	Mainstream Republicans of Washington	Sam Reed
org:founded_by	Mosquitoes Suck Tour	David Peck
org:founded_by	Spastic Society of Gurgaon	Rajesh Bhola
org:founded_by	Princeton Evangelical Fellowship	Donald B. Fullerton
org:founded_by	Manitoba Grain Growers Association	James William Scallion
org:founded_by	African Women's Development Fund	Bisi Adeleye-Fayemi
org:founded_by	Sachkhoj Academy	Dharam Singh Nihang Singh
org:founded_by	Grassroot Diplomat	Talyn Rahman-Figueroa
org:founded_by	BritBangla	Taryn Khanam
org:founded_by	The White Company	Chrissie Rucker
org:founded_by	Youth For Blood	Saroj Karki
org:founded_by	Restless Beings	Rahima Begum
org:founded_by	Every Woman Foundation	Sophie Serafino
org:founded_by	Achalmritterschaft Reutlingen	Frank Christoph Schnitzler
org:founded_by	The Second Floor	Sabeen Mehmud
org:founded_by	"Centre for Justice, Governance and Environmental Action"	Phyllis Omido
org:founded_by	A Better Fort	Alex Smith
org:founded_by	Gulf Specimen Marine Laboratory	Jack Rudloe
org:founded_by	PLUS Kolkata	Agniva Lahiri
